<?xml version="1.0" encoding="UTF-8" standalone="no"?>
<svg xmlns="http://www.w3.org/2000/svg" width="24" height="24" viewBox="0 0 24 24">
    <path d="M12 5c-3.3 0-6 2.8-6 6.2 0 1.4.4 2.7 1.3 3.8.2.2.3.4.5.6.6.7 1.1 1.4 1.4 2.2 0 .2.1.6.1.8v.5c0 .4.3.8.8.8h4c.4 0 .8-.4.8-.8v-.5c0-.4 0-.6.1-.8.2-.8.9-1.6 1.4-2.3.2-.2.3-.4.5-.6.8-1.1 1.3-2.4 1.3-3.8C18 7.8 15.3 5 12 5zm3.5 9.1c-.1.2-.3.3-.4.5-.7.8-1.4 1.7-1.7 2.9 0 .2-.1.4-.1.9h-2.5c0-.5-.1-.8-.1-.9-.3-1.2-1.1-2.1-1.7-2.8-.2-.2-.3-.4-.5-.6-.6-.8-1-1.8-1-2.9 0-2.6 2-4.6 4.5-4.6s4.5 2.1 4.5 4.6c0 1-.4 2.1-1 2.9z"
          fill="#454553" class="border">
    </path>
    <path d="M14.2 21H9.9c-.5 0-.8.4-.8 1s.4 1 .8 1h4.3c.5 0 .8-.4.8-1s-.4-1-.8-1zM10 23c0 .6.4 1 .9 1h2.3c.5 0 .9-.4.9-1m8.2-12h-2.5c-.5 0-.8.3-.8.8 0 .4.3.8.7.8h2.5c.4 0 .7-.3.7-.8.1-.5-.2-.8-.6-.8zM5 11.8c0-.5-.3-.8-.7-.8H1.7c-.4 0-.7.3-.7.8 0 .4.3.8.7.8h2.5c.5-.1.8-.4.8-.8zM12 4c.4 0 .8-.3.8-.7V.8c-.1-.5-.4-.8-.8-.8s-.7.3-.8.7v2.5c0 .5.4.8.8.8zm6.2 13.2c-.3-.3-.7-.2-1 0-.2.3-.2.7 0 .9l1.6 1.6c.3.3.7.3 1 0 .3-.3.3-.7 0-1l-1.6-1.5zM5.8 5.8c.3.3.7.3 1 0 .3-.3.3-.7 0-1L5.2 3.2c-.3-.3-.7-.2-1 0-.2.3-.2.7 0 1l1.6 1.6zm0 11.4l-1.6 1.6c-.3.3-.3.7 0 1 .3.3.7.3 1 0l1.6-1.6c.3-.3.3-.7 0-1-.3-.3-.7-.3-1 0zM17.7 6c.2 0 .4-.1.5-.2l1.6-1.6c.3-.3.3-.7 0-1-.3-.3-.7-.3-1 0l-1.6 1.6c-.3.3-.3.7 0 1 .1.1.3.2.5.2z"
          fill="#1A8CFF" class="fill">
    </path>
</svg>