<?xml version="1.0" encoding="UTF-8" standalone="no"?>
<svg xmlns="http://www.w3.org/2000/svg" width="90" height="90" viewBox="0 0 90 90">
    <path
        d="M43.753 66.117h31.091a4.442 4.442 0 0 1 0 8.883H43.753a4.441 4.441 0 0 1-4.441-4.442 4.44 4.44 0 0 1 4.441-4.441zm-17.766 0a4.442 4.442 0 0 1 0 8.883 4.441 4.441 0 1 1 0-8.883zm51.818-17.766a5.182 5.182 0 0 1 0 10.363 5.182 5.182 0 0 1 0-10.363zm-1.85-29.611h4.441a7.032 7.032 0 1 1 0 14.065h-4.441a7.033 7.033 0 0 1 0-14.065zM16.364 32.065h40.035a8.957 8.957 0 0 0 0 14.065H16.364a8.082 8.082 0 0 0 0-14.065zM17.474 18h38.494a7.033 7.033 0 0 1 0 14.065H17.474a7.032 7.032 0 0 1 0-14.065zm-4.442 28.13H61.89a7.032 7.032 0 1 1 0 14.065H13.032a7.033 7.033 0 0 1 0-14.065z"
        fill="#F8F9FD"/>
    <path
        d="M37.331 35.384a2.803 2.803 0 0 0 3.845-1.041 2.861 2.861 0 0 0-1.03-3.882 2.803 2.803 0 0 0-3.845 1.04 2.861 2.861 0 0 0 1.03 3.883zm1.876-3.282a.954.954 0 0 1 .344 1.294.935.935 0 0 1-1.282.347.953.953 0 0 1-.343-1.294.933.933 0 0 1 1.281-.347z"
        fill="#454553"/>
    <path
        d="M81.193 40.173L43.599 18.254a.918.918 0 0 0-1.259.347c-2.031 3.553-6.522 4.789-10.01 2.756a.917.917 0 0 0-1.259.346l-5.787 10.123a.937.937 0 0 0 .332 1.274c3.488 2.034 4.673 6.58 2.642 10.133a.938.938 0 0 0 .332 1.275l37.594 21.92a.918.918 0 0 0 1.259-.347l14.082-24.633a.938.938 0 0 0-.332-1.275zM66.315 64.342L30.273 43.328c1.799-4.02.556-8.788-2.958-11.344l4.907-8.583c3.949 1.795 8.659.498 11.206-3.085L79.47 41.331 66.315 64.342z"
        fill="#454553"/>
    <path
        d="M33.807 25.811a.903.903 0 0 0-.996.427l-2.768 4.842a.922.922 0 0 0 .132 1.085c2.443 2.63 3.451 6.264 2.696 9.721a.937.937 0 0 0 .447 1.003l32.299 18.833a.91.91 0 0 0 1.253-.324l10.353-18.109c.25-.437.094-1-.349-1.258L44.575 23.198a.918.918 0 0 0-1.084.111c-2.587 2.388-6.207 3.324-9.684 2.502zm10.437-.696l30.925 18.031-9.449 16.526-30.924-18.03c.586-3.619-.447-7.342-2.827-10.194l2.12-3.709c3.637.656 7.345-.303 10.155-2.624z"
        fill="#1A8CFF"/>
    <path
        d="M47.908 33.893l20.346 11.863a.923.923 0 0 0 1.264-.357.943.943 0 0 0-.326-1.284L48.846 32.252a.924.924 0 0 0-1.263.358.941.941 0 0 0 .325 1.283zM45.563 37.996l20.346 11.862a.922.922 0 0 0 1.263-.357c.259-.453.114-1.028-.325-1.283L46.501 36.355a.922.922 0 0 0-1.263.357c-.259.453-.114 1.028.325 1.284zM43.218 42.098l20.346 11.863a.922.922 0 0 0 1.263-.358.941.941 0 0 0-.325-1.283L44.156 40.457a.923.923 0 0 0-1.264.357.943.943 0 0 0 .326 1.284z"
        fill="#454553"/>
    <path
        d="M20.017 55.598c0-8.333 6.722-15.136 15.029-15.136 8.307 0 15.03 6.803 15.03 15.136 0 8.333-6.723 15.136-15.03 15.136-8.307 0-15.029-6.803-15.029-15.136z"
        fill="#FFF"/>
    <path
        d="M46.915 55.598c0-6.623-5.324-12.011-11.869-12.011-6.544 0-11.869 5.388-11.869 12.011 0 6.623 5.325 12.011 11.869 12.011 6.545 0 11.869-5.388 11.869-12.011zm-25.318 0c0-7.478 6.023-13.574 13.449-13.574s13.449 6.096 13.449 13.574-6.023 13.574-13.449 13.574-13.449-6.096-13.449-13.574z"
        fill="#454553"/>
    <path
        d="M32.942 61.006a.837.837 0 0 1-.623-.261l-3.879-3.984a.913.913 0 0 1 0-1.281.854.854 0 0 1 1.248 0l3.274 3.343 7.776-7.968a.855.855 0 0 1 1.247 0 .91.91 0 0 1 0 1.281l-8.4 8.609a.912.912 0 0 1-.643.261z"
        fill="#1A8CFF"/>
</svg>
