<?xml version="1.0" encoding="UTF-8" standalone="no"?>
<svg xmlns="http://www.w3.org/2000/svg" width="24" height="24" viewBox="0 0 24 24">
    <path
            d="M12.454 18.919a.785.785 0 0 0 .273.057c.17 0 .33-.057.455-.182l6.92-6.295a.69.69 0 0 0 .227-.5.646.646 0 0 0-.227-.5l-6.92-6.296a.678.678 0 0 0-.739-.113.682.682 0 0 0-.409.625v4.874L6.136 5.203a.676.676 0 0 0-.738-.113.656.656 0 0 0-.398.613v12.591a.684.684 0 0 0 .682.682c.17 0 .329-.057.454-.182l5.909-5.375v4.875c0 .272.159.511.409.625zm-6.09-2.171V7.249l5.227 4.749-5.227 4.75zm7.045-9.499l5.227 4.749-5.227 4.75V7.249z"
            fill="#254959"></path>
</svg>