<?xml version="1.0" encoding="UTF-8" standalone="no"?>
<svg xmlns="http://www.w3.org/2000/svg" width="24" height="24" viewBox="0 0 24 24">
    <path d="M20 12a8 8 0 1 1-16 0 8 8 0 0 1 16 0z" fill="#FFF"/>
    <path d="M19.25 12a7.25 7.25 0 1 1-14.5 0 7.25 7.25 0 0 1 14.5 0z" stroke="#00B2E2" stroke-width="1.5"
          fill="none"/>
    <path d="M16.5 12a4.5 4.5 0 1 1-9 0 4.5 4.5 0 0 1 9 0zM19 7a2 2 0 1 1-3.999.001A2 2 0 0 1 19 7z"
          fill="#00B2E2"/>
</svg>
