<svg xmlns="http://www.w3.org/2000/svg" viewBox="0 0 217 54">
    <defs>
        <linearGradient id="a" gradientUnits="userSpaceOnUse" x1="27.287" y1="2" x2="27.287" y2="50">
            <stop offset="0" stop-color="#00B7FF"/>
            <stop offset="1" stop-color="#F6FF00"/>
        </linearGradient>
        <filter id="d" xmlns="http://www.w3.org/2000/svg" height="120%" width="120%">
            <feGaussianBlur in="SourceAlpha" stdDeviation="0.5"/>
            <feOffset dx="0" dy="1" result="offsetblur"/>
            <feComponentTransfer>
                <feFuncA type="linear" slope="0.2"/>
            </feComponentTransfer>
            <feMerge>
                <feMergeNode/>
                <feMergeNode in="SourceGraphic"/>
            </feMerge>
        </filter>
    </defs>
    <path
        d="M78.8 12.6v2.5h-6v1.5h2.9c2.5 0 3.9 1.7 3.9 3.7S78.2 24 75.7 24h-5.8V12.6h8.9zm-5.9 6.6v2.2h2.5c.7 0 1.2-.4 1.2-1.1 0-.7-.5-1.1-1.2-1.1h-2.5zM84.4 24V12.6h2.9v6.7l4.6-6.7h3V24h-3v-7l-4.8 7h-2.7zm18.6 0v-8.8h-3.2v-2.5h9.3v2.5h-3.2V24H103zm10.9 0V12.6h6.5c2.3 0 3.3 1.5 3.3 2.9s-.9 2.4-1.9 2.6c1.2.2 2.2 1.3 2.2 2.8 0 1.6-1.1 3.1-3.4 3.1h-6.7zm6.9-8c0-.5-.4-.9-1-.9h-2.9V17h2.9c.5 0 1-.4 1-1zm.2 4.5c0-.6-.4-1-1.1-1h-3v2h3c.6 0 1.1-.4 1.1-1zm15.8 3.5l-.6-1.6h-4.5l-.6 1.6h-3.3l4.3-11.3h3.7l4.3 11.3h-3.3zm-2.9-8.5l-1.5 4.3h2.9l-1.4-4.3zM72.5 41v-8.8h-3.2v-2.5h9.3v2.5h-3.2V41h-2.9zm10.9 0V29.6h8.4v2.5h-5.4V34h5.3v2.5h-5.3v1.9h5.4V41h-8.4zm20.8 0l-2.5-3.8-2.5 3.8h-3.5l4-5.8-3.7-5.6h3.5l2.2 3.6 2.2-3.6h3.5l-3.7 5.5 4 5.8h-3.5zm15.4 0v-4.6h-4.7V41H112V29.6h2.9v4.2h4.7v-4.2h2.9V41h-2.9zm7.8-5.7c0-3.5 2.6-5.9 6.1-5.9 3.5 0 6.1 2.4 6.1 5.9 0 3.5-2.6 5.9-6.1 5.9-3.4 0-6.1-2.4-6.1-5.9zm9.2 0c0-1.9-1.2-3.3-3.1-3.3-1.9 0-3.1 1.4-3.1 3.3 0 1.8 1.2 3.3 3.1 3.3 1.9 0 3.1-1.4 3.1-3.3zm6.8 3.3c1.1 0 1.7-.6 2.1-3.2l.7-5.7h8.5V41h-2.9v-8.8h-2.9l-.4 3.4c-.5 4.6-2.5 5.6-5 5.6v-2.6zm16.1-3.3c0-3.5 2.6-5.9 6.1-5.9 3.5 0 6.1 2.4 6.1 5.9 0 3.5-2.6 5.9-6.1 5.9-3.5 0-6.1-2.4-6.1-5.9zm9.2 0c0-1.9-1.2-3.3-3.1-3.3-1.9 0-3.1 1.4-3.1 3.3 0 1.8 1.2 3.3 3.1 3.3 1.9 0 3.1-1.4 3.1-3.3zm7.9 5.7V29.6h8.4v2.5h-5.4V41h-3zm13.4 0V29.6h2.9v6.7l4.6-6.7h3V41h-3v-7l-4.8 7H190zm16.1 0V29.6h2.9v6.7l4.6-6.7h3V41h-3v-7l-4.8 7h-2.7zm5.3-11.8c-1.2 0-2.3-.6-3-1.5l1.1-.9c.4.6 1.1 1 1.9 1 .8 0 1.4-.4 1.9-1l1.1.9c-.7.9-1.8 1.5-3 1.5z"
        fill="#FFF"/>
    <path
        d="M42.4 26c0 8.3-6.8 15.1-15.1 15.1S12.2 34.3 12.2 26 19 10.9 27.3 10.9 42.4 17.7 42.4 26zm8.9 0c0 13.2-10.8 24-24 24s-24-10.8-24-24 10.8-24 24-24c4.9 0 9.5 1.5 13.3 4 .8-.5 1.7-.8 2.7-.8 2.8 0 5 2.2 5 5 0 1-.3 2-.8 2.7 2.4 3.8 3.8 8.3 3.8 13.1zm-2.8 0c0-4.1-1.2-7.9-3.2-11.2-.6.3-1.3.5-2.1.5-2.8 0-5-2.2-5-5 0-.8.2-1.5.5-2.1-3.3-2.2-7.2-3.4-11.4-3.4C15.6 4.8 6.1 14.3 6.1 26s9.5 21.2 21.2 21.2S48.5 37.7 48.5 26z"
        fill="url(#a)"
        filter="url(#d)"/>
</svg>
