<svg xmlns="http://www.w3.org/2000/svg" width="21" height="21" viewBox="0 0 21 21">
    <path
        d="M10.5 21C4.7 21 0 16.3 0 10.5S4.7 0 10.5 0 21 4.7 21 10.5 16.3 21 10.5 21zm0-19C5.8 2 2 5.8 2 10.5c0 2.2.8 4.2 2.2 5.7 1.2-.6.8-.1 2.4-.8 1.7-.7 2-.9 2-.9v-1.6s-.6-.5-.8-1.9c-.4.1-.5-.5-.5-.8 0-.3-.2-1.4.2-1.3-.1-.7-.1-1.4-.1-1.7.1-1.2 1.3-2.5 3.1-2.6 2.1.1 3 1.4 3.1 2.6 0 .3 0 1-.1 1.7.5-.1.3 1 .2 1.3 0 .4-.2.9-.5.8-.2 1.5-.8 2-.8 2v1.6s.4.2 2 .9 1.2.2 2.4.8c1.4-1.5 2.2-3.5 2.2-5.7C19 5.8 15.2 2 10.5 2z"
        fill="#7B94A2"/>
</svg>
