<?xml version="1.0" encoding="UTF-8"?>
<svg version="1.1" xmlns="http://www.w3.org/2000/svg" viewBox="0 0 48 48">
    <path d="M23.888,30.252 C23.488,30.252 23.403,30.298 22.8,30 L13.2,20.4 C12.6,19.8 12.6,18.8 13.2,18.2 C13.8,17.6 14.8,17.6 15.4,18.2 L23.8,26.6 L32.2,18.2 C32.8,17.6 33.8,17.6 34.4,18.2 C35,18.8 35,19.8 34.4,20.4 L24.8,30 C24.263,30.298 24.288,30.252 23.888,30.252 z" fill="#276FBF"/>
    <path d="M24,28.8 C23,28.8 22.4,28.2 22.4,27.2 L22.4,1.6 C22.4,0.6 23,0 24,0 C25,0 25.6,0.6 25.6,1.6 L25.6,27.2 C25.6,28.2 25,28.8 24,28.8 z" fill="#276FBF"/>
    <path d="M40,48 L8,48 C3.6,48 0,44.4 0,40 L0,33.6 C0,32.6 0.6,32 1.6,32 C2.6,32 3.2,32.6 3.2,33.6 L3.2,40 C3.2,42.6 5.4,44.8 8,44.8 L40,44.8 C42.6,44.8 44.8,42.6 44.8,40 L44.8,33.6 C44.8,32.6 45.4,32 46.4,32 C47.4,32 48,32.6 48,33.6 L48,40 C48,44.4 44.6,48 40,48 z" fill="#276FBF"/>
</svg>
