<?xml version="1.0" encoding="utf-8"?>
<svg version="1.1" id="Layer_1" xmlns="http://www.w3.org/2000/svg" xmlns:xlink="http://www.w3.org/1999/xlink" x="0px" y="0px"
	 viewBox="0 0 75 75" enable-background="new 0 0 75 75" xml:space="preserve">
<g id="XMLID_56_">
	<g id="XMLID_57_">
		<path id="XMLID_132_" fill="#FFD162" d="M6.2,2.8v70.4h13V2.8H6.2z M12.7,8.6c-0.8,0-1.5-0.7-1.5-1.5c0-0.8,0.7-1.5,1.5-1.5
			c0.8,0,1.5,0.7,1.5,1.5C14.2,8,13.5,8.6,12.7,8.6z"/>
		<path id="XMLID_131_" fill="#FFC553" d="M12.7,2.8v2.8c0.8,0,1.5,0.7,1.5,1.5c0,0.8-0.7,1.5-1.5,1.5v64.6h6.5V2.8H12.7z"/>
		<g id="XMLID_83_">
			<g id="XMLID_103_">
				<rect id="XMLID_114_" x="16.3" y="11.5" fill="#5E6E7F" width="2.9" height="0.4"/>
				<rect id="XMLID_113_" x="16.3" y="17.3" fill="#5E6E7F" width="2.9" height="0.4"/>
				<rect id="XMLID_112_" x="16.3" y="23.2" fill="#5E6E7F" width="2.9" height="0.4"/>
				<rect id="XMLID_111_" x="16.3" y="29.1" fill="#5E6E7F" width="2.9" height="0.4"/>
				<rect id="XMLID_110_" x="16.3" y="34.9" fill="#5E6E7F" width="2.9" height="0.4"/>
				<rect id="XMLID_109_" x="16.3" y="40.8" fill="#5E6E7F" width="2.9" height="0.4"/>
				<rect id="XMLID_108_" x="16.3" y="46.7" fill="#5E6E7F" width="2.9" height="0.4"/>
				<rect id="XMLID_107_" x="16.3" y="52.5" fill="#5E6E7F" width="2.9" height="0.4"/>
				<rect id="XMLID_106_" x="16.3" y="58.4" fill="#5E6E7F" width="2.9" height="0.4"/>
				<rect id="XMLID_105_" x="16.3" y="64.2" fill="#5E6E7F" width="2.9" height="0.4"/>
				<rect id="XMLID_104_" x="16.3" y="70.1" fill="#5E6E7F" width="2.9" height="0.4"/>
			</g>
		</g>
		<g id="XMLID_58_">
			<g id="XMLID_84_">
				<rect id="XMLID_94_" x="17.7" y="67.2" fill="#5E6E7F" width="1.5" height="0.3"/>
				<rect id="XMLID_93_" x="17.7" y="61.3" fill="#5E6E7F" width="1.5" height="0.3"/>
				<rect id="XMLID_92_" x="17.7" y="55.5" fill="#5E6E7F" width="1.5" height="0.3"/>
				<rect id="XMLID_91_" x="17.7" y="49.6" fill="#5E6E7F" width="1.5" height="0.3"/>
				<rect id="XMLID_90_" x="17.7" y="43.7" fill="#5E6E7F" width="1.5" height="0.3"/>
				<rect id="XMLID_89_" x="17.7" y="37.9" fill="#5E6E7F" width="1.5" height="0.3"/>
				<rect id="XMLID_88_" x="17.7" y="32" fill="#5E6E7F" width="1.5" height="0.3"/>
				<rect id="XMLID_87_" x="17.7" y="26.2" fill="#5E6E7F" width="1.5" height="0.3"/>
				<rect id="XMLID_86_" x="17.7" y="20.3" fill="#5E6E7F" width="1.5" height="0.3"/>
				<rect id="XMLID_85_" x="17.7" y="14.4" fill="#5E6E7F" width="1.5" height="0.3"/>
			</g>
		</g>
	</g>
</g>
<g id="XMLID_52_">
	<path id="XMLID_55_" fill="#364A5E" d="M35.3,30.4c0,2.3-0.1,7.1-0.1,9.6c0,18.2,1.3,33,2.9,33c1.6,0,2.9-14.8,2.9-33
		c0-2.5-0.1-7.3-0.1-9.6H35.3z"/>
	<path id="XMLID_54_" fill="#FFC553" d="M38.1,14.1c-0.7,0-1.4-0.1-2.2-0.3c0,0-0.1,0-0.1-0.1c-0.2,4.9-0.4,10.6-0.5,16.7h5.5
		c-0.1-6.1-0.3-11.8-0.5-16.7C39.1,14.1,38.9,14.1,38.1,14.1z"/>
	<path id="XMLID_53_" fill="#F3705B" d="M40.2,11.4c1.4-2.1,0.7-4.2,0.3-5.1c-0.7-1.7-1.1-3.4-0.7-4.2c-2,0.2-2.6,3.3-2.5,5.2
		c-0.4-0.6-0.5-2.1-0.5-2.5c-5,4.6-3.4,11.7,1.3,11.7c4.4,0,4.9-4.5,3.7-8.1C41.8,9.9,40.9,11.4,40.2,11.4z"/>
</g>
<g id="XMLID_32_">
	<polygon id="XMLID_51_" fill="#F6F9FB" points="55.6,60.7 61.8,73.2 68.1,60.7 	"/>
	<rect id="XMLID_50_" x="55.6" y="10.8" fill="#5E6E7F" width="12.6" height="49.9"/>
	<rect id="XMLID_49_" x="55.6" y="10.8" fill="#364A5E" width="3.1" height="49.9"/>
	<rect id="XMLID_48_" x="65" y="10.8" fill="#364A5E" width="3.1" height="49.9"/>
	<polygon id="XMLID_47_" fill="#CDD3DA" points="55.6,60.7 58.7,60.7 61.8,73.2 	"/>
	<polygon id="XMLID_46_" fill="#CDD3DA" points="68.1,60.7 65,60.7 61.8,73.2 	"/>
	<polygon id="XMLID_45_" fill="#5E6E7F" points="59.4,68.3 61.8,73.2 64.3,68.3 	"/>
	<g id="XMLID_38_">
		<g id="XMLID_24_">
			<polygon id="XMLID_26_" fill="#364A5E" points="59.4,68.3 61.8,73.2 60.6,68.3 			"/>
			<polygon id="XMLID_25_" fill="#364A5E" points="63.1,68.3 61.8,73.2 64.3,68.3 			"/>
		</g>
	</g>
	<rect id="XMLID_37_" x="55.6" y="8.7" fill="#F6F9FB" width="12.6" height="2.1"/>
	<rect id="XMLID_36_" x="55.6" y="8.7" fill="#CDD3DA" width="3.1" height="2.1"/>
	<rect id="XMLID_35_" x="65" y="8.7" fill="#CDD3DA" width="3.1" height="2.1"/>
	<path id="XMLID_34_" fill="#FFC553" d="M58.5,2.8c-0.8,0-1.5,0.3-2.1,0.9c-0.6,0.6-0.9,1.3-0.9,2.1v2.9h12.6V5.8
		c0-0.8-0.3-1.5-0.9-2.1c-0.6-0.6-1.3-0.9-2.1-0.9H58.5z"/>
	<path id="XMLID_33_" fill="#BBAFA1" d="M56.8,7.2c-0.3,0-0.6-0.3-0.6-0.6V5.8c0-0.6,0.2-1.2,0.7-1.6c0.4-0.4,1-0.7,1.6-0.7h1.3
		c0.3,0,0.6,0.3,0.6,0.6c0,0.3-0.3,0.6-0.6,0.6h-1.3c-0.3,0-0.5,0.1-0.7,0.3c-0.2,0.2-0.3,0.5-0.3,0.7v0.8C57.4,7,57.2,7.2,56.8,7.2
		z"/>
</g>
</svg>
