<svg xmlns="http://www.w3.org/2000/svg" viewBox="0 0 321.224 235.042">
    <path fill="#C03D2D"
          d="M218.547 0c-1.101 0-1.867.054-2.503.129-.411.049-.767.106-1.123.164-.844.137-1.688.273-3.264.291l-.362.002h-.104a29.044 29.044 0 0 1-1.092-.022l-.081 1.998c.376.015.797.024 1.277.024 1.974 0 3.021-.17 3.945-.319.851-.137 1.655-.267 3.307-.267V0zm-14.504.059l-.271.001c-2.306.025-3.071.37-4.469.584-.637.097-1.405.167-2.511.167h-.088c-.163 0-.319-.002-.468-.004h-.007a10.247 10.247 0 0 1-.181-.004l-.048 2c.245.006.508.009.792.009 2.018 0 3.088-.222 4.032-.418.865-.18 1.612-.335 3.219-.335l.405.002.025-2-.108-.001-.292-.001h-.03zm-14.5.212l-.544.001c-.784.003-1.381.013-1.891.025-1.501.037-2.252.1-4.816.1h-.053l-.278-.001h-.019l-.013 2 .363.001c1.848 0 2.787-.033 3.695-.064a86.64 86.64 0 0 1 3.556-.062c.299 0 .571.004.822.011l.057-1.999a31.636 31.636 0 0 0-.794-.012h-.085zm-14.5-.209c-.149 0-.291.002-.428.005-1.533.04-2.365.297-3.197.554-.882.272-1.763.544-3.479.559l.017 2c2.009-.017 3.094-.352 4.052-.647.852-.263 1.524-.47 3.035-.47.455 0 .85.005 1.202.015L176.3.079l-.244-.006h-.02l-.063-.001a56.359 56.359 0 0 0-.761-.008h-.125c-.014-.002-.029-.002-.044-.002zm-21.187.117l-.037 2c1.307.024 1.99.135 2.781.264.924.15 1.972.32 3.946.32.619 0 1.159.013 1.651.038l.105-1.997a30.754 30.754 0 0 0-1.236-.038h-.514c-1.171 0-1.964-.061-2.623-.145-.97-.123-1.65-.292-2.82-.382l-.007-.001h-.026c-.359-.031-.757-.05-1.22-.059zm-14.003.439l-.076 1.999c1.028.039 1.661.141 2.331.249.924.149 1.97.317 3.943.317.98 0 1.803-.065 2.589-.204l-.348-1.969c-.434.077-.935.135-1.555.16h-.037l-.093.003h-.001l-.017.001H146.471l-.026.001h-.393l-.349-.002c-1.583-.017-2.429-.154-3.275-.29-.715-.106-1.426-.221-2.575-.265zM125.74.057l-.015 2c.92.007 1.541.021 2.162.034.901.02 1.833.04 3.666.04 1.238 0 1.965.058 2.459.109l.204-1.99a24.276 24.276 0 0 0-2.389-.118h-.273c-1.086 0-1.847-.007-2.477-.017-1.151-.019-1.867-.047-3.337-.058zm-5.629.39c-.703.108-1.509.198-2.792.208H117.056c-2.828 0-3.448.346-5.307.498l-.012.001h-.001a1.447 1.447 0 0 1-.068.005l.154 1.994c.786-.061 1.363-.151 1.921-.238.853-.134 1.658-.26 3.314-.26 1.617 0 2.603-.117 3.355-.232l-.301-1.976zM97.542.922l-.061 1.999c.521.016.944.037 1.368.057.914.045 1.86.091 3.72.091 1.623 0 2.484.031 3.365.068l.085-1.998a67.805 67.805 0 0 0-2.845-.069h-.606c-1.083 0-1.843-.016-2.472-.038-.423-.015-.787-.033-1.15-.05a58.058 58.058 0 0 0-1.404-.06zM83.419.559l-.155 1.994c.356.028.67.06.984.092a32.49 32.49 0 0 0 3.827.195c1.798 0 2.697.013 3.596.026l.19.003.029-2-1.078-.015C90.13.846 89.315.84 88.076.84c-1.812 0-2.718-.092-3.624-.184a48.616 48.616 0 0 0-1.033-.097zm-9.843-.1c-.136 0-.267.001-.393.003-1.555.024-2.393.193-3.231.363l-.373.074h-.001L69.573.9l-.248.047.358 1.968c.229-.042.447-.086.665-.13.867-.175 1.616-.326 3.229-.326 1.809 0 2.714.003 3.618.006l.567.002.006-2c-1.14-.004-2.007-.008-4.192-.008zM55.239.458l-.312 1.976.212.034c.923.148 1.969.315 3.94.315 1.7 0 2.526.093 3.401.191.33.036.66.073 1.031.106l.176-1.992a37.056 37.056 0 0 1-.51-.05l-.474-.052C61.82.887 60.937.787 59.215.782h-.136c-1.211 0-2.017-.065-2.689-.151a30.08 30.08 0 0 1-.93-.138l-.005-.001-.154-.025a9.106 9.106 0 0 1-.062-.009zm-5.641-.24c-.321.005-.606.011-.877.017-.538.012-1.02.026-1.618.037-.58.011-1.268.019-2.222.02h-1.968l-.171.001h-.001c-.645.005-1.141.012-1.622.019l.03 2c.848-.013 1.743-.025 3.433-.025 1.837 0 2.77-.023 3.673-.046.426-.011.852-.021 1.374-.029L49.598.218zM35.464.367l-.174.004h-.004a65.95 65.95 0 0 0-1.558.061c-.913.043-1.819.086-3.644.086h-.281a423.33 423.33 0 0 0-2.817.01l.014 2c.756-.005 1.625-.01 3.084-.01 1.859 0 2.804-.044 3.718-.088a67.081 67.081 0 0 1 1.708-.064L35.464.367zM15.588.055h-.256l-.012.001h-.002l-.013.001h-.004l-.012.001h-.002l-.013.001h-.004l-.011.001h-.003l-.014.001h-.004l-.011.001h-.004l-.013.001h-.005l-.009.001h-.005l-.013.001h-.005l-.009.001h-.005l-.013.001h-.005l-.009.001h-.006l-.01.001-.007.001a.02.02 0 0 0-.008.001h-.006a.02.02 0 0 0-.008.001l-.009.001a.02.02 0 0 0-.008.001h-.006a.02.02 0 0 0-.008.001l-.008.001-.009.001-.006.001-.008.001-.007.001-.01.001-.006.001-.007.001-.006.001-.012.001-.006.001-.007.001-.007.001-.011.001-.006.001-.007.001-.007.001-.011.001-.006.001-.007.001-.007.001-.007.001-.011.001-.006.001-.008.001-.005.001-.013.002-.005.001-.008.001-.004.001-.014.002h-.004l-.008.001-.004.001-.016.002h-.003l-.009.001h-.003a.123.123 0 0 1-.019.002l-.009.001h-.004l-.028.004h-.002l-.029.004h-.002l-.03.004h-.001l-.03.005h-.001l-.042.006c-.348.055-.69.137-1.024.239h-.001l-.029.009h-.001l-.029.009-.002.001a.13.13 0 0 0-.034.006l-.003.001a.069.069 0 0 0-.008.003l-.003.001a.074.074 0 0 1-.014.004l-.006.002-.007.002-.006.002a.036.036 0 0 1-.011.004l-.006.002-.007.002-.008.003-.007.002-.009.003-.005.002-.012.004h-.001l-.013.004-.004.001-.011.004-.002.001-.013.004-.002.001-.013.004h-.001l-.014.005h-.001a9.592 9.592 0 0 0-.323.117l.716 1.868c.693-.266 1.324-.395 1.93-.395 1.678 0 2.493.11 3.356.227.644.087 1.31.177 2.288.226l.1-1.997C19.118.399 18.627.055 15.588.055zM8.005 3.321c-.402.235-.801.472-1.193.717l-.003.002-.023.014-.001.001-.01.006-.003.002a.088.088 0 0 1-.01.006l-.003.002-.01.006-.002.001-.01.007-.002.001a.088.088 0 0 0-.013.008.088.088 0 0 0-.01.006l-.002.001a3.67 3.67 0 0 1-.081.052l-.003.002a.02.02 0 0 0-.006.004l-.007.004-.006.004-.006.004-.008.005-.005.003-.008.005-.004.003-.007.004-.006.004-.007.004-.006.004a.02.02 0 0 1-.006.004l-.006.004-.007.004-.006.004-.005.004-.008.005-.005.003-.007.005-.006.003-.006.004-.006.004-.024.015-.077.05-.003.002-.01.007-.001.001-.011.007-.002.001a.067.067 0 0 1-.011.007l-.002.002a.088.088 0 0 1-.01.006l-.003.002-.01.006-.003.002-.009.006-.004.003-.008.006-.004.002-.008.005-.005.003a.088.088 0 0 1-.01.006l-.002.001-.011.009h-.001l-.101.068h-.001l-.012.008-.012.008-.001.001-.012.008-.001.001-.011.007-.001.001-.012.008-.001.001-.011.007-.002.001-.15.102-.012.009h-.001l-.011.008-.001.001-.011.007-.002.001-.01.008-.003.001-.01.008-.002.001c-1.059.734-2.026 1.561-2.791 2.587l-.018.024a7.742 7.742 0 0 0-.132.184l-.009.012a.146.146 0 0 1-.009.013l-.008.012-.001.001a.044.044 0 0 1-.008.011l-.001.001-.007.012-.001.001a.044.044 0 0 1-.008.011l-.001.001-.007.012-.001.001-.008.012-.059.088-.009.013-.008.012-.001.001-.007.012-.001.001-.007.011a.002.002 0 0 1-.002.002l-.006.011-.001.002a.067.067 0 0 0-.007.011.002.002 0 0 0-.002.002l-.006.01-.002.003-.006.009-.003.004a.088.088 0 0 0-.007.012l-.007.01a.002.002 0 0 1-.002.002l-.006.012-.001.002-.007.01-.001.002-.033.052-.001.001-.007.012v.001l-.007.011-.002.003a.088.088 0 0 1-.006.01l-.002.004-.006.009-.003.004-.005.009-.002.004-.006.008-.002.005-.005.008-.003.005-.005.008a.022.022 0 0 0-.003.005l-.005.008a.022.022 0 0 0-.003.005l-.004.008a.022.022 0 0 0-.003.005l-.005.007-.003.006-.005.007-.003.006-.004.008a.022.022 0 0 0-.003.005l-.005.008a.022.022 0 0 0-.003.005l-.006.01-.001.003a33.211 33.211 0 0 0-.164.286l-.001.001a.031.031 0 0 0-.005.01.018.018 0 0 0-.005.007l-.003.005-.007.013-.001.001c-.13.229-.259.462-.386.699l1.762.946c.175-.326.354-.644.533-.954C5.27 7.327 7.084 6.174 9.013 5.049L8.005 3.321zM.082 14.366c-.023.178-.042.356-.056.535l-.001.019v.001l-.004.057v.002l-.001.016v.003l-.001.015v.003l-.001.018-.001.019v.001l-.001.018v.003l-.001.015v.005l-.001.014v.004l-.001.017v.001l-.001.018v.003l-.001.014v.006l-.001.013v.006l-.001.013v.005l-.001.036v.06l-.001.018v.272a136.33 136.33 0 0 0 .041 3.592c.019.844.038 1.694.04 3.302v.352l2-.012v-.085c0-1.81-.021-2.73-.041-3.62C2.019 18.219 2 17.362 2 15.597c0-.314.022-.641.065-.97l-1.983-.261zm3.046 13.759l-1.985.246c.013.104.025.212.035.325v.001l.001.008v.003l.001.007.001.008v.004l.001.006v.003c.022.264.038.55.044.866v.001l.001.028v.267c0 1.795-.026 2.688-.052 3.586v.024l-.003.087v.045l-.001.037v.165l-.001.032v.091l-.001.037-.001.031v.17l-.001.039v.027l-.001.06v.008c-.015.637-.027 1.393-.028 2.511l2 .002c.002-1.629.025-2.452.05-3.322.026-.892.052-1.815.052-3.63a17.193 17.193 0 0 0-.112-1.773zM1.119 42.502v.034l-.001 1.557v.09c0 .638-.027 1.163-.071 1.613-.08.811-.215 1.384-.351 1.958-.124.526-.248 1.052-.33 1.76v.001l-.003.025v.001l-.001.012v.002l-.001.005-.003.027v.002a15 15 0 0 0-.08 1.322l2 .039c.026-1.303.183-1.968.365-2.738.223-.943.476-2.013.476-4.032l.001-1.679-2.001.001zm1.793 13.79l-1.988.223c.039.346.069.735.084 1.192l.002.064v.136l.001.029v.133l.001.05v.594c0 1.623.004 2.474.007 3.324v.001l.005 1.521v.031l.002 1.402 2-.001a831.34 831.34 0 0 0-.007-2.961c-.004-.891-.007-1.781-.007-3.562.009-.81-.026-1.521-.1-2.176zm.184 14.331l-2 .023c.006.491.01 1.069.011 1.809v.305a183.429 183.429 0 0 1-.03 3.558 181.894 181.894 0 0 0-.029 2.807l2 .006c.004-1.284.016-2.031.029-2.779.015-.901.03-1.801.03-3.603 0-.893-.005-1.566-.011-2.126zM.598 84.754a21.39 21.39 0 0 0-.1 2.008v.269c0 1.079.037 1.832.089 2.456.06.729.141 1.281.206 1.972.045.482.083 1.032.101 1.755l1.999-.049c-.031-1.268-.119-2.042-.204-2.79-.098-.86-.19-1.673-.19-3.345 0-.806.029-1.465.091-2.075l-1.992-.201zm2.474 14.022l-1.998.089.001.014c.025.575.044 1.261.047 2.209v.226l-.001.176c-.015 1.635-.234 2.496-.457 3.342l-.024.089c-.173.655-.345 1.317-.421 2.337l1.994.149c.064-.856.206-1.392.37-2.012.252-.955.538-2.037.538-4.082a54.674 54.674 0 0 0-.049-2.537zm-.611 13.94l-1.992.183.026.3.001.008v.012l.001.009v.003c.039.504.069 1.094.078 1.868v.817l.001.014v.019l.001.013v.001l.001.015v.003l.001.012v.003l.001.014v.001l.001.014v.004l.001.011v.004l.001.029v.003l.001.011v.004l.001.013v.003l.001.013v.004l.001.011v.004l.002.029v.004l.001.011v.003l.001.014v.001l.001.013v.004l.001.011v.003l.001.014v.002l.001.013v.003l.001.012v.002l.001.015v.001l.001.013v.003l.001.013v.002l.001.015v.002l.001.013v.003l.001.012v.002l.001.014v.002l.001.012v.003l.001.013v.002l.001.014v.002l.001.012v.003l.001.014.001.015v.003l.001.012v.003l.003.029v.001l.001.014v.002l.003.029v.002l.001.013v.002l.003.029v.002l.001.013v.002l.003.029v.002l.002.014v.001l.004.03v.001l.002.014v.001l.004.03v.001l.006.045.006.045v.002l.006.045c.212 1.512.773 2.893 1.454 4.215l1.778-.916c-.915-1.775-1.323-3.192-1.323-4.594a26.8 26.8 0 0 0-.103-2.883zm4.123 12.269l-1.699 1.055c.535.862 1.13 1.666 1.858 2.316l.001.001.011.01.001.001.011.01.001.001.011.01.001.001.086.075.001.001.011.009.002.002.01.009.003.002.01.008.003.002.009.008.003.003.01.008.002.002.01.009.002.002a.106.106 0 0 1 .012.01 1.831 1.831 0 0 0 .052.042l.011.009.003.002.01.008.003.002.009.007.004.003.009.007.004.003.009.007.004.003.009.007.004.003.009.007.004.003.01.008.003.002.011.008.002.001.026.02.003.002.01.008.004.003.009.007a.014.014 0 0 1 .004.003.055.055 0 0 1 .008.006.018.018 0 0 1 .005.004l.008.006.005.004.008.006.005.004.008.006a.022.022 0 0 1 .005.004.022.022 0 0 0 .008.005.022.022 0 0 1 .005.004l.008.006a.018.018 0 0 1 .005.004l.009.006.004.003.01.007.003.002.013.009.003.002.01.007a.022.022 0 0 1 .005.004l.008.005.006.004.007.005.006.005.007.005.006.004.007.005.006.004.007.005.006.004.007.005.006.004.007.005.006.004.007.005.006.004.007.005.006.004.007.005.006.004.013.009.005.003a.055.055 0 0 1 .008.006l.006.004.007.005.007.004.007.004.007.004.007.004.006.004a.03.03 0 0 1 .007.005l.007.004.007.004.007.004.007.004.007.004.007.004.006.004.008.005.006.004.008.005a.022.022 0 0 1 .005.003l.009.006.005.003.012.008.005.003a.04.04 0 0 0 .009.005l.006.004.008.005.006.004a.03.03 0 0 1 .007.005l.006.004.008.005.006.004.008.005.006.004.008.005.006.004.007.004.006.004.008.005.006.004.008.005.006.003a.04.04 0 0 0 .009.005l.005.003.014.008.013.008.004.002.01.006a.008.008 0 0 0 .004.002.04.04 0 0 0 .009.005.008.008 0 0 0 .004.002.04.04 0 0 0 .009.005l.005.003.009.005a.008.008 0 0 0 .004.002.04.04 0 0 0 .009.005.008.008 0 0 0 .004.002.04.04 0 0 0 .009.005l.004.002a.047.047 0 0 0 .01.005l.004.002.01.006.003.002.011.006.003.002.012.007.001.001.098.053.014.007.013.007.001.001.013.007h.001l.014.007c1.112.576 2.373.888 3.691 1.055l.252-1.984c-1.355-.172-2.418-.49-3.251-.971-.765-.445-1.444-1.185-2.198-2.399zm16.263 3.22c-1.903 0-2.87.085-3.805.168-.526.046-1.023.09-1.697.119l.086 1.998c.726-.031 1.264-.079 1.803-.127.902-.08 1.809-.159 3.614-.159h.501l.022.001h.008l.028.001h.01l.02.001h.018l.02.001h.018l.019.001.028.001h.014c.84.033 1.459.124 1.994.237h.002l.009.002a.105.105 0 0 1 .02.005l.015.003.283.064.466-1.945c-.784-.179-1.812-.371-3.496-.371zm16.703.843c-.435.085-1.076.183-2.19.183-1.794 0-2.706-.018-3.588-.035a148.77 148.77 0 0 0-2.292-.032l-.013 2c.509.003.928.008 1.305.014.747.012 1.326.026 2.101.037.632.009 1.395.015 2.486.015h.382l.037-.001h.01l.037-.001h.011c.89-.022 1.542-.106 2.097-.214l-.383-1.966zm6.052-.733l-.085 1.998c1.219.052 1.957.207 2.687.364l.086.019c.845.182 1.704.36 3.31.378l.238.001h.393l.039-.001h.126l.113-.004h.001l.147-.006h.01l.134-.007h.001l.034-.002.103-.006h.001l.024-.002h.01l.016-.001h.017l.008-.001.008-.001.016-.001.015-.001h.002l.008-.001.012-.001h.077l.007-.001h.001l.007-.001c.28-.022.533-.052.766-.087l-.293-1.978c-.513.076-1.092.113-1.77.113-1.601 0-2.345-.16-3.206-.345a15.307 15.307 0 0 0-3.063-.426zm13.937-.185l-.033 2a16.7 16.7 0 0 1 1.295.068l.013.001h.001l.006.001h.001l.005.001h.001l.039.004h.022l.005.001h.014l.005.001h.009l.042.004h.002l.005.001h.002l.005.001h.023l.005.001h.016c.68.076 1.195.188 1.707.3l.019.004c.906.199 1.813.397 3.626.397h.683l.024-.001h.013l.025-.001h.011l.025-.001h.011l.027-.001.035-.001h.011l.024-.001h.046l.023-.001h.011l.025-.001h.002l.067-.003h.002l.033-.002.033-.002h.001l.033-.002.032-.002h.001l.032-.002.032-.002h.001l.064-.004h.001l.063-.004.062-.004h.001l.03-.002h.001l.029-.002h.001l.026-.002-.143-1.995c-.424.03-.884.045-1.408.045-1.596 0-2.338-.163-3.197-.351a15.931 15.931 0 0 0-3.628-.443zm14.085.12h-.097l.006 2h.41c1.594.004 2.444.042 3.291.08l.03.001c.856.038 1.717.076 3.348.08h1.399l.001-2h-1.141c-1.767 0-2.626-.038-3.535-.079-.911-.04-1.855-.082-3.712-.082zm21.754.044c-1.847 0-2.786.032-3.694.063-.915.031-1.779.06-3.558.06h-.459v2h.459a98.06 98.06 0 0 0 2.513-.027c1.416-.035 2.182-.093 4.561-.096h.946v-2h-.768zm6.422.005l-.001 2h.829c3.339 0 3.603.364 6.455.422.245.005.509.008.796.008h.383l-.005-2h-.377c-1.695 0-2.518-.098-3.39-.201-.949-.112-1.93-.229-3.861-.229h-.829zm15.333.306c-.467 0-.874.002-1.237.006l.019 2 .07-.001c.318-.003.671-.005 1.067-.005h.123c1.07.001 1.821.03 2.445.07.417.027.778.059 1.138.091a35.01 35.01 0 0 0 3.626.161v-2c-1.724 0-2.561-.075-3.448-.154-.934-.082-1.901-.168-3.803-.168zm21.316-.023c-1.701.023-2.671.189-3.526.334-.883.15-1.646.28-3.289.28-.607 0-1.108-.008-1.54-.021l-.06 1.999c.235.007.49.013.769.016h.831c1.813 0 2.719-.154 3.625-.309.836-.142 1.671-.285 3.217-.306l-.027-1.993zm7.685-.553c-.821 0-1.54.027-2.198.082l.168 1.993c.139-.012.284-.022.438-.032h.001l.022-.001h.017a25.6 25.6 0 0 1 1.329-.041h.226c1.802 0 2.708.186 3.608.373l.016.003.021.004h.002a15.04 15.04 0 0 0 2.133.322h.006l.023.002h.001c.182.013.376.024.584.032l.077-1.999c-1.1-.042-1.721-.171-2.439-.321-.948-.195-2.017-.417-4.035-.417zm20.494.277c-1.067.011-1.754.035-2.441.058-.914.032-1.778.062-3.555.062-.995 0-1.822.026-2.602.081l.141 1.995c.139-.01.285-.019.439-.027h.005a34.783 34.783 0 0 1 1.716-.047h.301c1.087 0 1.849-.011 2.479-.027 1.202-.03 1.93-.077 3.537-.093l-.02-2.002zm8.499-.126c-1.427 0-2.29.019-2.883.036l.056 1.999c.363-.01.761-.019 1.241-.026h.041c.424-.005.912-.009 1.494-.009h.051c1.093 0 1.856.03 2.489.071.906.059 1.544.143 2.496.198h.005c.202.012.418.022.654.031l.073-1.999a32.994 32.994 0 0 1-1.913-.13 36.333 36.333 0 0 0-3.804-.171zm14.497-.149c-1.548 0-2.504.08-3.462.2l.248 1.984c.295-.037.604-.072.956-.102h.018l.009-.001h.002l.019-.002h.017l.012-.001h.006l.008-.001h.006l.012-.001h.017c.4-.031.857-.055 1.41-.065h.017l.03-.001h.081l.097-.001h.494c1.811 0 2.717.281 3.623.561.182.057.365.113.554.167h.001l.01.003.002.001.007.002.006.002.006.002.006.002.003.001.008.002h.001c.281.079.58.153.92.214l.354-1.968c-.47-.085-.849-.202-1.287-.338-.981-.314-2.097-.66-4.211-.66zm14.494 1.095c-1.82 0-2.73.007-3.64.014l-.077.001.015 2h.077c.849-.007 1.699-.013 3.295-.014h.33c1.097 0 1.862.007 2.496.016.552.008 1.005.018 1.491.027l.792.013.028-2a212.68 212.68 0 0 1-1.144-.02c-.901-.019-1.832-.037-3.663-.037zm14.49-.693c-2.019 0-3.09.226-4.034.425l-.433.09.391 1.961c.17-.034.336-.069.501-.104l.011-.002c.863-.182 1.744-.36 3.427-.369h.147l.311.002c1.6.021 2.45.197 3.301.373.229.047.459.095.703.139l.358-1.968c-.228-.041-.442-.086-.656-.13-.943-.196-2.011-.417-4.027-.417zm14.495.192c-1.966 0-2.964.154-3.929.302-.275.042-.55.085-.853.123l.248 1.985c.104-.013.205-.026.303-.04h.003l.007-.001.007-.001.006-.001.012-.002h.001l.014-.002h.001c.184-.026.361-.053.538-.081l.018-.003c.853-.131 1.706-.263 3.314-.278l.311-.001.259.001c.984.006 1.687.05 2.279.107.396.039.741.084 1.087.129l.284.037.255-1.984-.278-.036c-.957-.125-1.945-.254-3.887-.254zm17.868.228c-.77.062-1.643.132-3.371.132-1.844 0-2.782.03-3.688.059-.405.013-.81.026-1.298.036l.042 2 .527-.013.019-.001c.271-.007.522-.015.773-.023a97.173 97.173 0 0 1 3.625-.058h.627l.06-.001h.077l.049-.001h.001l.05-.001h.053l.033-.001h.034l.049-.001h.002l.128-.003h.001l.124-.003h.006l.089-.002h.002l.029-.001h.002l.35-.011.298-.012h.001l.019-.001h.009l.1-.005h.001l.087-.004.021-.001.019-.001.01-.001.01-.001h.008l.017-.001h.018l.072-.004c.392-.023.734-.05 1.072-.077l-.157-1.999zm11.127-.498c-1.905 0-2.874.09-3.81.178-.502.047-.976.091-1.604.121l.097 1.998c.672-.033 1.182-.08 1.693-.128a34.741 34.741 0 0 1 3.488-.169h.691c.749.007 1.327.026 1.822.052h.002l.011.001.031.002h.008l.01.001h.003l.011.001h.021l.02.001h.016c.228.013.439.027.642.041l.143-1.995a45.522 45.522 0 0 0-3.295-.104zm17.141.075c-.537.037-1.323.079-2.644.079-1.846 0-2.784.032-3.691.062-.59.02-1.181.04-2.032.051l.026 2c.337-.004.634-.01.906-.017h.007c.424-.01.789-.023 1.153-.035h.007a91.381 91.381 0 0 1 3.624-.061h.282a37.421 37.421 0 0 0 2.5-.083l-.138-1.996zm11.853-.401c-1.863 0-2.809.048-3.725.094a57.56 57.56 0 0 1-2.372.082l.028 2c.761-.01 1.326-.031 1.833-.054h.008c1.118-.051 1.961-.117 4.009-.121h.388c.958.001 1.655.013 2.238.03l.057-1.999a81.49 81.49 0 0 0-2.464-.032zm8.107.157l-.047 1.999c.538.012.983.037 1.374.069h.002l.019.002h.018l.01.001h.008l.009.001.037.003h.001c.503.044.919.099 1.335.155.906.121 1.812.242 3.624.242h.382l.011-.001h.005l.011-.001h.004l.012-.001h.004l.012-.001h.004l.012-.001h.003l.013-.001h.003l.013-.001h.003l.013-.001h.003l.013-.001h.002l.014-.001h.002l.014-.001h.002l.014-.001h.002l.03-.002a8.98 8.98 0 0 0 1.159-.159l.013-.003h.002l.01-.002.005-.001.008-.002.007-.001.007-.001.008-.002.007-.001.009-.002.004-.001.011-.002.004-.001.012-.003.003-.001.012-.003.002-.001.013-.003h.001l.105-.024-.448-1.949a6.877 6.877 0 0 1-1.556.182c-1.68 0-2.496-.109-3.36-.224-.8-.111-1.627-.221-3.029-.254zm17.814-6.658c-.083.171-.173.34-.269.507-1.041 1.799-2.733 3.024-4.954 4.308l-.065.038 1.001 1.731.065-.038c2.276-1.317 4.366-2.761 5.683-5.038l.006-.011.003-.006.003-.005.005-.008c.099-.173.193-.348.281-.525l.02-.04v-.001l.019-.039-1.798-.873zm3.203-13.082h-2c0 1.743-.038 2.589-.078 3.486-.04.901-.082 1.832-.082 3.665 0 .418-.008.83-.026 1.236l1.998.089.014-.368v-.001l.001-.02v-.052c.006-.212.009-.427.011-.642V115.597a73.119 73.119 0 0 1 .08-3.575c.042-.894.082-1.788.082-3.576zm.044-14.113l-2 .007c.006 1.754.091 2.676.173 3.567.08.872.156 1.695.156 3.389 0 .558-.009 1.024-.025 1.428l1.998.079c.014-.346.023-.733.026-1.181V101.294c0-1.786-.082-2.68-.165-3.573l-.02-.219-.003-.032v-.004c-.031-.338-.06-.687-.084-1.095l-.004-.073v-.002l-.001-.01v-.011l-.001-.01v-.017l-.001-.017v-.006a35.797 35.797 0 0 1-.049-1.892zm.868-14.042l-2 .005c.003 1.534.026 2.38.048 3.198.024.905.047 1.759.047 3.518 0 .57-.027 1.063-.083 1.506l1.984.249c.052-.414.087-.891.096-1.466V87.01a117.401 117.401 0 0 0-.049-3.572c-.017-.818-.039-1.638-.043-3.147zm-.511-14.113l-2 .003c.002 1.412.011 2.205.021 2.999.011.887.021 1.773.021 3.547 0 .772.021 1.449.064 2.069l1.995-.138a27.021 27.021 0 0 1-.059-1.729V72.725c0-1.785-.011-2.678-.021-3.571-.009-.786-.019-1.574-.021-2.976zm-.407-14.119l-2 .037c.026 1.396.119 2.214.209 3.004.098.86.19 1.672.19 3.343l.001 2.082 2-.002v-.099l-.001-1.981c0-1.785-.102-2.677-.203-3.569l-.001-.008v-.002c-.085-.753-.171-1.509-.195-2.805zm.343-14.118l-2 .007c.004 1.213.016 1.945.028 2.676.014.885.029 1.769.029 3.538 0 .817-.022 1.487-.068 2.109l1.995.148c.026-.349.047-.74.06-1.204l.003-.102v-.07l.001-.024V44.167c.009-3.239-.039-3.543-.048-6.226zm-.346-14.127l-2 .011c.006 1.125.022 1.827.038 2.53.021.906.04 1.763.04 3.525 0 .965.019 1.765.059 2.519l1.997-.106a42.177 42.177 0 0 1-.055-2.117V29.785c-.001-1.711-.02-2.588-.04-3.459v-.066c-.009-.417-.019-.837-.026-1.351v-.055c-.007-.307-.01-.647-.013-1.04zm-.564-14.025l-1.881.679c.52 1.441.784 3.167.784 5.129 0 .951-.024 1.699-.078 2.425l1.995.148c.016-.217.031-.449.043-.705v-.001l.001-.025v-.022l.001-.012V17.376l.001-.013V17.303l.001-.026v-.004c.013-.307.022-.649.028-1.039l.002-.157v-.012l.001-.075V15.12l-.001-.043v-.004l-.001-.043V15.004l-.001-.021v-.005l-.001-.021v-.001l-.001-.022v-.004l-.001-.019v-.002l-.001-.022v-.003l-.001-.019v-.003l-.001-.021v-.004l-.001-.019v-.003l-.001-.022v-.003l-.001-.02v-.002l-.001-.022v-.002l-.001-.021v-.002l-.002-.045v-.002l-.002-.045v-.001l-.006-.14-.002-.047-.009-.164c-.09-1.562-.356-3.086-.863-4.488zm-10.786-8.355l-.484 1.94c1.131.282 2.256.752 3.44 1.438l.373.215c1.067.615 2.074 1.196 2.954 1.866l1.212-1.591a16.319 16.319 0 0 0-.829-.59l-.024-.016-.001-.001-.023-.016-.024-.016h-.001l-.072-.048-.001-.001-.022-.015-.003-.002-.021-.014-.004-.002-.02-.013-.005-.003-.02-.013-.005-.003-.019-.013-.006-.004-.018-.012-.007-.004a.174.174 0 0 0-.018-.011l-.008-.005-.016-.01-.009-.006-.015-.01-.009-.006-.014-.009-.011-.007-.013-.008-.012-.008-.013-.008a.088.088 0 0 0-.01-.006l-.015-.01-.01-.006-.015-.009a.067.067 0 0 1-.011-.007l-.011-.007-.015-.009-.009-.006a.15.15 0 0 0-.017-.01l-.008-.005-.018-.011-.008-.005a.174.174 0 0 0-.018-.011l-.006-.004-.021-.013-.005-.003-.022-.014-.003-.002-.023-.015-.002-.001c-.14-.087-.281-.173-.422-.258l-.105-.063-.001-.001-.092-.055-.004-.003-.022-.013-.003-.002-.022-.013-.007-.004-.018-.011a.229.229 0 0 0-.025-.014l-.011-.006-.013-.008-.013-.008-.009-.005-.017-.01-.009-.005-.017-.01-.008-.005-.018-.01-.008-.005-.02-.011-.005-.003-.021-.012a.008.008 0 0 0-.004-.002l-.023-.014c-.246-.144-.493-.286-.739-.428l-.341-.197-.029-.017-.014-.008-.005-.003a.088.088 0 0 0-.01-.006l-.005-.003a.031.031 0 0 0-.01-.005l-.004-.003a.088.088 0 0 0-.01-.006l-.005-.003a.04.04 0 0 0-.009-.005.008.008 0 0 0-.004-.002l-.012-.007-.003-.001-.028-.016-.005-.003a.04.04 0 0 0-.009-.005l-.005-.003a.04.04 0 0 0-.009-.005l-.005-.003-.01-.006a.008.008 0 0 0-.004-.002l-.011-.006-.003-.002-.043-.024-.005-.003a.04.04 0 0 0-.009-.005l-.005-.003-.009-.005-.005-.003-.01-.006a.008.008 0 0 0-.004-.002l-.012-.006-.002-.001-.029-.016h-.001l-.013-.007-.004-.002-.011-.006-.004-.002-.01-.006a.008.008 0 0 0-.004-.002l-.012-.006-.002-.001-.044-.024-.002-.001-.013-.007-.002-.001-.012-.006-.004-.002a.047.047 0 0 0-.01-.005.008.008 0 0 0-.004-.002l-.01-.005-.005-.003-.028-.015-.002-.001-.013-.007-.002-.001-.012-.006a.008.008 0 0 0-.004-.002l-.011-.006-.003-.002-.011-.006-.003-.002-.013-.007-.001-.001a.27.27 0 0 1-.029-.016l-.001-.001-.013-.007-.003-.002-.012-.006-.003-.002-.011-.006-.004-.002-.012-.006-.002-.001-.013-.007-.002-.001-.015-.008-.002-.001-.012-.007-.004-.002-.011-.006-.003-.002-.011-.006-.004-.002-.011-.006-.004-.002-.011-.006-.003-.002a.773.773 0 0 1-.029-.015l-.001-.001-.013-.007-.003-.001-.011-.006-.004-.002a.047.047 0 0 0-.01-.005l-.004-.002a.047.047 0 0 0-.01-.005l-.004-.002-.013-.006-.001-.001-.015-.007-.001-.001-.013-.007-.004-.002-.01-.005a.008.008 0 0 0-.005-.002l-.01-.005-.005-.003-.008-.004-.006-.003-.008-.004-.006-.003-.011-.005-.003-.002-.014-.007-.005-.002-.009-.005-.006-.003-.009-.004-.005-.003-.009-.005-.005-.003-.009-.005-.005-.002-.009-.004-.006-.003-.028-.014-.004-.002-.011-.005-.005-.002-.009-.004-.006-.003-.009-.004-.006-.003-.008-.004-.006-.003-.009-.004-.005-.003a.091.091 0 0 1-.014-.007l-.006-.003-.009-.004-.006-.003-.009-.004-.005-.003-.01-.005-.004-.002-.01-.005-.005-.002-.009-.004-.005-.002-.01-.005-.005-.002a.091.091 0 0 1-.014-.007l-.003-.002-.01-.005-.006-.003-.008-.004-.006-.003-.009-.004-.006-.003-.009-.004-.005-.003-.008-.004-.007-.003-.008-.004-.01-.005-.009-.004-.007-.003-.007-.003-.007-.003-.007-.003-.008-.003-.007-.003-.006-.003-.009-.004-.006-.003-.01-.005-.004-.002-.014-.006-.005-.002-.01-.005-.005-.002-.009-.004-.006-.003a.03.03 0 0 1-.008-.004l-.007-.003-.007-.003-.007-.003-.009-.004-.006-.003-.011-.005-.004-.002-.014-.006-.004-.002-.01-.004-.006-.003-.009-.004-.006-.003-.009-.004-.006-.003-.009-.004-.005-.002-.009-.004-.006-.003-.014-.006-.002-.001-.012-.005-.006-.003-.009-.004-.006-.003-.008-.003-.007-.003a.02.02 0 0 1-.008-.004l-.006-.003-.009-.004-.006-.003-.009-.004a.017.017 0 0 0-.005-.002l-.014-.006-.007-.003-.008-.003-.006-.003-.009-.004-.006-.003a.02.02 0 0 1-.008-.004l-.006-.003a.02.02 0 0 1-.008-.004l-.006-.003-.009-.004-.005-.002-.011-.005-.007-.003-.011-.005-.008-.003-.006-.003a.069.069 0 0 1-.008-.003l-.006-.003-.008-.003-.007-.003-.008-.003-.007-.003-.008-.003-.007-.003-.007-.003-.014-.006-.004-.002-.01-.004-.006-.003a.069.069 0 0 1-.008-.003l-.006-.003-.008-.003-.007-.003-.009-.003a.014.014 0 0 0-.006-.002l-.01-.004-.004-.002a.07.07 0 0 0-.013-.005h-.001l-.015-.006-.005-.002-.01-.004-.006-.003-.008-.003-.007-.003-.008-.003-.007-.003-.007-.003-.008-.003-.007-.003-.007-.003-.011-.004-.003-.001-.014-.006a.014.014 0 0 0-.006-.002l-.009-.003-.007-.003a.069.069 0 0 1-.008-.003.014.014 0 0 0-.006-.002l-.009-.004a.014.014 0 0 0-.006-.002l-.009-.003a.014.014 0 0 0-.006-.002l-.009-.004-.006-.002-.029-.011-.004-.002-.01-.004-.005-.002-.009-.003a.014.014 0 0 0-.006-.002l-.009-.003-.006-.002-.009-.004-.005-.002-.011-.004-.003-.001-.014-.005-.004-.002-.011-.004-.005-.002-.01-.004-.005-.002-.01-.004-.005-.002-.01-.004-.005-.002-.012-.004-.003-.001a.283.283 0 0 0-.031-.011h-.001l-.014-.005-.004-.002-.011-.004-.004-.002-.011-.004-.004-.001-.012-.004-.003-.001-.014-.005h-.001l-.031-.011-.003-.001-.012-.004a.008.008 0 0 1-.004-.002l-.01-.004-.006-.002-.01-.004-.004-.001-.012-.004-.003-.001-.03-.011h-.001l-.015-.005-.002-.001-.013-.005-.004-.001-.012-.004-.003-.001-.012-.004-.003-.001-.014-.005h-.001l-.031-.011h-.001l-.014-.005-.003-.001-.012-.004-.003-.001-.012-.004-.003-.001a.07.07 0 0 1-.013-.005h-.001l-.078-.026h-.002l-.015-.005c-.314-.101-.63-.192-.95-.272zM298.329.157h-.615l-.03.001H297.585l-.015.001h-.001l-.049.002h-.002l-.015.001h-.062l-.057.003-.024.001h-.044a4.132 4.132 0 0 0-.111.007h-.001l-.015.001h-.002a8.519 8.519 0 0 0-.245.018h-.001c-.16.013-.31.029-.454.046a38.51 38.51 0 0 0-.209.027h-.001l-.005.001h-.001l-.005.001h-.002l-.005.001-.005.001h-.002l-.005.001-.006.001h-.001l-.087.013-.025.004h-.001l-.022.003-.003.001-.008.001-.004.001h-.001l-.005.001-.003.001-.004.001h-.002l-.004.001-.004.001h-.002l-.004.001h-.005l-.004.001h-.002l-.004.001h-.003l-.004.001h-.002l-.004.001h-.003l-.004.001h-.002l-.004.001h-.003l-.005.001h-.001l-.006.001-.013.002h-.001l-.011.002h-.001l-.005.001h-.001l-.005.001h-.002l-.005.001h-.001l-.005.001h-.002l-.005.001-.005.001h-.002c-.397.068-.741.148-1.078.231l.476 1.943c.67-.164 1.429-.35 2.99-.35 1.575 0 2.308.178 3.157.385.411.1.878.214 1.434.304l.323-1.974h-.002l-.006-.001-.008-.001h-.002l-.01-.002h-.002l-.018-.003a12.45 12.45 0 0 1-.506-.096h-.002l-.009-.002h-.002l-.007-.001-.005-.001-.004-.001-.007-.001-.003-.001-.008-.002h-.001c-1.199-.246-2.052-.588-4.312-.588zm-17.534.638l-.444 1.95c.776.177 1.795.358 3.466.358 1.827 0 2.741-.013 3.655-.025.535-.007 1.07-.015 1.795-.02l-.013-2c-1.958.013-2.544.045-5.436.045h-.518a12.74 12.74 0 0 1-1.901-.179h-.002l-.004-.001h-.002l-.011-.002h-.002l-.004-.001h-.001l-.024-.004h-.001l-.005-.001h-.001l-.017-.003h-.002l-.011-.002h-.002l-.004-.001h-.002l-.003-.001-.004-.001-.004-.001h-.002l-.003-.001-.003-.001h-.004l-.003-.001-.006-.001h-.001L281.262.9l-.003-.001h-.002l-.003-.001-.006-.001-.004-.001h-.001l-.448-.101zM275.199.23c-.236.014-.452.032-.654.052l-.009.001h-.001l-.007.001h-.003l-.008.001-.009.001h-.001l-.008.001h-.002l-.008.001h-.003l-.005.001h-.009l-.006.001-.005.001h-.007l-.018.002h-.002l-.025.003h-.002l-.018.002c-.205.023-.395.048-.575.075h-.001l-.022.003h-.002l-.004.001h-.002l-.007.001-.004.001h-.002l-.005.001-.004.001-.006.001h-.002l-.005.001h-.003l-.006.001h-.002l-.006.001h-.001a.088.088 0 0 1-.016.002l-.008.001h-.001l-.008.001c-.266.042-.513.087-.76.132-.871.159-1.742.317-3.418.329l-.177.001h-.194c-1.04 0-1.772-.003-2.384-.007l-.013 2c.647.004 1.428.007 2.56.007 1.994 0 3.052-.193 3.985-.362.629-.115 1.173-.214 2.026-.264L275.199.23zm-14.093.594c-1.219.007-1.953.026-2.69.046-.849.022-1.702.045-3.302.047h-.882l-.036-.001h-.002l-.036-.001h-.001a22.917 22.917 0 0 1-1.526-.075l-.17 1.993c.699.06 1.466.089 2.345.089 1.839 0 2.774-.025 3.679-.049.721-.019 1.442-.038 2.635-.045l-.014-2.004zM246.997.41a40.4 40.4 0 0 0-3.026.129h-.001l-.036.003h-.006c-.906.067-1.812.134-3.624.134h-.261a22.89 22.89 0 0 1-1.519-.058l-.148 1.994a26.13 26.13 0 0 0 1.927.065c1.886 0 2.845-.071 3.772-.139.798-.059 1.552-.115 2.939-.126L246.997.41zM232.903.095a30.678 30.678 0 0 0-2.347.085h-.002l-.016.001h-.004l-.016.001H230.505l-.011.001h-.001c-.384.031-.721.067-1.058.103l-.009.001c-.878.094-1.756.189-3.459.194H225.277l-.042-.001h-.099l-.053-.001c-.23-.005-.443-.012-.643-.02l-.087 1.998c.418.018.893.029 1.448.029 1.92 0 2.896-.105 3.84-.206.854-.092 1.66-.178 3.271-.183l-.009-2.002zM218.547 0v2l.246.001.013-2h-.044L218.547 0z"/>
    <path fill="#C24132"
          d="M95.765 209.813c.955 1.918.061 3.71-.33 5.556-.232 1.096.122 1.879 1.517 1.883 5.527.016 11.025-.576 16.427-1.53 4.139-.731 8.342-1.206 12.423-2.564 2.27-.755 4.349-1.596 6.363-2.813 1.168-.705 2.67-.369 3.827-1.713.653-.758 1.268-2.333 2.902-2.254.336.016.994-.637 1.014-1.008.134-2.489 2.203-3.579 3.698-4.946 1.717-1.569 3.033-3.412 3.813-5.446.737-1.923 2.603-3.039 3.17-4.674.628-1.811.891-3.659 2.414-5.006.375-.332.472-.764.623-1.243 2.317-7.359 4.697-14.698 7.062-22.042-.372-4.553 1.97-8.82 1.419-13.392 2.402-7.338 1.068-14.91 1.423-22.377.065-1.366.054-2.286-1.628-.98-.493.383-1.304-.338-1.19-1.094.448-2.96.936-5.918 1.547-8.848.146-.7 1.046-.585 1.712-.625.731-.044 1.654.169 1.603.749-.095 1.083.87 1.785.761 2.706-.428 3.619 1.138 7.075.769 10.696-.184 1.812-.437 3.783.083 5.452.508 1.632-.134 2.973-.132 4.442.012 8.975-2.071 17.673-3.834 26.382-1.254 6.191-3.201 12.226-6.016 17.972-1.295 2.644-1.377 5.893-4.123 7.778.188 1.473.574 2.991-1.118 3.948-1.532.866-.993 2.972-2.504 3.995-1.296.878-1.798 2.659-2.713 3.778-2.939 3.593-5.996 7.535-9.911 9.77-4.318 2.465-8.582 5.987-14.179 5.576-6.524 2.16-13.53 1.46-20.125 3.379-1.718.5-3.848.678-5.702-.482-.601-.376-1.281.176-1.404.89-.246 1.433.391 2.947-.374 4.344-.782.76-2.587-.097-2.587 2.121s1.805 1.361 2.587 2.121c.118.118.354.256.337.35-.25 1.402.845 3.41-.718 4.102-1.574.697-3.746.004-4.807-1.284-2.031-2.463-4.965-3.616-7.362-5.487-3.222-2.515-6.41-5.2-9.945-7.319-3.324-1.992-6.769-3.799-10.257-5.49-.64-.31-1.095-.26-.958-1.091.203-1.224-.259-2.13-1.15-3.042-.892-.914.085-.975.718-.873 1.302.208 1.77-.245 2.131-1.568.23-.843 1.038-1.641 2.673-.709 1.775 1.01 4.046 1.592 6.027-.823 1.172-1.429 3.967-.825 5.378-2.572 4.167-.642 7.3-3.383 10.837-5.303 2.931.752 3.015.918 1.419 2.828l-2.838 2.828c-.649.858-.231 2.183-1.413 2.86-1.47.841 1.41 1.862-.016 2.819-.266.179-.468.454-.699.684-.882-.991-2.562-1.685-1.101-3.487.328-.404-.343-.899-.748-1.081-.516-.232-1.172.202-1.189.575-.074 1.581-.471 1.81-1.827.865-.617-.43-.991.668-1.52 1.007-1.426-.979-2.279.9-3.548.707-2.931.752-3.015.918-1.419 2.828 1.773.86 3.49 1.247 5.142-.326.254-.242.932.134 1.244-.381.672-.536 1.056-1.666 2.32-.613.662.551 1.783.553 2.647-.094l.71.707c.165 1.504 1.016 2.597 2.129 3.535 1.122.997 1.484-.278 2.129-.707l.71.707c-.816.867-.119 1.752.491 1.675 1.13-.143 2.446-.676 1.638-2.382.023-2.688 2.095-4.835 2.01-7.591-.014-.459.907-.921 1.538-.187-.509.471-.509.943 0 1.414-.509.476-.509.947 0 1.418zm-6.069 17.361l-.316.315c.249.118.488.282.751.341.305.07.473-.19.284-.549-.066-.126-.469-.077-1.035.208-.506-.345-.482-.841-.169-1.219.82-.991.76-1.98.169-3.023.353-.512.799-.423 1.246-.168.868.494.245 1.517.743 2.129.184.227.483.396.763.503.429.163.422-.064.469-.518.267-2.62-.186-3.059-2.439-4.097-1.489-.686-1.061.134-1.149.855-.082.671-1.344 1.14-.343 2.004-1.163.698-1.294 1.84-1.022 2.95.194.792.808 1.41 2.048.269zm-7.9-4.413c.736.3 1.074 1.879 2.486 1.511.811-.211 1.636 1.522 1.722.459.082-1.008 1.779-1.763.496-2.969-1.265-1.189-2.488-2.269-4.223-2.886-1.157-.411-1.417.247-1.974.697-.927.749-.444 1.351.231 1.939.37.321.7.688 1.262 1.249zm6.873 8.264c.223.93 2.353-.498 1.787 1.439-.089.305.245.507.65.314.938-.448.748-1.338.763-2.15.014-.757-.326-1.405-1.046-1.322-.858.098-1.674.562-2.509.867.119.283.237.568.355.852zm-21.436-16.829c-.26.474-.315.846.127 1.279.661.647 1.161.355 1.593-.181.316-.393.315-.811-.127-1.245-.662-.651-1.118-.309-1.593.147zm13.785-1.011c-.439.476-.894.968-.16 1.555.224.179.695.426.778.349.642-.597.145-1.393.28-2.094l-.898.19z"/>
    <path fill="#C74E41"
          d="M87.251 215.469c-1.112-.938-1.964-2.031-2.129-3.535 2.606-2.452 3.167-6.122 5.292-8.863.013-.016-.212-.215-.325-.328l-.71-.707c1.596-1.91 1.512-2.076-1.419-2.828.893-.254-.45-1.917 1.405-1.901 1.091.009 3.141-.394 2.559-2.739-.142-.573 2.864-1.601 3.914-1.364 1.052.237 1.041 1.064.99 1.889-.248 3.974.756 8.059-1.063 11.893-.63-.734-1.552-.273-1.538.187.085 2.756-1.987 4.903-2.01 7.591-1.122-.997-1.484.278-2.129.707l-.71-.707c-1.121-.999-1.483.276-2.127.705zm3.397-16.614h.505c-.079-.236-.125-.492-.254-.696-.045-.071-.297-.011-.455-.011l.204.707z"/>
    <path fill="#D17067"
          d="M95.055 230.317c-.782-.76-2.587.097-2.587-2.121s1.805-1.361 2.587-2.121c.579 1.414.579 2.828 0 4.242z"/>
    <path fill="#C74E41"
          d="M95.765 209.813c-.509-.471-.509-.943 0-1.414.509.472.509.943 0 1.414zm0-1.414c-.509-.471-.509-.943 0-1.414.509.472.509.943 0 1.414z"/>
    <path fill="#DC8F89"
          d="M84.412 211.227c-.864.647-1.985.645-2.647.094-1.264-1.052-1.648.077-2.32.613-1.251-.555-.767-1.975-1.419-2.828.529-.339.904-1.437 1.52-1.007 1.356.946 1.753.716 1.827-.865.018-.373.673-.806 1.189-.575.405.182 1.076.677.748 1.081-1.459 1.802.22 2.496 1.102 3.487z"/>
    <path fill="#CA5A4D"
          d="M78.026 209.106c.652.854.168 2.273 1.419 2.828-.312.515-.991.14-1.244.381-1.652 1.573-3.369 1.186-5.142.326.428-.965 2.454-1.134 1.419-2.828 1.269.193 2.122-1.686 3.548-.707z"/>
    <path fill="#E2A7A1"
          d="M90.089 202.743c.114.113.338.312.325.328-2.125 2.741-2.686 6.411-5.292 8.863l-.71-.707c.231-.231.433-.506.699-.684 1.426-.957-1.454-1.978.016-2.819 1.182-.677.764-2.001 1.413-2.86.571.656 1.062.361 1.545-.124.666-.668 1.336-1.331 2.004-1.997z"/>
    <path fill="#D06D64"
          d="M88.67 223.954c-1.001-.864.261-1.333.343-2.004.088-.721-.34-1.541 1.149-.855 2.252 1.038 2.706 1.477 2.439 4.097-.046.454-.04.681-.469.518-.28-.107-.579-.276-.763-.503-.497-.612.126-1.634-.743-2.129-.447-.254-.893-.344-1.246.168l-.71.708z"/>
    <path fill="#DA8E86"
          d="M88.669 231.025l-.354-.853c.834-.305 1.651-.769 2.509-.867.72-.082 1.06.565 1.046 1.322-.015.812.175 1.702-.763 2.15-.405.193-.74-.009-.65-.314.566-1.936-1.564-.508-1.788-1.438z"/>
    <path fill="#DE9890"
          d="M88.67 223.954l.71-.707c.591 1.043.651 2.032-.169 3.023-.313.378-.337.875.169 1.219-.924.826-1.537.208-1.731-.585-.273-1.11-.142-2.252 1.021-2.95z"/>
    <path fill="#D8857D"
          d="M90.089 215.469c.645-.429 1.007-1.704 2.129-.707.808 1.706-.508 2.238-1.638 2.382-.611.077-1.307-.808-.491-1.675z"/>
    <path fill="#D98780"
          d="M67.233 214.196c.475-.456.931-.798 1.593-.147.441.434.443.852.127 1.245-.431.536-.932.828-1.593.181-.442-.433-.387-.805-.127-1.279z"/>
    <path fill="#E8BAB6"
          d="M81.018 213.185l.898-.19c-.135.701.362 1.497-.28 2.094-.083.077-.554-.169-.778-.349-.734-.587-.28-1.08.16-1.555z"/>
    <path fill="#E0A19B" d="M87.251 215.469c.645-.429 1.007-1.704 2.129-.707-.646.43-1.007 1.705-2.129.707z"/>
    <path fill="#DE9890"
          d="M89.696 227.173c.249.031.652-.019.719.108.189.359.02.619-.284.549-.263-.06-.501-.224-.751-.341l.316-.316z"/>
    <path fill="#C13E2D"
          d="M80.281 78.206c-.492-5.494-5.456-10.583-8.779-14.633-4.026-4.906-6.48-11.039-11.137-15.419-9.186-8.642-16.829 10.749-19.518 16.624-2.107 4.603-5.7 9.483-6.687 14.418-1.263 6.317 6.976 6.027 11 6.127 7.977 1.189 15.908.232 24.06-.536 4.746-.448 11.676.297 11.061-6.581zm-5.99 4.002c-3.293.343-6.599.361-9.899.788-8.159 1.055-16.31.998-24.415-.534a.849.849 0 0 0-.903.376c-4.53-1.148-1.423-6.766.163-9.45 1.729-2.928 2.978-6.151 4.403-9.233 1.848-3.998 3.833-7.953 6.357-11.571 1.219-1.748 2.818-3.615 4.914-4.27 2.801-.875 5.723 3.438 7.044 5.266 2.253 3.118 3.882 6.636 6.25 9.674 2.875 3.688 5.965 7.158 8.267 11.258 1.582 2.821 3.081 7.148-2.181 7.696zm-18.387-9.085c-.9-.225-2.62-.349-2.938.786-.007.024-.004.047-.007.071-1.022 1.138-1.297 3.03-.884 4.439.676 2.305 3.184 3.487 5.353 2.404 2.486-1.241 3.584-3.511 1.667-5.829-.786-.952-2.014-1.577-3.191-1.871zm-2.264 4.631a3.101 3.101 0 0 1-.143-.627c.447.382.912.742 1.405 1.072.504.338 1.086.737 1.684 1.043-1.292.624-2.496-.191-2.946-1.488zm3.852.972c-.512-.355-1.135-.588-1.675-.865-.811-.417-1.602-.864-2.326-1.415a2.92 2.92 0 0 1 .317-.956c.781.464 1.465 1.037 2.164 1.642.54.467 1.23 1.072 1.968 1.23a3.204 3.204 0 0 1-.448.364zm.858-1.158c-.305-.175-.634-.307-.944-.48-.488-.273-.936-.628-1.389-.955-.603-.435-1.217-.862-1.893-1.16.051-.074.1-.149.155-.222l.159-.014c1.185 1 2.525 2.044 3.929 2.665l.003.015c.004.054-.015.1-.02.151zm-4.199-24.425c-3.917 3.678-3.134 21.541 3.703 17.997.417.433 1.344.427 1.614-.336 1.488-4.205 2.527-9.563 1.758-14-.551-3.174-3.877-6.664-7.075-3.661zm5.094 3.339c-.48-.391-.994-.751-1.469-1.119-.592-.458-1.179-.923-1.767-1.385 1.886-1.082 2.805.493 3.236 2.504zm-3.835-2.078a76.64 76.64 0 0 0 1.799 1.525c.734.609 1.447 1.307 2.246 1.839.028.236.052.471.071.703-.718-.508-1.514-.926-2.246-1.403a19.088 19.088 0 0 1-2.499-1.916 3.48 3.48 0 0 1 .629-.748zm-.817 13.994c.836.563 1.637 1.191 2.537 1.585-1.08.062-1.92-.554-2.537-1.585zm3.362 1.125c-1.181-.667-2.454-1.421-3.765-1.925a9.662 9.662 0 0 1-.409-1.235c1.51.696 2.904 1.588 4.437 2.264h.002c-.09.298-.169.602-.265.896zm.44-1.494a21.316 21.316 0 0 0-4.795-2.428c-.098-.48-.172-.982-.226-1.496 1.452 1.266 3.333 2.341 5.128 2.82a.3.3 0 0 0 .174-.005c-.091.371-.179.743-.281 1.109zm.415-1.64c-.018-.019-.035-.04-.059-.056-1.775-1.144-3.788-1.616-5.44-2.985a20.18 20.18 0 0 1-.038-1.131c1.584 1.499 3.646 2.691 5.671 3.159.027.006.052.004.077.003a39.37 39.37 0 0 1-.211 1.01zm.321-1.605c-2.049-1.087-4.13-1.906-5.85-3.432.018-.537.064-1.065.122-1.586 1.77 1.36 3.685 2.656 5.737 3.493a.311.311 0 0 0 .224.007 34.587 34.587 0 0 1-.233 1.518zm.433-3.395c-.028.387-.074.776-.118 1.165l-.006-.006c-1.983-1.22-4.025-2.26-5.93-3.603.074-.465.167-.91.274-1.335 1.998 1.052 3.723 2.607 5.796 3.464a6.157 6.157 0 0 1-.016.315zm-5.594-4.435c.144-.462.315-.873.502-1.25 1.459 1.465 3.294 2.889 5.106 3.649.014.359.021.701.02 1.004-1.771-1.241-3.605-2.625-5.628-3.403z"/>
</svg>
