<?xml version="1.0" encoding="utf-8"?>
<!DOCTYPE svg PUBLIC "-//W3C//DTD SVG 1.1//EN" "http://www.w3.org/Graphics/SVG/1.1/DTD/svg11.dtd">
<svg xmlns="http://www.w3.org/2000/svg" version="1.1" x="0" y="0" width="100%" height="100%" viewBox="0 0 200 200">
    <circle fill="#00B2E2" cx="100" cy="13" r="20" transform="rotate(45 100 100)">		
	<animateTransform 
	  id = "moon"
      attributeName="transform" 
      attributeType="XML"
      type="rotate"
      from="45 100 100"
      to="405 100 100" 
      dur="3s"
	  begin="1s"
      repeatCount="indefinite"
      fill="freeze" 
      />
	</circle>
	<circle fill="#00B2E2" cx="100" cy="100" r="60"/>
	<circle fill="none" cx="100" cy="100" r="90" stroke="#00B2E2" stroke-width="7"/>
</svg>
