<svg xmlns="http://www.w3.org/2000/svg" width="60" height="60" viewBox="0 0 60 60">
    <path
        d="M38.212 17.494H13.823c-1.557 0-2.823 1.302-2.823 2.903v20.167c0 1.601 1.267 2.903 2.823 2.903h9.18l-1.044 1.156h-1.578a.665.665 0 0 0-.655.674c0 .373.293.674.655.674h19.346a.664.664 0 0 0 .655-.674.665.665 0 0 0-.655-.674h-1.578l-1.044-1.156h9.18c1.557 0 2.823-1.302 2.823-2.903V20.397c0-1.601-1.266-2.903-2.823-2.903h-8.073zM12.419 41.166V20.143h35.269v21.023H12.419zm1.404-22.324h32.462c.626 0 1.164.537 1.393 1.301H12.43c.229-.764.768-1.301 1.393-1.301zm22.536 25.781h-12.61l1.044-1.156h10.522l1.044 1.156zm9.926-2.504H13.823a1.514 1.514 0 0 1-1.393-.952h35.248a1.513 1.513 0 0 1-1.393.952z"
        fill="#454553"/>
    <path
        d="M45.476 30.632c-6.886 0-12.458-5.709-12.458-12.737 0-7.029 5.572-12.737 12.458-12.737 6.887 0 12.459 5.708 12.459 12.737 0 7.028-5.572 12.737-12.459 12.737z"
        fill="#FFF"/>
    <path
        d="M45.59 27.539c5.129 0 9.297-4.27 9.297-9.552s-4.168-9.553-9.297-9.553c-5.129 0-9.298 4.271-9.298 9.553 0 5.282 4.169 9.552 9.298 9.552zm0 1.593c-6.008 0-10.878-4.99-10.878-11.145 0-6.155 4.87-11.145 10.878-11.145 6.007 0 10.878 4.99 10.878 11.145 0 6.155-4.871 11.145-10.878 11.145z"
        fill="#1A8CFF"/>
    <path
        d="M40.945 19.019c-.136 0-.221-.024-.255-.071-.033-.047-.05-.131-.05-.252v-1.051c0-.108.017-.192.05-.253.034-.061.119-.091.255-.091h3.76v-3.84c0-.135.027-.219.081-.253a.476.476 0 0 1 .244-.05h1.118c.108 0 .186.017.233.05.048.034.071.118.071.253v3.84h3.76c.122 0 .2.03.234.091a.522.522 0 0 1 .051.253v1.051c0 .121-.017.205-.051.252-.034.047-.112.071-.234.071h-3.76v3.86c0 .135-.023.219-.071.253-.047.033-.125.05-.233.05H45.03a.476.476 0 0 1-.244-.05c-.054-.034-.081-.118-.081-.253v-3.86h-3.76z"
        fill="#1A8CFF"/>
</svg>
