<svg xmlns="http://www.w3.org/2000/svg" width="60" height="60" viewBox="0 0 60 60">
    <path
        d="M40.943 11h-2.357c-1.109 0-2.038.799-2.258 1.86-1.809.919-10.687 5.188-22.378 6.751a2.323 2.323 0 0 0-1.585.962h-2.058C9.035 20.573 8 21.624 8 22.916v4.786c0 1.292 1.035 2.344 2.307 2.344h2.058c.364.511.928.873 1.585.961l.351.049 3.618 13.228A2.32 2.32 0 0 0 20.142 46h5.09a.743.743 0 0 0 .737-.748.743.743 0 0 0-.737-.748h-.225l-3.286-12.012c7.726 1.912 13.226 4.565 14.607 5.266.22 1.061 1.149 1.86 2.258 1.86h2.357c1.272 0 2.307-1.051 2.307-2.343V13.343c0-1.292-1.035-2.343-2.307-2.343zM11.928 28.55h-1.621a.842.842 0 0 1-.834-.848v-4.786c0-.468.374-.848.834-.848h1.621v6.482zm11.55 15.954h-3.336a.84.84 0 0 1-.804-.621l-3.443-12.587c1.45.236 2.85.51 4.192.811l3.391 12.397zm18.299-7.229a.842.842 0 0 1-.835.847h-2.356a.842.842 0 0 1-.835-.847v-17.55a.74.74 0 0 0-.736-.747.742.742 0 0 0-.737.747v16.346c-2.899-1.398-11.351-5.105-22.136-6.547a.854.854 0 0 1-.742-.841v-6.748c0-.423.319-.785.742-.841 10.785-1.442 19.237-5.149 22.136-6.547v7.585c0 .413.33.748.737.748a.742.742 0 0 0 .736-.748v-8.783c0-.473.375-.853.835-.853h2.356c.461 0 .835.38.835.847v23.932z"
        fill="#454553"/>
    <path
        d="M54.274 24.382H46.53c-.401 0-.726.346-.726.772 0 .427.325.772.726.772h7.744c.401 0 .726-.345.726-.772 0-.426-.325-.772-.726-.772zM53.398 17.135c-.187-.396-.69-.58-1.125-.41l-5.949 2.043c-.435.169-.637.628-.45 1.024.139.296.456.473.788.473a.924.924 0 0 0 .337-.064l5.949-2.042c.435-.17.636-.628.45-1.024zM52.948 32.15l-5.949-2.043c-.435-.169-.939.014-1.125.41-.187.396.015.855.45 1.024l5.949 2.043c.11.043.224.063.337.063.332 0 .649-.177.788-.473.186-.396-.015-.854-.45-1.024z"
        fill="#1A8CFF"/>
</svg>
