<svg xmlns="http://www.w3.org/2000/svg" width="20" height="20" viewBox="0 0 20 20">
    <path
        d="M2.021 10.129a.813.813 0 0 0-.013.084v.016c0 .028-.004.057-.005.086v.016a1 1 0 0 0 .239.648l5.667 6.666a.997.997 0 0 0 .854.35c.023 0 .045-.006.067-.01h.023a.993.993 0 0 0 .472-.231l8.334-7.667-.004-.004a.992.992 0 0 0 .341-.733H18V3a1 1 0 0 0-1-1h-6.333a.996.996 0 0 0-.709.295L2.301 9.619a.995.995 0 0 0-.28.51zm13.312-6.796a1.334 1.334 0 1 1 0 2.667 1.334 1.334 0 0 1 0-2.667z"
        fill="#454553"/>
</svg>
