<svg xmlns="http://www.w3.org/2000/svg" width="28" height="28" viewBox="0 0 28 28">
    <path
        d="M14 6c-3.308 0-6 2.787-6 6.213 0 1.402.444 2.727 1.283 3.831.166.218.34.427.524.649l.011.012c.563.677 1.146 1.378 1.364 2.203.049.189.056.552.054.831v.474c0 .435.34.787.759.787h3.977c.42 0 .76-.352.76-.787v-.48c-.003-.364.016-.631.052-.769.219-.819.865-1.606 1.441-2.307l.024-.03c.166-.202.323-.393.466-.581A6.27 6.27 0 0 0 20 12.213C20 8.787 17.308 6 14 6zm3.521 9.073c-.125.165-.272.344-.428.534l-.031.038c-.672.818-1.433 1.745-1.742 2.901-.044.164-.092.409-.105.881h-2.462c-.01-.501-.06-.758-.105-.931-.309-1.171-1.069-2.084-1.68-2.818l-.01-.013a16.644 16.644 0 0 1-.481-.594 4.679 4.679 0 0 1-.958-2.858c0-2.558 2.01-4.64 4.481-4.64s4.481 2.082 4.481 4.64a4.68 4.68 0 0 1-.96 2.86z"
        fill="#454553"/>
    <path d="M16.171 22h-4.342c-.458 0-.829.448-.829 1s.371 1 .829 1h4.342c.458 0 .829-.448.829-1s-.371-1-.829-1z"
          fill="#1A8CFF"/>
    <path
        d="M15.134 23h-2.268c-.478 0-.866.448-.866 1s.388 1 .866 1h2.268c.478 0 .866-.448.866-1s-.388-1-.866-1zM24.266 12h-2.532a.743.743 0 0 0-.734.75c0 .414.329.75.734.75h2.532a.743.743 0 0 0 .734-.75.743.743 0 0 0-.734-.75zM7 12.75a.743.743 0 0 0-.734-.75H3.734a.743.743 0 0 0-.734.75c0 .414.329.75.734.75h2.532A.743.743 0 0 0 7 12.75zM14 5c.414 0 .75-.329.75-.734V1.734A.743.743 0 0 0 14 1a.743.743 0 0 0-.75.734v2.532c0 .405.336.734.75.734zM20.154 18.198a.676.676 0 0 0-.956.955l1.648 1.649a.674.674 0 0 0 .956 0 .675.675 0 0 0 0-.955l-1.648-1.649zM7.846 6.802a.674.674 0 0 0 .956 0 .675.675 0 0 0 0-.955L7.154 4.198a.676.676 0 0 0-.956.955l1.648 1.649zM7.846 18.198l-1.648 1.649a.675.675 0 1 0 .956.955l1.648-1.649a.675.675 0 1 0-.956-.955zM19.676 7a.674.674 0 0 0 .478-.198l1.648-1.648a.676.676 0 1 0-.956-.956l-1.648 1.648A.676.676 0 0 0 19.676 7z"
        fill="#1A8CFF"/>
</svg>
