<?xml version="1.0" standalone="no"?>
<!DOCTYPE svg PUBLIC "-//W3C//DTD SVG 1.1//EN" "http://www.w3.org/Graphics/SVG/1.1/DTD/svg11.dtd" >
<svg xmlns="http://www.w3.org/2000/svg">
<metadata></metadata>
<defs>
<font id="proxima_novaregular_italic" horiz-adv-x="471" >
<font-face units-per-em="2048" ascent="1618" descent="-430" />
<missing-glyph horiz-adv-x="528" />
<glyph horiz-adv-x="0" />
<glyph horiz-adv-x="0" />
<glyph horiz-adv-x="682" />
<glyph unicode="&#xd;" horiz-adv-x="0" />
<glyph unicode=" "  horiz-adv-x="528" />
<glyph unicode="&#x09;" horiz-adv-x="528" />
<glyph unicode="&#xa0;" horiz-adv-x="528" />
<glyph unicode="!" d="M31 82q0 51 37 87t88 36q42 0 72 -31t30 -74q0 -50 -36.5 -85t-86.5 -35q-44 0 -74 29.5t-30 72.5zM143 383l187 983h192l-250 -983h-129z" />
<glyph unicode="&#x22;" horiz-adv-x="702" d="M238 844q39 397 41 430q3 50 33.5 81t76.5 31q34 0 58 -25t24 -61q0 -7 -10 -47l-148 -409h-75zM539 844q39 397 41 430q3 50 32.5 81t75.5 31q34 0 59 -25t25 -61q0 -23 -12 -47l-146 -409h-75z" />
<glyph unicode="#" horiz-adv-x="1208" d="M14 371l60 108h219l227 408h-221l55 106h226l204 373h127l-206 -373h227l205 373h125l-207 -373h219l-53 -106h-224l-229 -408h227l-57 -108h-229l-205 -371h-125l207 371h-228l-204 -371h-127l206 371h-219zM418 479h225l227 408h-225z" />
<glyph unicode="$" horiz-adv-x="1214" d="M41 219l117 123q113 -157 315 -201l111 494q-52 21 -87.5 37t-80.5 40.5t-74.5 50.5t-57 59.5t-40.5 75.5t-13 91q0 162 138 279.5t346 117.5q23 0 35 -2l43 189h125l-46 -203q108 -23 195 -74.5t141 -124.5l-116 -118q-88 121 -254 166l-101 -449q63 -26 105 -46 t94 -53.5t82.5 -68.5t52 -85t21.5 -109q0 -83 -33 -159.5t-94.5 -138t-157.5 -98.5t-213 -37q-5 0 -16.5 1t-16.5 1l-39 -182h-125l43 195q-133 25 -238 85.5t-161 143.5zM414 1012q0 -63 53 -106.5t156 -88.5l94 420h-21q-118 0 -200 -67.5t-82 -157.5zM596 127h12 q76 0 136 23t95 61t52.5 81.5t17.5 88.5q0 68 -55 115.5t-156 91.5z" />
<glyph unicode="%" horiz-adv-x="1497" d="M152 0l1173 1366h113l-1176 -1366h-110zM178 989q0 174 108 285.5t257 111.5q129 0 217 -76.5t88 -199.5q0 -174 -108 -285.5t-257 -111.5q-129 0 -217 76.5t-88 199.5zM301 999q0 -79 52.5 -131.5t133.5 -52.5q97 0 168.5 82t71.5 203q0 78 -53.5 130t-134.5 52 q-96 0 -167 -81.5t-71 -201.5zM727 252q0 173 108.5 285t256.5 112q129 0 218 -76.5t89 -199.5q0 -173 -108.5 -285.5t-256.5 -112.5q-129 0 -218 77t-89 200zM850 262q0 -79 52.5 -131.5t133.5 -52.5q97 0 168.5 81.5t71.5 202.5q0 78 -54 130.5t-135 52.5 q-96 0 -166.5 -81.5t-70.5 -201.5z" />
<glyph unicode="&#x26;" horiz-adv-x="1312" d="M33 317q0 77 22.5 141.5t58 110.5t91 86.5t107.5 67.5t122 55q-47 133 -47 238q0 153 112 261.5t265 108.5q132 0 217.5 -64t85.5 -181q0 -84 -31.5 -148t-108 -115t-126.5 -74.5t-163 -68.5q-6 -3 -9 -4q45 -92 104 -192q66 -114 129 -211q128 139 217 299l119 -70 q-143 -217 -262 -338q52 -74 166 -219h-195q-43 52 -88 115q-185 -140 -375 -140q-180 0 -295.5 89t-115.5 253zM205 338q0 -113 74.5 -174.5t183.5 -61.5q135 0 282 117q-96 135 -145 225q-75 128 -121 228q-63 -29 -108.5 -58t-85 -69t-60 -92t-20.5 -115zM547 1016 q0 -79 37 -180q64 24 105 41.5t89.5 45t76 54.5t46.5 65.5t19 83.5q0 66 -42.5 103t-107.5 37q-85 0 -154 -67.5t-69 -182.5z" />
<glyph unicode="'" horiz-adv-x="407" d="M238 844q39 397 41 430q3 50 33.5 81t76.5 31q34 0 58 -25t24 -61q0 -7 -10 -47l-148 -409h-75z" />
<glyph unicode="(" horiz-adv-x="507" d="M51 186q0 318 136.5 633t390.5 584l79 -78q-444 -579 -444 -1196q0 -215 76 -475l-109 -62q-129 255 -129 594z" />
<glyph unicode=")" horiz-adv-x="507" d="M-152 -330q445 580 445 1194q0 217 -76 477l109 62q129 -255 129 -594q0 -318 -137.5 -632.5t-391.5 -584.5z" />
<glyph unicode="*" horiz-adv-x="696" d="M176 1016l232 84l-183 127l64 73l168 -145l39 231h96l-68 -239l228 104l26 -84l-229 -84l182 -127l-65 -73l-168 145l-39 -231h-94l65 239l-227 -102z" />
<glyph unicode="+" horiz-adv-x="1021" d="M90 637l23 106h393l92 424h119l-94 -424h393l-25 -106h-391l-98 -436h-117l96 436h-391z" />
<glyph unicode="," d="M-37 -180q58 29 106.5 76t65.5 96h-16q-36 0 -62 25t-26 65q0 50 37.5 86.5t85.5 36.5q47 0 77.5 -31.5t30.5 -89.5q0 -93 -68.5 -187t-166.5 -145z" />
<glyph unicode="-" horiz-adv-x="614" d="M45 428l29 135h491l-28 -135h-492z" />
<glyph unicode="." d="M31 82q0 51 37 87t88 36q42 0 72 -31t30 -74q0 -50 -36.5 -85t-86.5 -35q-44 0 -74 29.5t-30 72.5z" />
<glyph unicode="/" horiz-adv-x="606" d="M-123 -41l805 1448h129l-807 -1448h-127z" />
<glyph unicode="0" horiz-adv-x="1253" d="M121 508q0 155 45.5 310t125.5 282t204 206.5t268 79.5q214 0 330 -141t116 -389q0 -156 -45 -311.5t-125 -283t-203.5 -207t-267.5 -79.5q-214 0 -331 142t-117 391zM293 498q0 -169 71.5 -270t219.5 -101q69 0 132 32.5t112 88t89 129t65.5 156t39.5 168t14 165.5 q0 169 -69.5 269t-218.5 100q-82 0 -155.5 -46t-127 -122t-93.5 -172.5t-59.5 -198.5t-19.5 -198z" />
<glyph unicode="1" horiz-adv-x="694" d="M156 1014l419 352h150l-301 -1366h-170l252 1141l-270 -232z" />
<glyph unicode="2" horiz-adv-x="1204" d="M0 0l37 166q135 83 226.5 141t199.5 130.5t177.5 126.5t140.5 118t110.5 117t64.5 110t25 111q0 100 -82 157.5t-213 57.5q-207 0 -350 -133l-80 121q77 74 195.5 118.5t244.5 44.5q93 0 175 -22.5t147.5 -65.5t104 -112.5t38.5 -157.5q0 -75 -30.5 -152t-91.5 -151.5 t-135 -145t-177.5 -146t-201.5 -140t-224 -141.5h668l-31 -152h-938z" />
<glyph unicode="3" horiz-adv-x="1140" d="M-6 260l123 96q51 -107 160.5 -168t236.5 -61q150 0 238 80.5t88 206.5q0 95 -80 153t-223 58q-108 0 -131 -2l34 155q23 -2 187 -2q89 0 161.5 25t119 81t46.5 136q0 94 -85.5 155.5t-225.5 61.5q-197 0 -346 -135l-72 117q80 79 194 124t236 45q210 0 340.5 -91.5 t130.5 -252.5q0 -75 -32.5 -139.5t-85.5 -108t-118 -70.5t-132 -32q108 -25 179 -101t71 -192t-62 -212.5t-175.5 -154t-254.5 -57.5q-175 0 -321 78.5t-201 206.5z" />
<glyph unicode="4" horiz-adv-x="1142" d="M31 346l35 154l765 866h244l-194 -870h192l-31 -150h-192l-76 -346h-170l76 346h-649zM233 496h478l159 712z" />
<glyph unicode="5" horiz-adv-x="1208" d="M72 248l129 102q103 -223 377 -223q145 0 243.5 95t98.5 233q0 123 -86 191.5t-224 68.5q-150 0 -282 -99l-113 56l154 694h835l-33 -152h-665l-100 -450q114 92 286 92q111 0 201.5 -42.5t147.5 -131.5t57 -211q0 -99 -39 -189.5t-107.5 -158.5t-168 -108t-214.5 -40 q-356 0 -497 273z" />
<glyph unicode="6" horiz-adv-x="1210" d="M113 479q0 83 12.5 170.5t40 176.5t66.5 170.5t95 153t122.5 124t152.5 82.5t182 30q140 0 245.5 -53.5t166.5 -150.5l-115 -115q-41 80 -121.5 124t-185.5 44q-76 0 -143.5 -30.5t-117 -80t-91 -118t-68 -138.5t-45.5 -147q-10 -30 -10 -41q61 68 169.5 121t223.5 53 q183 0 298.5 -96.5t115.5 -261.5q0 -139 -69 -258.5t-190.5 -191t-266.5 -71.5q-224 0 -345.5 132t-121.5 372zM276 446q0 -144 81 -231.5t225 -87.5q148 0 247 103t99 243q0 111 -83 175.5t-220 64.5q-192 0 -344 -168q-5 -45 -5 -99z" />
<glyph unicode="7" horiz-adv-x="1054" d="M133 0l813 1214h-727l35 152h932l-27 -117l-829 -1249h-197z" />
<glyph unicode="8" horiz-adv-x="1189" d="M61 324q0 150 112 255t302 144q-99 38 -168 113t-69 176q0 75 28.5 138t76.5 105.5t111 72.5t131 44t138 14q123 0 227.5 -37.5t172 -115.5t67.5 -182q0 -145 -106.5 -240.5t-280.5 -122.5q48 -22 90 -50.5t81 -68t62 -92.5t23 -112q0 -112 -69.5 -202.5t-184 -139 t-250.5 -48.5q-138 0 -248 38t-178 118.5t-68 192.5zM242 354q0 -108 91 -167.5t228 -59.5q129 0 227.5 70t98.5 184q0 47 -25 89.5t-65 73t-84 52t-88 33.5q-166 -9 -274.5 -84.5t-108.5 -190.5zM408 995q0 -53 41 -101t95.5 -77t110.5 -43q158 11 255.5 76t97.5 174 q0 89 -85.5 149t-209.5 60q-126 0 -215.5 -64.5t-89.5 -173.5z" />
<glyph unicode="9" horiz-adv-x="1210" d="M92 182l115 115q41 -80 121.5 -124t185.5 -44q77 0 144.5 30.5t117 79.5t90.5 117.5t67.5 138t45.5 146.5q9 25 12 43q-63 -68 -172 -122t-221 -54q-183 0 -299.5 97.5t-116.5 262.5q0 138 69 257.5t191.5 191.5t268.5 72q222 0 344.5 -132t122.5 -372 q0 -98 -18.5 -200.5t-53.5 -205t-92.5 -192.5t-129.5 -159.5t-170.5 -110t-209.5 -40.5q-140 0 -245.5 54t-166.5 151zM358 891q0 -111 85 -176.5t221 -65.5q188 0 346 168q2 18 2 98q0 144 -81 233t-224 89q-148 0 -248.5 -103t-100.5 -243z" />
<glyph unicode=":" d="M31 82q0 51 37 87t88 36q42 0 72 -31t30 -74q0 -50 -36.5 -85t-86.5 -35q-44 0 -74 29.5t-30 72.5zM209 883q0 51 36 86t87 35q42 0 72 -30.5t30 -72.5q0 -52 -36 -87.5t-87 -35.5q-42 0 -72 31t-30 74z" />
<glyph unicode=";" d="M-37 -180q58 29 106.5 76t65.5 96h-16q-36 0 -62 25t-26 65q0 50 37.5 86.5t85.5 36.5q47 0 77.5 -31.5t30.5 -89.5q0 -93 -68.5 -187t-166.5 -145zM209 883q0 51 36 86t87 35q42 0 72 -30.5t30 -72.5q0 -52 -36 -87.5t-87 -35.5q-42 0 -72 31t-30 74z" />
<glyph unicode="&#x3c;" horiz-adv-x="1021" d="M86 631l27 108l1001 449l-31 -135l-854 -375l689 -371l-27 -123z" />
<glyph unicode="=" horiz-adv-x="1021" d="M43 432l25 107h903l-25 -107h-903zM131 827l25 109h903l-25 -109h-903z" />
<glyph unicode="&#x3e;" horiz-adv-x="1021" d="M-12 184l30 135l854 371l-688 375l27 123l803 -449l-25 -108z" />
<glyph unicode="?" horiz-adv-x="946" d="M186 1219q178 167 412 167q180 0 296 -82.5t116 -216.5q0 -66 -22.5 -121t-59 -91.5t-83.5 -70t-95.5 -56.5t-95.5 -49.5t-83.5 -51t-59 -59t-22.5 -74.5q0 -48 37 -82l-137 -53q-49 64 -49 145q0 60 27 108.5t70 82t95 62.5t103.5 56.5t94.5 57t70 72t27 94.5 q0 81 -65.5 129.5t-183.5 48.5q-183 0 -314 -131zM254 82q0 51 36.5 87t86.5 36q44 0 74 -31t30 -74q0 -51 -37 -85.5t-88 -34.5q-43 0 -72.5 29.5t-29.5 72.5z" />
<glyph unicode="@" horiz-adv-x="1603" d="M113 500q0 162 67.5 312t179 258t260.5 172.5t306 64.5q189 0 337.5 -88t228 -235.5t79.5 -326.5q0 -116 -31 -210.5t-82 -152.5t-113 -89t-128 -31q-82 0 -132 48.5t-55 117.5l-2 12q-57 -79 -142.5 -128.5t-180.5 -49.5q-142 0 -228 92t-86 242q0 104 41.5 200 t108.5 164.5t154 109t177 40.5q95 0 163.5 -45t99.5 -115l26 127h139l-116 -555q-4 -24 -4 -43q0 -51 27 -78.5t69 -27.5q26 0 54 11t58.5 39t54 68.5t39 106.5t15.5 147q0 254 -160 417t-419 163q-145 0 -281 -61t-235.5 -161.5t-159.5 -235t-60 -275.5q0 -163 75.5 -295.5 t210.5 -208.5t302 -76q199 0 381 115l37 -53q-200 -129 -426 -129q-183 0 -332 85t-233 232t-84 326zM537 516q0 -100 56 -163.5t152 -63.5t175 54t131 130l59 283q-21 58 -75 104.5t-136 46.5q-99 0 -183.5 -56.5t-131.5 -146.5t-47 -188z" />
<glyph unicode="A" horiz-adv-x="1347" d="M-92 0l850 1366h211l250 -1366h-187l-53 303h-682l-186 -303h-203zM383 455h580l-129 735z" />
<glyph unicode="B" horiz-adv-x="1288" d="M49 0l301 1366h568q151 0 249.5 -88.5t98.5 -224.5q0 -143 -94 -248t-224 -119q88 -23 144.5 -103t56.5 -177q0 -78 -28.5 -149t-83.5 -129t-147 -93t-208 -35h-633zM250 152h428q139 0 218 78t79 188q0 90 -59 147.5t-160 57.5h-402zM389 774h424q72 0 126 22t84 60 t44 81t14 91q0 79 -60 132.5t-147 53.5h-387z" />
<glyph unicode="C" horiz-adv-x="1384" d="M123 573q0 180 64.5 335t171.5 259t245.5 163t286.5 59q198 0 341.5 -86t215.5 -236l-162 -63q-59 118 -165 175.5t-240 57.5q-110 0 -214 -47.5t-185 -131t-130 -208t-49 -268.5q0 -203 125.5 -329t335.5 -126q199 0 366 156l125 -95q-101 -109 -233 -161t-268 -52 q-135 0 -251.5 43t-200 120t-131.5 189.5t-48 245.5z" />
<glyph unicode="D" horiz-adv-x="1433" d="M49 0l301 1366h457q113 0 216.5 -43.5t181 -119.5t123.5 -186t46 -235q0 -114 -32 -224t-101 -211.5t-168 -178t-243 -122.5t-316 -46h-465zM250 152h285h8q147 0 271 50t206.5 135t129 198t46.5 239q0 189 -120.5 314.5t-301.5 125.5h-287z" />
<glyph unicode="E" horiz-adv-x="1165" d="M49 0l301 1366h895l-33 -152h-725l-98 -440h711l-33 -151h-713l-104 -471h727l-33 -152h-895z" />
<glyph unicode="F" horiz-adv-x="1126" d="M49 0l301 1366h895l-33 -152h-725l-98 -440h711l-33 -151h-713l-135 -623h-170z" />
<glyph unicode="G" horiz-adv-x="1460" d="M123 573q0 174 61.5 326.5t166.5 259.5t249 168.5t303 61.5q186 0 324.5 -81.5t214.5 -217.5l-154 -72q-53 104 -162.5 161.5t-244.5 57.5q-112 0 -217 -49.5t-185 -134.5t-128 -208.5t-48 -262.5q0 -204 126 -329.5t335 -125.5q198 0 358 145l64 279h-471l33 151h641 l-111 -501q-223 -226 -524 -226q-280 0 -455.5 166.5t-175.5 431.5z" />
<glyph unicode="H" horiz-adv-x="1458" d="M49 0l301 1366h170l-129 -588h799l129 588h170l-301 -1366h-170l137 627h-799l-137 -627h-170z" />
<glyph unicode="I" horiz-adv-x="489" d="M49 0l301 1366h170l-301 -1366h-170z" />
<glyph unicode="J" horiz-adv-x="972" d="M-45 147l102 123q38 -67 104 -105t154 -38q123 0 201 77t107 210l211 952h170l-211 -954q-97 -437 -469 -437q-119 0 -217 44t-152 128z" />
<glyph unicode="K" horiz-adv-x="1230" d="M49 0l301 1366h170l-153 -690l747 690h223l-712 -649l460 -717h-198l-389 623l-179 -164l-100 -459h-170z" />
<glyph unicode="L" horiz-adv-x="1058" d="M49 0l301 1366h170l-270 -1214h637l-33 -152h-805z" />
<glyph unicode="M" horiz-adv-x="1656" d="M49 0l301 1366h236l192 -1053l658 1053h252l-302 -1366h-169l253 1149l-718 -1149h-70l-211 1149l-252 -1149h-170z" />
<glyph unicode="N" horiz-adv-x="1449" d="M49 0l301 1366h174l545 -1094l242 1094h170l-301 -1366h-164l-551 1114l-246 -1114h-170z" />
<glyph unicode="O" horiz-adv-x="1566" d="M123 573q0 168 60.5 319.5t163.5 260.5t245 172.5t299 63.5q132 0 246.5 -40.5t200 -115.5t135 -188.5t49.5 -251.5q0 -169 -60.5 -321t-163.5 -260.5t-245 -172.5t-299 -64q-132 0 -246.5 40.5t-200 115.5t-135 189t-49.5 253zM303 582q0 -142 62.5 -247t165.5 -156.5 t233 -51.5q115 0 220.5 49.5t184 135t125.5 208.5t47 262q0 211 -131 333t-329 122q-116 0 -222 -49.5t-184.5 -135.5t-125 -208.5t-46.5 -261.5z" />
<glyph unicode="P" horiz-adv-x="1202" d="M49 0l301 1366h508q171 0 275 -103t104 -251q0 -65 -17 -128.5t-57 -126t-98.5 -109.5t-149 -76t-200.5 -29h-377l-119 -543h-170zM371 694h358q155 0 242.5 88t87.5 217q0 89 -65 152t-163 63h-344z" />
<glyph unicode="Q" horiz-adv-x="1566" d="M123 573q0 168 60.5 319.5t163.5 260.5t245 172.5t299 63.5q132 0 246.5 -40.5t200 -115.5t135 -188.5t49.5 -251.5q0 -202 -84.5 -376t-229.5 -286l86 -121l-137 -73l-80 112q-154 -74 -323 -74q-132 0 -246.5 40.5t-200 115.5t-135 189t-49.5 253zM303 582 q0 -142 62.5 -247t165.5 -156.5t233 -51.5q115 0 223 51l-160 230l136 73l153 -219q104 90 164.5 225t60.5 295q0 211 -131 333t-329 122q-116 0 -222 -49.5t-184.5 -135.5t-125 -208.5t-46.5 -261.5z" />
<glyph unicode="R" horiz-adv-x="1245" d="M49 0l301 1366h502q100 0 187.5 -41.5t143.5 -124.5t56 -190q0 -190 -122.5 -318t-321.5 -141l245 -551h-188l-229 543h-287l-117 -543h-170zM371 692h354h6q153 0 240.5 86.5t87.5 216.5q0 94 -70.5 156.5t-161.5 62.5h-340z" />
<glyph unicode="S" horiz-adv-x="1200" d="M33 219l117 123q72 -100 190 -157.5t260 -57.5q76 0 136 23t95 61t52.5 81.5t17.5 88.5q0 48 -29 87.5t-77 66t-108.5 54t-124.5 51t-124.5 57t-108.5 71t-77 94.5t-29 127q0 162 138 279.5t346 117.5q158 0 289.5 -57.5t203.5 -157.5l-117 -118q-65 90 -171 137t-224 47 t-200 -67.5t-82 -157.5q0 -44 29 -80.5t76.5 -62t108.5 -53t124.5 -51.5t124.5 -58.5t108.5 -73t76.5 -97t29 -128.5q0 -83 -33 -159.5t-94 -138t-157 -98.5t-213 -37q-180 0 -330.5 68.5t-222.5 175.5z" />
<glyph unicode="T" horiz-adv-x="1167" d="M223 1214l33 152h1036l-32 -152h-435l-268 -1214h-170l268 1214h-432z" />
<glyph unicode="U" horiz-adv-x="1433" d="M156 430q0 38 10 100l184 836h170l-182 -831q-10 -40 -10 -86q0 -143 95.5 -232.5t264.5 -89.5q179 0 278.5 104t143.5 304l184 831h170l-182 -834q-24 -105 -56 -187.5t-81 -153.5t-112 -117.5t-150 -72.5t-195 -26q-251 0 -391.5 123t-140.5 332z" />
<glyph unicode="V" horiz-adv-x="1347" d="M209 1366h184l201 -1180l723 1180h203l-852 -1366h-211z" />
<glyph unicode="W" horiz-adv-x="1808" d="M219 1366h184l50 -1139l565 1139h143l60 -1139l555 1139h192l-690 -1366h-184l-58 1102l-544 -1102h-185z" />
<glyph unicode="X" horiz-adv-x="1335" d="M-86 0l688 711l-356 655h194l291 -543l516 543h221l-649 -676l379 -690h-192l-316 578l-557 -578h-219z" />
<glyph unicode="Y" horiz-adv-x="1282" d="M209 1366h186l285 -635l563 635h211l-711 -788l-127 -578h-170l127 578z" />
<glyph unicode="Z" horiz-adv-x="1198" d="M-12 0l30 141l994 1073h-756l33 152h985l-29 -141l-997 -1073h774l-35 -152h-999z" />
<glyph unicode="[" horiz-adv-x="497" d="M-117 -389l396 1778h380l-24 -113h-262l-344 -1552h262l-27 -113h-381z" />
<glyph unicode="\" horiz-adv-x="606" d="M201 1407h121l163 -1448h-120z" />
<glyph unicode="]" horiz-adv-x="497" d="M-162 -389l25 113h260l346 1552h-262l24 113h381l-395 -1778h-379z" />
<glyph unicode="^" horiz-adv-x="884" d="M78 682l497 684h117l193 -684h-121l-150 571l-403 -571h-133z" />
<glyph unicode="_" horiz-adv-x="1155" d="M-160 -195l27 113h1165l-26 -113h-1166z" />
<glyph unicode="`" horiz-adv-x="462" d="M207 1434h160l237 -295h-117z" />
<glyph unicode="a" horiz-adv-x="1177" d="M82 383q0 121 36.5 234.5t102 201.5t164.5 141.5t215 53.5q113 0 203 -48.5t141 -131.5l35 155h154l-220 -989h-153l31 141q-133 -166 -326 -166q-173 0 -278 108.5t-105 299.5zM244 412q0 -137 75.5 -218t200.5 -81q89 0 170 47.5t131 120.5l99 436q-39 70 -117.5 115 t-181.5 45q-109 0 -196.5 -67t-134 -172.5t-46.5 -225.5z" />
<glyph unicode="b" horiz-adv-x="1177" d="M43 0l301 1366h154l-115 -518q137 166 328 166q172 0 277.5 -109t105.5 -299q0 -121 -37 -234.5t-103 -201.5t-165 -141.5t-214 -53.5q-114 0 -203.5 48.5t-140.5 132.5l-34 -156h-154zM256 272q38 -71 117 -115t182 -44q109 0 196.5 67t134 172.5t46.5 225.5 q0 137 -76.5 218t-200.5 81q-89 0 -169.5 -48t-133.5 -122z" />
<glyph unicode="c" horiz-adv-x="1013" d="M82 418q0 161 73.5 298t202 217.5t281.5 80.5q260 0 371 -185l-117 -88q-37 66 -104 101t-146 35q-120 0 -213 -65t-140.5 -168.5t-47.5 -223.5q0 -147 86.5 -227t222.5 -80q74 0 139 31.5t111 84.5l88 -102q-148 -152 -352 -152q-203 0 -329 119.5t-126 323.5z" />
<glyph unicode="d" horiz-adv-x="1177" d="M82 383q0 121 36.5 234.5t102 201.5t164.5 141.5t215 53.5q113 0 203 -48.5t141 -131.5l119 532h154l-304 -1366h-153l31 141q-133 -166 -326 -166q-173 0 -278 108.5t-105 299.5zM244 412q0 -137 75.5 -218t200.5 -81q89 0 170 47.5t131 120.5l99 436q-39 70 -117.5 115 t-181.5 45q-109 0 -196.5 -67t-134 -172.5t-46.5 -225.5z" />
<glyph unicode="e" horiz-adv-x="1153" d="M82 414q0 162 73.5 300t202 219t281.5 81q193 0 309.5 -120.5t116.5 -311.5q0 -61 -16 -138h-807q0 -3 -1 -21t-1 -26q0 -123 88 -209t247 -86q74 0 150 25.5t135 71.5l51 -107q-67 -53 -159.5 -85t-186.5 -32q-224 0 -353.5 119.5t-129.5 319.5zM258 557h664q4 16 4 39 q0 128 -79 209.5t-222 81.5q-134 0 -238.5 -97.5t-128.5 -232.5z" />
<glyph unicode="f" horiz-adv-x="579" d="M86 0l188 856h-163l30 133h164l17 76q33 149 114 235t215 86q132 0 215 -83l-82 -93q-50 50 -127 50q-74 0 -117.5 -49t-64.5 -146l-16 -76h200l-30 -133h-201l-188 -856h-154z" />
<glyph unicode="g" horiz-adv-x="1175" d="M-8 -233l98 104q101 -145 342 -145q120 0 208 71.5t124 231.5l29 129q-62 -78 -148.5 -123t-187.5 -45q-165 0 -271 104t-106 305q0 117 36.5 227.5t101.5 196.5t163.5 138.5t214.5 52.5q99 0 194.5 -50.5t151.5 -129.5l35 155h153l-212 -960q-26 -118 -75 -204 t-115 -134t-138 -70t-156 -22q-150 0 -258 38t-184 130zM242 424q0 -137 74.5 -217t201.5 -80q82 0 164 45t139 113l94 428q-41 75 -125 119.5t-182 44.5q-108 0 -193.5 -66.5t-129 -169t-43.5 -217.5z" />
<glyph unicode="h" horiz-adv-x="1130" d="M43 0l301 1366h154l-115 -520q176 168 350 168q134 0 214.5 -64.5t80.5 -181.5q0 -42 -12 -82l-150 -686h-153l141 649q12 54 12 68q0 82 -55 121t-149 39q-80 0 -161 -45.5t-145 -112.5l-159 -719h-154z" />
<glyph unicode="i" horiz-adv-x="460" d="M43 0l219 989h154l-219 -989h-154zM287 1221q0 51 36.5 83.5t79.5 32.5q39 0 67 -27t28 -63q0 -52 -36.5 -84.5t-80.5 -32.5q-41 0 -67.5 26t-26.5 65z" />
<glyph unicode="j" horiz-adv-x="460" d="M-375 -315l74 110q24 -31 61.5 -50t79.5 -19q139 0 180 178l242 1085h154l-242 -1085q-33 -151 -108 -228t-205 -77q-162 0 -236 86zM287 1221q0 51 36.5 83.5t79.5 32.5q39 0 67 -27t28 -63q0 -52 -36.5 -84.5t-80.5 -32.5q-41 0 -67.5 26t-26.5 65z" />
<glyph unicode="k" horiz-adv-x="1052" d="M43 0l301 1366h154l-197 -895l627 518h202l-538 -448l321 -541h-186l-262 451l-207 -168l-61 -283h-154z" />
<glyph unicode="l" horiz-adv-x="460" d="M43 0l301 1366h154l-301 -1366h-154z" />
<glyph unicode="m" horiz-adv-x="1654" d="M43 0l219 989h154l-33 -143q24 28 53 53.5t69 53.5t89.5 44.5t99.5 16.5q62 0 113.5 -20.5t80.5 -50.5t44.5 -60t15.5 -54v-4q67 82 155.5 135.5t188.5 53.5q109 0 184.5 -65.5t75.5 -180.5q0 -20 -10 -82l-151 -686h-154l145 664q9 45 9 59q0 71 -48.5 112.5 t-119.5 41.5q-68 0 -141 -44.5t-130 -111.5l-159 -721h-154l147 664q9 61 9 71q-2 62 -46.5 102t-125.5 40q-66 0 -137.5 -45t-129.5 -111l-159 -721h-154z" />
<glyph unicode="n" horiz-adv-x="1128" d="M43 0l219 989h154l-33 -143q176 168 350 168q134 0 214.5 -64.5t80.5 -181.5q0 -42 -12 -82l-152 -686h-153l143 649q12 54 12 68q0 82 -54 121t-140 39q-87 0 -169.5 -44.5t-146.5 -111.5l-159 -721h-154z" />
<glyph unicode="o" horiz-adv-x="1171" d="M82 414q0 116 42 225t113.5 192t175.5 133t220 50q209 0 330.5 -121t121.5 -320q0 -155 -70.5 -292t-198 -221.5t-281.5 -84.5q-210 0 -331.5 120t-121.5 319zM244 420q0 -141 78.5 -224t216.5 -83q109 0 198.5 65.5t138 169.5t48.5 221q0 141 -78.5 224.5t-216.5 83.5 q-109 0 -198.5 -66t-138 -170t-48.5 -221z" />
<glyph unicode="p" horiz-adv-x="1171" d="M-41 -377l303 1366h154l-33 -141q137 166 328 166q172 0 277.5 -109t105.5 -299q0 -121 -37 -234.5t-103 -201.5t-165 -141.5t-214 -53.5q-114 0 -203.5 48.5t-140.5 132.5l-118 -533h-154zM256 272q38 -71 117 -115t182 -44q109 0 196.5 67t134 172.5t46.5 225.5 q0 137 -76.5 218t-200.5 81q-89 0 -169.5 -48t-133.5 -122z" />
<glyph unicode="q" horiz-adv-x="1171" d="M82 383q0 121 36.5 234.5t102 201.5t164.5 141.5t215 53.5q113 0 203 -48.5t141 -131.5l35 155h154l-304 -1366h-153l115 518q-133 -166 -326 -166q-173 0 -278 108.5t-105 299.5zM244 412q0 -137 75.5 -218t200.5 -81q89 0 170 47.5t131 120.5l99 436q-39 70 -117.5 115 t-181.5 45q-109 0 -196.5 -67t-134 -172.5t-46.5 -225.5z" />
<glyph unicode="r" horiz-adv-x="675" d="M43 0l219 989h154l-35 -151q77 89 161.5 130.5t207.5 41.5l-35 -158q-24 8 -78 8q-81 0 -158.5 -47t-128.5 -115l-153 -698h-154z" />
<glyph unicode="s" horiz-adv-x="952" d="M6 150l98 106q43 -63 133.5 -109.5t194.5 -46.5q102 0 164.5 51.5t62.5 122.5q0 38 -28.5 68.5t-74.5 52t-101.5 42t-111 45t-101.5 53.5t-74.5 73.5t-28.5 100.5q0 129 100 217t275 88q122 0 223.5 -46t153.5 -116l-88 -100q-35 56 -119.5 96.5t-177.5 40.5 q-97 0 -155 -43.5t-58 -108.5q0 -36 28.5 -64.5t74.5 -49.5t101.5 -41t111 -44.5t101.5 -54.5t74.5 -76.5t28.5 -105.5q0 -136 -105 -231t-284 -95q-134 0 -242.5 45t-175.5 130z" />
<glyph unicode="t" horiz-adv-x="602" d="M100 856l31 133h164l59 271h154l-59 -271h200l-31 -133h-200l-135 -610q-4 -24 -4 -41q0 -92 98 -92q58 0 94 32l18 -122q-61 -48 -149 -48q-106 0 -165.5 45.5t-59.5 135.5q0 27 6 57l143 643h-164z" />
<glyph unicode="u" horiz-adv-x="1128" d="M100 221q0 27 11 82l151 686h154l-144 -647q-10 -50 -10 -70q0 -82 55.5 -120.5t149.5 -38.5q78 0 158.5 44.5t146.5 110.5l158 721h153l-219 -989h-153l32 143q-176 -168 -348 -168q-135 0 -215 64t-80 182z" />
<glyph unicode="v" horiz-adv-x="1003" d="M115 989h161l148 -811l510 811h172l-631 -989h-168z" />
<glyph unicode="w" horiz-adv-x="1503" d="M133 989h154l65 -788l434 788h136l84 -788l413 788h168l-534 -989h-154l-82 795l-434 -795h-154z" />
<glyph unicode="x" horiz-adv-x="995" d="M-86 0l489 508l-249 481h170l190 -377l360 377h185l-467 -481l270 -508h-170l-209 406l-387 -406h-182z" />
<glyph unicode="y" horiz-adv-x="1003" d="M-94 -379l53 137q37 -16 96 -16q43 0 77 21.5t71 76.5l100 154l-188 995h161l148 -811l510 811h172l-762 -1190q-67 -104 -140 -152t-169 -48q-74 0 -129 22z" />
<glyph unicode="z" horiz-adv-x="966" d="M-4 0l24 119l701 735h-537l31 135h746l-27 -117l-705 -739h549l-28 -133h-754z" />
<glyph unicode="{" horiz-adv-x="532" d="M-27 -170q0 27 7 55l94 422q4 24 4 35q0 45 -22 76t-58 31l25 102q56 0 90 39t47 102l92 420q32 137 114 207t203 70h125l-24 -113h-125q-66 0 -110 -43t-62 -121l-101 -444q-30 -144 -131 -181q60 -32 60 -110q0 -37 -8 -70l-93 -420q-4 -24 -4 -43q0 -54 33 -87t84 -33 h113l-27 -113h-96q-93 0 -161.5 61.5t-68.5 157.5z" />
<glyph unicode="|" horiz-adv-x="432" d="M201 -41v1448h112v-1448h-112z" />
<glyph unicode="}" horiz-adv-x="532" d="M-164 -389l25 113h127q65 0 109 42t61 119l100 447q30 142 133 180q-59 32 -59 111q0 36 8 69l92 420q4 24 4 43q0 52 -34 86.5t-85 34.5h-112l26 113h99q91 0 159 -62t68 -158q0 -33 -6 -57l-94 -420q-4 -24 -4 -35q0 -47 21.5 -76.5t57.5 -29.5l-22 -102 q-57 0 -91.5 -39.5t-47.5 -102.5l-92 -420q-32 -137 -114.5 -206.5t-203.5 -69.5h-125z" />
<glyph unicode="~" horiz-adv-x="1030" d="M139 879q22 100 52.5 182.5t74.5 153t105 110t133 39.5q57 0 95.5 -21.5t57 -56t29 -76.5t16.5 -83.5t15 -76t30 -56t56 -21.5q75 0 141 107.5t105 285.5l114 -14q-113 -486 -366 -486q-78 0 -121.5 40t-57 97.5t-22 114.5t-31 97t-69.5 40q-73 0 -138.5 -106.5 t-107.5 -284.5z" />
<glyph unicode="&#xa2;" horiz-adv-x="1013" d="M82 418q0 119 42.5 228t115 189t174 128.5t215.5 50.5l33 143h120l-34 -153q176 -33 262 -175l-117 -88q-56 98 -176 127l-168 -755h2q74 0 139 31.5t111 84.5l88 -102q-148 -152 -352 -152h-17l-41 -180h-121l43 197q-147 34 -233 146t-86 280zM242 420q0 -112 51 -186 t139 -103l166 741q-107 -12 -189.5 -78t-124.5 -164t-42 -210z" />
<glyph unicode="&#xa3;" horiz-adv-x="1060" d="M8 113q148 61 248 169t100 220q0 15 -4 47h-303l25 110h235q-8 14 -36 61.5t-39.5 71t-24 67.5t-12.5 87q0 86 39 166.5t104.5 140.5t158.5 96.5t195 36.5q150 0 269.5 -67t152.5 -178l-155 -66q-17 73 -90.5 120.5t-170.5 47.5q-132 0 -225.5 -86.5t-93.5 -224.5 q0 -53 16.5 -98t47.5 -97.5t42 -77.5h301l-24 -110h-248v-17q0 -100 -69 -194t-154 -145q53 16 94 16q67 0 168.5 -42t159.5 -42q108 0 186 82l43 -137q-111 -97 -239 -97q-62 0 -121.5 15t-100 32.5t-96.5 32.5t-111 15q-97 0 -235 -82z" />
<glyph unicode="&#xa5;" horiz-adv-x="1282" d="M-12 250l24 108h518l50 220h-519l25 106h444l-315 682h186l285 -635l563 635h211l-614 -682h432l-23 -106h-505l-50 -220h506l-24 -108h-504l-55 -250h-170l55 250h-520z" />
<glyph unicode="&#xa8;" horiz-adv-x="557" d="M133 1227q0 41 32.5 72.5t74.5 31.5q37 0 61.5 -24.5t24.5 -59.5q0 -41 -33 -73.5t-74 -32.5q-35 0 -60.5 25.5t-25.5 60.5zM557 1227q0 41 32 72.5t75 31.5q35 0 59.5 -24.5t24.5 -59.5q0 -41 -32 -73.5t-75 -32.5q-35 0 -59.5 25.5t-24.5 60.5z" />
<glyph unicode="&#xa9;" horiz-adv-x="1593" d="M131 684q0 192 94.5 355t257 257.5t353.5 94.5q192 0 355 -94.5t258 -257.5t95 -355q0 -143 -56 -274t-151 -226t-226 -151t-275 -56q-191 0 -353.5 95t-257 258t-94.5 354zM195 684q0 -174 86 -322t233.5 -234.5t321.5 -86.5q130 0 249.5 51t206 137.5t138 205.5 t51.5 249t-51.5 249t-138 205.5t-206 137.5t-249.5 51q-174 0 -321.5 -86.5t-233.5 -234.5t-86 -322zM406 629q0 102 41 195t108 157.5t155 102.5t179 38q219 0 319 -164l-63 -45q-37 69 -104.5 105.5t-155.5 36.5q-73 0 -145.5 -32t-130 -87t-93 -135.5t-35.5 -169.5 q0 -133 88.5 -224.5t229.5 -91.5q64 0 128 27t107 70l39 -58q-129 -106 -274 -106q-180 0 -286.5 108.5t-106.5 272.5z" />
<glyph unicode="&#xab;" horiz-adv-x="899" d="M59 498l410 362h162l-418 -373l238 -358h-146zM354 498l410 362h162l-418 -373l237 -358h-145z" />
<glyph unicode="&#xad;" horiz-adv-x="614" d="M45 428l29 135h491l-28 -135h-492z" />
<glyph unicode="&#xae;" horiz-adv-x="1011" d="M172 952q0 181 127 307.5t307 126.5q119 0 219 -57.5t157.5 -157.5t57.5 -219q0 -180 -127.5 -307t-308.5 -127q-180 0 -306 127t-126 307zM229 952q0 -156 109.5 -266.5t265.5 -110.5q155 0 266 111t111 266q0 156 -110.5 265.5t-266.5 109.5q-157 0 -266 -109 t-109 -266zM385 702l109 498h188q59 0 101 -36t42 -95q0 -71 -51 -119.5t-112 -48.5l90 -199h-78l-86 197h-94l-43 -197h-66zM506 958h137q47 0 80 30.5t33 74.5q0 36 -23.5 58t-60.5 22h-125z" />
<glyph unicode="&#xb4;" horiz-adv-x="462" d="M137 1139l369 295h164l-412 -295h-121z" />
<glyph unicode="&#xb8;" horiz-adv-x="419" d="M-182 -313l55 73q68 -71 170 -71q60 0 92.5 26.5t32.5 69.5q0 28 -20 44.5t-56 16.5q-42 0 -72 -34l-59 38l102 173h93l-84 -136q33 23 69 23q54 0 86.5 -32t32.5 -89q0 -80 -61.5 -130t-159.5 -50q-69 0 -127 22t-94 56z" />
<glyph unicode="&#xbb;" horiz-adv-x="899" d="M-23 129l418 373l-237 358h145l246 -368l-410 -363h-162zM272 129l418 373l-237 358h145l246 -368l-410 -363h-162z" />
<glyph unicode="&#x2c6;" horiz-adv-x="542" d="M141 1139l260 295h148l135 -295h-100l-123 217l-211 -217h-109z" />
<glyph unicode="&#x2da;" horiz-adv-x="401" d="M176 1294q0 89 66 155.5t155 66.5q79 0 131 -52t52 -131q0 -91 -65.5 -156t-156.5 -65q-80 0 -131 51t-51 131zM258 1303q0 -47 30 -78t77 -31q54 0 93.5 38.5t39.5 92.5q0 50 -29 79.5t-78 29.5q-53 0 -93 -39t-40 -92z" />
<glyph unicode="&#x2dc;" horiz-adv-x="641" d="M143 1147q57 274 234 274q42 0 72 -19.5t47.5 -47t33 -55t38 -47t53.5 -19.5q83 0 127 176h94q-60 -274 -236 -274q-42 0 -72 19.5t-47.5 47t-33 55t-38 47t-53.5 19.5q-85 0 -124 -176h-95z" />
<glyph unicode="&#x401;" horiz-adv-x="1165" d="M49 0l301 1366h895l-33 -152h-725l-98 -440h711l-33 -151h-713l-104 -471h727l-33 -152h-895zM537 1569q0 41 32.5 72.5t73.5 31.5q37 0 61.5 -24.5t24.5 -59.5q0 -41 -32.5 -73.5t-73.5 -32.5q-35 0 -60.5 25.5t-25.5 60.5zM961 1569q0 41 31.5 72.5t74.5 31.5 q35 0 59.5 -24.5t24.5 -59.5q0 -41 -32.5 -73.5t-74.5 -32.5q-35 0 -59 25t-24 61z" />
<glyph unicode="&#x402;" horiz-adv-x="1574" d="M221 1214l33 152h1036l-33 -152h-432l-86 -383q180 48 338 48q232 0 326 -125t51 -328l-4 -16q-32 -143 -115.5 -243.5t-191.5 -146t-234 -45.5l33 152q127 0 218 76t120 207l4 16q32 148 -32.5 224.5t-221.5 76.5q-169 0 -325 -47l-148 -680h-170l268 1214h-434z" />
<glyph unicode="&#x403;" horiz-adv-x="1126" d="M49 0l301 1366h895l-33 -152h-725l-268 -1214h-170zM717 1481l368 295h164l-411 -295h-121z" />
<glyph unicode="&#x404;" horiz-adv-x="1384" d="M123 573q0 180 64.5 335t171.5 259t245.5 163t286.5 59q198 0 341.5 -86t215.5 -236l-162 -63q-59 118 -165 175.5t-240 57.5q-186 0 -342.5 -127t-210.5 -336h772l-33 -151h-764v-41q0 -203 125.5 -329t335.5 -126q199 0 366 156l125 -95q-101 -109 -233 -161t-268 -52 q-135 0 -251.5 43t-200 120t-131.5 189.5t-48 245.5z" />
<glyph unicode="&#x405;" horiz-adv-x="1200" d="M33 219l117 123q72 -100 190 -157.5t260 -57.5q76 0 136 23t95 61t52.5 81.5t17.5 88.5q0 48 -29 87.5t-77 66t-108.5 54t-124.5 51t-124.5 57t-108.5 71t-77 94.5t-29 127q0 162 138 279.5t346 117.5q158 0 289.5 -57.5t203.5 -157.5l-117 -118q-65 90 -171 137t-224 47 t-200 -67.5t-82 -157.5q0 -44 29 -80.5t76.5 -62t108.5 -53t124.5 -51.5t124.5 -58.5t108.5 -73t76.5 -97t29 -128.5q0 -83 -33 -159.5t-94 -138t-157 -98.5t-213 -37q-180 0 -330.5 68.5t-222.5 175.5z" />
<glyph unicode="&#x406;" horiz-adv-x="489" d="M49 0l301 1366h170l-301 -1366h-170z" />
<glyph unicode="&#x407;" horiz-adv-x="489" d="M49 0l301 1366h170l-301 -1366h-170zM174 1569q0 41 32.5 72.5t74.5 31.5q37 0 61.5 -24.5t24.5 -59.5q0 -41 -33 -73.5t-74 -32.5q-35 0 -60.5 25.5t-25.5 60.5zM598 1569q0 41 32 72.5t75 31.5q35 0 59 -24.5t24 -59.5q0 -42 -32 -74t-74 -32q-35 0 -59.5 25.5 t-24.5 60.5z" />
<glyph unicode="&#x408;" horiz-adv-x="972" d="M-45 147l102 123q38 -67 104 -105t154 -38q123 0 201 77t107 210l211 952h170l-211 -954q-97 -437 -469 -437q-119 0 -217 44t-152 128z" />
<glyph unicode="&#x409;" horiz-adv-x="2170" d="M-51 -25l35 152q65 0 114 21.5t102 81t105 169t111 281.5l235 686h836l-119 -543h350q185 0 283.5 -108t85.5 -269q-6 -64 -27.5 -125.5t-64 -120t-101 -102.5t-143.5 -71t-186 -27h-547l266 1214h-514l-188 -546q-43 -127 -87 -227t-85.5 -172.5t-86.5 -125t-87 -85 t-91 -51t-94.5 -25.5t-101.5 -7zM1221 152h354q139 0 229.5 79.5t102.5 202.5q12 103 -48 170.5t-171 67.5h-353z" />
<glyph unicode="&#x40a;" horiz-adv-x="2170" d="M49 0l299 1366h170l-129 -588h799l129 588h170l-129 -588h373q118 0 201.5 -48.5t120 -128.5t28.5 -179q-6 -77 -38.5 -149t-90 -134.5t-152.5 -100.5t-213 -38h-569l137 627h-801l-135 -627h-170zM1221 152h381q126 0 208.5 73t94.5 183q12 95 -43.5 157t-157.5 62h-379 z" />
<glyph unicode="&#x40b;" horiz-adv-x="1607" d="M221 1214l33 152h1036l-33 -152h-432l-86 -383q180 48 338 48q119 0 203 -34t127 -96t55.5 -148t-12.5 -191l-90 -410h-170l90 412q35 156 -29 235.5t-221 79.5q-169 0 -325 -47l-148 -680h-170l268 1214h-434z" />
<glyph unicode="&#x40c;" horiz-adv-x="1230" d="M49 0l301 1366h170l-153 -690l747 690h223l-712 -649l460 -717h-198l-389 623l-179 -164l-100 -459h-170zM727 1481l369 295h164l-412 -295h-121z" />
<glyph unicode="&#x40e;" horiz-adv-x="1282" d="M-61 84l102 135q63 -92 164 -92q71 0 123 40.5t135 149.5l47 62l-303 987h182l244 -848l614 848h205l-842 -1124q-68 -90 -124 -143.5t-134 -88.5t-172 -35q-83 0 -147.5 30.5t-93.5 78.5zM506 1624l86 66q35 -70 99.5 -109t152.5 -39t169.5 39t145.5 109l66 -66 q-81 -84 -185 -132t-213 -48q-108 0 -192 48t-129 132z" />
<glyph unicode="&#x40f;" horiz-adv-x="1458" d="M49 0l299 1366h170l-268 -1214h801l266 1214h170l-299 -1366h-486l-57 -260h-170l57 260h-483z" />
<glyph unicode="&#x410;" horiz-adv-x="1347" d="M-92 0l850 1366h211l250 -1366h-187l-53 303h-682l-186 -303h-203zM383 455h580l-129 735z" />
<glyph unicode="&#x411;" horiz-adv-x="1202" d="M49 0l299 1366h887l-31 -152h-719l-86 -391h340q170 0 274.5 -103.5t104.5 -250.5q0 -65 -17 -128.5t-57 -126t-98.5 -109.5t-148.5 -76t-199 -29h-549zM250 152h360q154 0 242 88t88 217q0 89 -65 152t-162 63h-346z" />
<glyph unicode="&#x412;" horiz-adv-x="1288" d="M49 0l301 1366h568q151 0 249.5 -88.5t98.5 -224.5q0 -143 -94 -248t-224 -119q88 -23 144.5 -103t56.5 -177q0 -78 -28.5 -149t-83.5 -129t-147 -93t-208 -35h-633zM250 152h428q139 0 218 78t79 188q0 90 -59 147.5t-160 57.5h-402zM389 774h424q72 0 126 22t84 60 t44 81t14 91q0 79 -60 132.5t-147 53.5h-387z" />
<glyph unicode="&#x413;" horiz-adv-x="1126" d="M49 0l301 1366h895l-33 -152h-725l-268 -1214h-170z" />
<glyph unicode="&#x414;" horiz-adv-x="1480" d="M-100 -252l84 389q45 4 78.5 13.5t70.5 31.5t69 59.5t67 95.5t71 143t76 200l235 686h836l-266 -1214h122l-88 -404h-170l56 252h-1018l-55 -252h-168zM258 152h793l233 1062h-514l-188 -546q-137 -397 -324 -516z" />
<glyph unicode="&#x415;" horiz-adv-x="1165" d="M49 0l301 1366h895l-33 -152h-725l-98 -440h711l-33 -151h-713l-104 -471h727l-33 -152h-895z" />
<glyph unicode="&#x416;" horiz-adv-x="1861" d="M-76 0l776 717l-428 649h199l418 -664l145 664h170l-137 -625l672 625h229l-713 -649l463 -717h-198l-390 623l-112 -103l-113 -520h-170l113 520l-53 84l-645 -604h-226z" />
<glyph unicode="&#x417;" horiz-adv-x="1196" d="M12 260l123 96q52 -107 164.5 -168t249.5 -61q157 0 249.5 80.5t92.5 206.5q0 95 -85 153t-237 58h-254l33 151h311q90 0 166.5 25t128.5 81.5t52 135.5q0 94 -91 155.5t-239 61.5q-212 0 -361 -135l-71 117q80 78 198.5 123.5t245.5 45.5q219 0 354.5 -91.5 t135.5 -252.5q0 -74 -34.5 -139.5t-90 -108.5t-122.5 -70t-134 -32q113 -22 187.5 -99t74.5 -194q0 -177 -144.5 -300.5t-363.5 -123.5q-185 0 -334.5 78.5t-204.5 206.5z" />
<glyph unicode="&#x418;" horiz-adv-x="1449" d="M49 0l301 1366h170l-241 -1094l1028 1094h174l-301 -1366h-172l247 1114l-1042 -1114h-164z" />
<glyph unicode="&#x419;" horiz-adv-x="1449" d="M49 0l301 1366h170l-241 -1094l1028 1094h174l-301 -1366h-172l247 1114l-1042 -1114h-164zM600 1624l86 66q35 -70 99.5 -109t152.5 -39t169.5 39t145.5 109l66 -66q-81 -84 -184.5 -132t-212.5 -48q-108 0 -192.5 48t-129.5 132z" />
<glyph unicode="&#x41a;" horiz-adv-x="1230" d="M49 0l301 1366h170l-153 -690l747 690h223l-712 -649l460 -717h-198l-389 623l-179 -164l-100 -459h-170z" />
<glyph unicode="&#x41b;" horiz-adv-x="1458" d="M-51 -25l33 152q66 0 115.5 21.5t102 81t105 169t111.5 281.5l235 686h836l-299 -1366h-170l266 1214h-514l-188 -546q-43 -127 -87 -227t-85.5 -172.5t-86.5 -125t-87 -85t-91 -51t-94.5 -25.5t-101.5 -7z" />
<glyph unicode="&#x41c;" horiz-adv-x="1656" d="M49 0l301 1366h236l192 -1053l658 1053h252l-302 -1366h-169l253 1149l-718 -1149h-70l-211 1149l-252 -1149h-170z" />
<glyph unicode="&#x41d;" horiz-adv-x="1458" d="M49 0l301 1366h170l-129 -588h799l129 588h170l-301 -1366h-170l137 627h-799l-137 -627h-170z" />
<glyph unicode="&#x41e;" horiz-adv-x="1566" d="M123 573q0 168 60.5 319.5t163.5 260.5t245 172.5t299 63.5q132 0 246.5 -40.5t200 -115.5t135 -188.5t49.5 -251.5q0 -169 -60.5 -321t-163.5 -260.5t-245 -172.5t-299 -64q-132 0 -246.5 40.5t-200 115.5t-135 189t-49.5 253zM303 582q0 -142 62.5 -247t165.5 -156.5 t233 -51.5q115 0 220.5 49.5t184 135t125.5 208.5t47 262q0 211 -131 333t-329 122q-116 0 -222 -49.5t-184.5 -135.5t-125 -208.5t-46.5 -261.5z" />
<glyph unicode="&#x41f;" horiz-adv-x="1458" d="M49 0l301 1366h1139l-301 -1366h-170l266 1214h-799l-266 -1214h-170z" />
<glyph unicode="&#x420;" horiz-adv-x="1202" d="M49 0l301 1366h508q171 0 275 -103t104 -251q0 -65 -17 -128.5t-57 -126t-98.5 -109.5t-149 -76t-200.5 -29h-377l-119 -543h-170zM371 694h358q155 0 242.5 88t87.5 217q0 89 -65 152t-163 63h-344z" />
<glyph unicode="&#x421;" horiz-adv-x="1384" d="M123 573q0 180 64.5 335t171.5 259t245.5 163t286.5 59q198 0 341.5 -86t215.5 -236l-162 -63q-59 118 -165 175.5t-240 57.5q-110 0 -214 -47.5t-185 -131t-130 -208t-49 -268.5q0 -203 125.5 -329t335.5 -126q199 0 366 156l125 -95q-101 -109 -233 -161t-268 -52 q-135 0 -251.5 43t-200 120t-131.5 189.5t-48 245.5z" />
<glyph unicode="&#x422;" horiz-adv-x="1167" d="M223 1214l33 152h1036l-32 -152h-435l-268 -1214h-170l268 1214h-432z" />
<glyph unicode="&#x423;" horiz-adv-x="1282" d="M-61 84l102 135q63 -92 164 -92q71 0 123 40.5t135 149.5l47 62l-303 987h182l244 -848l614 848h205l-842 -1124q-68 -90 -124 -143.5t-134 -88.5t-172 -35q-83 0 -147.5 30.5t-93.5 78.5z" />
<glyph unicode="&#x424;" horiz-adv-x="1650" d="M135 610q0 124 58 236t159.5 194t246 133t310.5 58l31 135h170l-33 -139q257 -23 392 -146.5t135 -328.5q0 -165 -100 -304t-278 -223.5t-399 -93.5l-28 -131h-170l30 135q-257 24 -390.5 148t-133.5 327zM313 610q0 -134 99.5 -220t281.5 -103l180 790 q-255 -20 -408 -149t-153 -318zM862 285q254 20 408.5 149.5t154.5 317.5q0 134 -100 221t-283 104z" />
<glyph unicode="&#x425;" horiz-adv-x="1335" d="M-86 0l688 711l-356 655h194l291 -543l516 543h221l-649 -676l379 -690h-192l-316 578l-557 -578h-219z" />
<glyph unicode="&#x426;" horiz-adv-x="1480" d="M49 0l299 1366h170l-268 -1214h801l266 1214h170l-266 -1214h122l-88 -404h-170l56 252h-1092z" />
<glyph unicode="&#x427;" horiz-adv-x="1251" d="M227 1012l80 354h170l-80 -356q-34 -156 30.5 -236t221.5 -80q168 0 324 47l137 625h170l-299 -1366h-170l129 590q-180 -47 -340 -47q-235 0 -327.5 125.5t-45.5 343.5z" />
<glyph unicode="&#x428;" horiz-adv-x="1961" d="M49 0l299 1366h170l-268 -1214h567l268 1214h170l-268 -1214h567l267 1214h170l-299 -1366h-1643z" />
<glyph unicode="&#x429;" horiz-adv-x="1986" d="M49 0l299 1366h170l-268 -1214h567l268 1214h170l-268 -1214h567l267 1214h170l-267 -1214h125l-88 -404h-170l56 252h-1598z" />
<glyph unicode="&#x42a;" horiz-adv-x="1540" d="M221 1214l33 152h602l-119 -543h340q171 0 275 -103t104 -251q0 -65 -17 -128.5t-57 -126t-98.5 -109.5t-149 -76t-200.5 -29h-547l268 1214h-434zM590 152h354q158 0 246 87.5t88 217.5q0 89 -65.5 152t-163.5 63h-344z" />
<glyph unicode="&#x42b;" horiz-adv-x="1613" d="M49 0l299 1366h170l-119 -543h340q171 0 275 -103t104 -251q0 -65 -17 -128.5t-57.5 -126t-99 -109.5t-148.5 -76t-200 -29h-547zM250 152h356q156 0 245 88t89 217q0 89 -65.5 152t-163.5 63h-344zM1174 0l299 1366h169l-299 -1366h-169z" />
<glyph unicode="&#x42c;" horiz-adv-x="1202" d="M49 0l299 1366h170l-119 -543h340q171 0 275 -103t104 -251q0 -65 -17 -128.5t-57.5 -126t-99 -109.5t-148.5 -76t-200 -29h-547zM250 152h356q156 0 245 88t89 217q0 89 -65.5 152t-163.5 63h-344z" />
<glyph unicode="&#x42d;" horiz-adv-x="1384" d="M14 297l162 63q59 -117 166 -175t240 -58q194 0 354.5 136.5t208.5 359.5h-766l33 151h749v8q0 203 -125.5 329t-337.5 126q-96 0 -190.5 -40t-173.5 -116l-127 95q103 109 234.5 161t267.5 52q182 0 325 -73.5t224 -210t81 -314.5q0 -180 -64.5 -335t-171.5 -259 t-245.5 -163t-286.5 -59q-196 0 -339.5 86t-217.5 236z" />
<glyph unicode="&#x42e;" horiz-adv-x="2031" d="M49 0l299 1366h170l-129 -588h234q46 175 154.5 313t267.5 218t341 80q285 0 450.5 -180t139.5 -466q-13 -159 -79.5 -301t-170 -244.5t-244.5 -162.5t-296 -60q-285 0 -450.5 180t-139.5 468v4h-242l-135 -627h-170zM774 631q-25 -226 93 -365t331 -139q152 0 284 79 t216 217.5t100 309.5q25 226 -94.5 365t-331.5 139q-233 0 -403 -172.5t-195 -433.5z" />
<glyph unicode="&#x42f;" horiz-adv-x="1245" d="M-16 0l495 555q-109 26 -190.5 116t-81.5 224q0 69 19 135.5t60.5 127.5t101 107t148.5 73.5t195 27.5h547l-303 -1366h-170l121 543h-254l-469 -543h-219zM385 909q0 -93 69 -155t169 -62h335l115 522h-358q-153 0 -241.5 -88t-88.5 -217z" />
<glyph unicode="&#x430;" horiz-adv-x="1177" d="M82 383q0 121 36.5 234.5t102 201.5t164.5 141.5t215 53.5q113 0 203 -48.5t141 -131.5l35 155h154l-220 -989h-153l31 141q-133 -166 -326 -166q-173 0 -278 108.5t-105 299.5zM244 412q0 -137 75.5 -218t200.5 -81q89 0 170 47.5t131 120.5l99 436q-39 70 -117.5 115 t-181.5 45q-109 0 -196.5 -67t-134 -172.5t-46.5 -225.5z" />
<glyph unicode="&#x431;" horiz-adv-x="1181" d="M82 414q0 96 28.5 201t61.5 173q98 224 249.5 337.5t389.5 142.5q145 23 204.5 45t65.5 53h150q-11 -47 -44.5 -84t-75 -59.5t-102 -40.5t-107 -26.5t-109.5 -16.5q-212 -29 -324.5 -112.5t-173.5 -223.5q74 97 173 154t214 57q189 0 296 -120.5t107 -320.5 q0 -155 -70.5 -292t-198 -221.5t-281.5 -84.5q-210 0 -331.5 120t-121.5 319zM244 420q0 -141 78.5 -224t216.5 -83q109 0 198.5 65.5t138 169.5t48.5 221q0 141 -78.5 224.5t-216.5 83.5q-109 0 -198.5 -66t-138 -170t-48.5 -221z" />
<glyph unicode="&#x432;" horiz-adv-x="1134" d="M43 0l217 989h504q118 0 190 -57.5t72 -159.5q0 -101 -61 -174.5t-162 -95.5q63 -24 101 -77.5t38 -127.5q0 -126 -88.5 -211.5t-237.5 -85.5h-573zM225 135h375q84 0 136 49t52 123q0 60 -41 96.5t-114 36.5h-340zM322 575h374q76 0 122 47t46 113q0 57 -42 88t-113 31 h-326z" />
<glyph unicode="&#x433;" horiz-adv-x="892" d="M43 0l217 989h692l-30 -135h-539l-186 -854h-154z" />
<glyph unicode="&#x434;" horiz-adv-x="1148" d="M-127 -252l80 379q50 9 89 39t85.5 112.5t95.5 223.5l172 487h688l-188 -854h115l-86 -387h-154l57 252h-747l-55 -252h-152zM154 135h587l158 719h-399l-127 -371q-93 -263 -219 -348z" />
<glyph unicode="&#x435;" horiz-adv-x="1153" d="M82 414q0 162 73.5 300t202 219t281.5 81q193 0 309.5 -120.5t116.5 -311.5q0 -61 -16 -138h-807q0 -3 -1 -21t-1 -26q0 -123 88 -209t247 -86q74 0 150 25.5t135 71.5l51 -107q-67 -53 -159.5 -85t-186.5 -32q-224 0 -353.5 119.5t-129.5 319.5zM258 557h664q4 16 4 39 q0 128 -79 209.5t-222 81.5q-134 0 -238.5 -97.5t-128.5 -232.5z" />
<glyph unicode="&#x436;" horiz-adv-x="1456" d="M-82 0l559 541l-340 448h185l337 -446l99 446h153l-92 -422l506 422h207l-539 -448l324 -541h-187l-262 451l-92 -76l-82 -375h-153l82 375l-52 63l-446 -438h-207z" />
<glyph unicode="&#x437;" horiz-adv-x="1052" d="M6 143l94 93q122 -134 344 -134q127 0 217.5 53.5t90.5 133.5q0 71 -71 110t-185 39h-238l29 125h221q154 0 246 45t92 137q0 68 -63 105t-181 37q-208 0 -385 -125l-65 100q199 152 462 152q200 0 299 -66t99 -184q0 -65 -33.5 -117.5t-86 -84t-107 -49.5t-105.5 -21 q89 -12 159 -67.5t70 -143.5q0 -89 -65.5 -160t-171 -108.5t-228.5 -37.5q-151 0 -263.5 45t-174.5 123z" />
<glyph unicode="&#x438;" horiz-adv-x="1130" d="M43 0l217 989h154l-166 -756l684 756h151l-217 -989h-153l168 770l-691 -770h-147z" />
<glyph unicode="&#x439;" horiz-adv-x="1130" d="M43 0l217 989h154l-166 -756l684 756h151l-217 -989h-153l168 770l-691 -770h-147zM365 1282l86 66q35 -70 99 -109t152 -39t170 39t146 109l65 -66q-81 -84 -184.5 -132t-212.5 -48q-108 0 -192 48t-129 132z" />
<glyph unicode="&#x43a;" horiz-adv-x="1052" d="M43 0l219 989h154l-115 -518l627 518h202l-538 -448l321 -541h-186l-262 451l-207 -168l-61 -283h-154z" />
<glyph unicode="&#x43b;" horiz-adv-x="1130" d="M-80 -25l29 127q69 0 134 92.5t140 307.5l172 487h688l-217 -989h-153l186 854h-399l-127 -371q-92 -272 -200 -390t-253 -118z" />
<glyph unicode="&#x43c;" horiz-adv-x="1316" d="M43 0l217 989h197l139 -733l461 733h213l-217 -989h-154l168 776l-489 -776h-58l-153 776l-170 -776h-154z" />
<glyph unicode="&#x43d;" horiz-adv-x="1128" d="M43 0l225 989h154l-92 -405h516l92 405h154l-226 -989h-153l102 449h-516l-102 -449h-154z" />
<glyph unicode="&#x43e;" horiz-adv-x="1171" d="M82 414q0 116 42 225t113.5 192t175.5 133t220 50q209 0 330.5 -121t121.5 -320q0 -155 -70.5 -292t-198 -221.5t-281.5 -84.5q-210 0 -331.5 120t-121.5 319zM244 420q0 -141 78.5 -224t216.5 -83q109 0 198.5 65.5t138 169.5t48.5 221q0 141 -78.5 224.5t-216.5 83.5 q-109 0 -198.5 -66t-138 -170t-48.5 -221z" />
<glyph unicode="&#x43f;" horiz-adv-x="1128" d="M43 0l225 989h824l-226 -989h-153l194 854h-516l-194 -854h-154z" />
<glyph unicode="&#x440;" horiz-adv-x="1171" d="M-41 -377l303 1366h154l-33 -141q137 166 328 166q172 0 277.5 -109t105.5 -299q0 -121 -37 -234.5t-103 -201.5t-165 -141.5t-214 -53.5q-114 0 -203.5 48.5t-140.5 132.5l-118 -533h-154zM256 272q38 -71 117 -115t182 -44q109 0 196.5 67t134 172.5t46.5 225.5 q0 137 -76.5 218t-200.5 81q-89 0 -169.5 -48t-133.5 -122z" />
<glyph unicode="&#x441;" horiz-adv-x="1013" d="M82 418q0 161 73.5 298t202 217.5t281.5 80.5q260 0 371 -185l-117 -88q-37 66 -104 101t-146 35q-120 0 -213 -65t-140.5 -168.5t-47.5 -223.5q0 -147 86.5 -227t222.5 -80q74 0 139 31.5t111 84.5l88 -102q-148 -152 -352 -152q-203 0 -329 119.5t-126 323.5z" />
<glyph unicode="&#x442;" horiz-adv-x="823" d="M123 854l31 135h729l-31 -135h-289l-186 -854h-154l187 854h-287z" />
<glyph unicode="&#x443;" horiz-adv-x="1003" d="M-94 -379l53 137q37 -16 96 -16q43 0 77 21.5t71 76.5l100 154l-188 995h161l148 -811l510 811h172l-762 -1190q-67 -104 -140 -152t-169 -48q-74 0 -129 22z" />
<glyph unicode="&#x444;" horiz-adv-x="1634" d="M90 354q0 118 33 235.5t90.5 212t143 153.5t182.5 59q91 0 164 -47t110 -127l117 526h153l-114 -520q120 168 282 168q95 0 161 -53t96 -136.5t30 -189.5q0 -118 -33 -235.5t-90 -212t-142.5 -153.5t-182.5 -59q-90 0 -164 47.5t-111 127.5l-115 -527h-153l112 520 q-115 -168 -282 -168q-95 0 -161 53t-96 136.5t-30 189.5zM248 377q0 -122 51 -193t145 -71q133 0 244 157l98 447q-21 66 -82 113t-137 47q-90 0 -165 -77t-114.5 -191t-39.5 -232zM842 272q21 -66 81.5 -112.5t137.5 -46.5q91 0 166 76.5t114 190.5t39 232 q0 122 -51 193.5t-145 71.5q-132 0 -244 -158z" />
<glyph unicode="&#x445;" horiz-adv-x="995" d="M-86 0l489 508l-249 481h170l190 -377l360 377h185l-467 -481l270 -508h-170l-209 406l-387 -406h-182z" />
<glyph unicode="&#x446;" horiz-adv-x="1148" d="M43 0l217 989h154l-189 -854h516l189 854h153l-188 -854h115l-86 -387h-154l57 252h-784z" />
<glyph unicode="&#x447;" horiz-adv-x="1107" d="M168 664l72 325h153l-61 -278q-29 -132 20.5 -184t179.5 -52q160 0 273 53l102 461h154l-217 -989h-154l88 403q-144 -65 -317 -65q-192 0 -261 78t-32 248z" />
<glyph unicode="&#x448;" horiz-adv-x="1603" d="M43 0l217 989h154l-189 -854h418l188 854h154l-188 -854h417l189 854h153l-217 -989h-1296z" />
<glyph unicode="&#x449;" horiz-adv-x="1634" d="M43 0l217 989h154l-189 -854h418l188 854h154l-188 -854h417l189 854h153l-188 -854h115l-86 -387h-154l57 252h-1257z" />
<glyph unicode="&#x44a;" horiz-adv-x="1249" d="M123 854l31 135h440l-86 -383h336q142 0 216.5 -78t65.5 -200q-11 -136 -110.5 -232t-255.5 -96h-537l187 854h-287zM406 135h358q86 0 141 49.5t64 128.5q8 73 -31 115.5t-123 42.5h-336z" />
<glyph unicode="&#x44b;" horiz-adv-x="1458" d="M43 0l217 989h154l-86 -383h321q138 0 217.5 -72t79.5 -190q0 -141 -98.5 -242.5t-261.5 -101.5h-543zM225 135h367q89 0 142.5 56t53.5 141q0 65 -43 102t-122 37h-324zM1040 0l217 989h154l-217 -989h-154z" />
<glyph unicode="&#x44c;" horiz-adv-x="1069" d="M43 0l217 989h154l-86 -383h321q138 0 217.5 -72t79.5 -190q0 -141 -98.5 -242.5t-261.5 -101.5h-543zM225 135h367q89 0 142.5 56t53.5 141q0 65 -43 102t-122 37h-324z" />
<glyph unicode="&#x44d;" horiz-adv-x="1013" d="M37 160l108 82q39 -66 108 -103t148 -37q145 0 248.5 94t138.5 238h-503l30 133h490q-1 150 -87.5 234t-221.5 84q-75 0 -143.5 -32.5t-112.5 -86.5l-82 96q148 152 350 152q203 0 330 -119.5t127 -323.5q0 -161 -73.5 -298t-202 -217.5t-281.5 -80.5q-260 0 -371 185z " />
<glyph unicode="&#x44e;" horiz-adv-x="1570" d="M43 0l217 989h154l-90 -411h176q51 188 196 312t336 124q209 0 331 -121t122 -320q0 -116 -42 -224.5t-114 -191t-175.5 -132.5t-219.5 -50q-210 0 -332.5 120t-122.5 319v28h-186l-96 -442h-154zM641 420q0 -140 79 -223.5t216 -83.5q109 0 199 65.5t139 169.5t49 221 q0 141 -78.5 224.5t-216.5 83.5q-109 0 -199 -65.5t-139 -170t-49 -221.5z" />
<glyph unicode="&#x44f;" horiz-adv-x="1120" d="M10 0l355 397q-90 23 -143.5 86.5t-53.5 161.5q0 141 98.5 242.5t261.5 101.5h545l-217 -989h-154l84 383h-262l-327 -383h-187zM326 657q0 -64 41 -101.5t112 -37.5h336l74 336h-367q-88 0 -142 -56t-54 -141z" />
<glyph unicode="&#x451;" horiz-adv-x="1153" d="M82 414q0 162 73.5 300t202 219t281.5 81q193 0 309.5 -120.5t116.5 -311.5q0 -61 -16 -138h-807q0 -3 -1 -21t-1 -26q0 -123 88 -209t247 -86q74 0 150 25.5t135 71.5l51 -107q-67 -53 -159.5 -85t-186.5 -32q-224 0 -353.5 119.5t-129.5 319.5zM258 557h664q4 16 4 39 q0 128 -79 209.5t-222 81.5q-134 0 -238.5 -97.5t-128.5 -232.5zM438 1227q0 41 32.5 72.5t74.5 31.5q37 0 61.5 -24.5t24.5 -59.5q0 -41 -33 -73.5t-74 -32.5q-35 0 -60.5 25.5t-25.5 60.5zM862 1227q0 41 32 72.5t75 31.5q35 0 59.5 -24.5t24.5 -59.5q0 -41 -32.5 -73.5 t-74.5 -32.5q-35 0 -59.5 25.5t-24.5 60.5z" />
<glyph unicode="&#x452;" horiz-adv-x="1134" d="M47 0l240 1096h-140l21 98h139l39 172h154l-39 -172h319l-20 -98h-320l-55 -250q74 69 180 118.5t211 49.5q315 0 246 -316l-174 -794q-32 -146 -126.5 -225.5t-236.5 -79.5q-72 0 -114.5 17t-83.5 56l80 117q49 -63 127 -63q73 0 126 44t74 134l164 747 q28 124 -18.5 175t-155.5 51q-85 0 -175 -45t-151 -109l-157 -723h-154z" />
<glyph unicode="&#x453;" horiz-adv-x="892" d="M43 0l217 989h692l-30 -135h-539l-186 -854h-154zM532 1139l369 295h164l-412 -295h-121z" />
<glyph unicode="&#x454;" horiz-adv-x="1013" d="M82 418q0 161 73.5 298t202 217.5t281.5 80.5q260 0 371 -185l-111 -81q-37 66 -105.5 102.5t-148.5 36.5q-144 0 -246 -90t-139 -230h504l-31 -133h-491v-8q0 -152 86 -237t223 -85q75 0 143 32.5t113 86.5l82 -96q-148 -152 -352 -152q-203 0 -329 119.5t-126 323.5z " />
<glyph unicode="&#x455;" horiz-adv-x="952" d="M6 150l98 106q43 -63 133.5 -109.5t194.5 -46.5q102 0 164.5 51.5t62.5 122.5q0 38 -28.5 68.5t-74.5 52t-101.5 42t-111 45t-101.5 53.5t-74.5 73.5t-28.5 100.5q0 129 100 217t275 88q122 0 223.5 -46t153.5 -116l-88 -100q-35 56 -119.5 96.5t-177.5 40.5 q-97 0 -155 -43.5t-58 -108.5q0 -36 28.5 -64.5t74.5 -49.5t101.5 -41t111 -44.5t101.5 -54.5t74.5 -76.5t28.5 -105.5q0 -136 -105 -231t-284 -95q-134 0 -242.5 45t-175.5 130z" />
<glyph unicode="&#x456;" horiz-adv-x="460" d="M43 0l219 989h154l-219 -989h-154zM287 1221q0 51 36.5 83.5t79.5 32.5q39 0 67 -27t28 -63q0 -52 -36.5 -84.5t-80.5 -32.5q-41 0 -67.5 26t-26.5 65z" />
<glyph unicode="&#x457;" horiz-adv-x="460" d="M43 0l219 989h154l-219 -989h-154zM86 1227q0 41 32.5 72.5t74.5 31.5q37 0 61.5 -24.5t24.5 -59.5q0 -41 -33 -73.5t-74 -32.5q-35 0 -60.5 25.5t-25.5 60.5zM510 1227q0 41 31.5 72.5t74.5 31.5q35 0 59.5 -24.5t24.5 -59.5q0 -42 -32 -74t-74 -32q-35 0 -59.5 25.5 t-24.5 60.5z" />
<glyph unicode="&#x458;" horiz-adv-x="460" d="M-375 -315l74 110q24 -31 61.5 -50t79.5 -19q139 0 180 178l242 1085h154l-242 -1085q-33 -151 -108 -228t-205 -77q-162 0 -236 86zM287 1221q0 51 36.5 83.5t79.5 32.5q39 0 67 -27t28 -63q0 -52 -36.5 -84.5t-80.5 -32.5q-41 0 -67.5 26t-26.5 65z" />
<glyph unicode="&#x459;" horiz-adv-x="1738" d="M-80 -25l29 127q69 0 134 92.5t140 307.5l172 487h688l-86 -383h322q138 0 217.5 -72t79.5 -190q0 -141 -99 -242.5t-262 -101.5h-542l186 854h-399l-127 -371q-92 -272 -200 -390t-253 -118zM895 135h367q88 0 142 56t54 141q0 65 -43.5 102t-124.5 37h-321z" />
<glyph unicode="&#x45a;" horiz-adv-x="1738" d="M43 0l217 989h154l-90 -411h514l92 411h153l-92 -411h340q132 0 207.5 -68t75.5 -180q0 -136 -94 -233t-248 -97h-559l96 442h-516l-96 -442h-154zM895 135h381q81 0 129.5 51.5t48.5 128.5q0 59 -39 93t-112 34h-340z" />
<glyph unicode="&#x45b;" horiz-adv-x="1132" d="M45 0l242 1096h-137l22 98h135l39 172h154l-39 -172h323l-22 -98h-322l-55 -250q176 168 350 168q134 0 214.5 -64.5t80.5 -181.5q0 -42 -12 -82l-150 -686h-153l141 649q12 54 12 68q0 82 -55 121t-149 39q-80 0 -161 -45.5t-145 -112.5l-159 -719h-154z" />
<glyph unicode="&#x45c;" horiz-adv-x="1052" d="M43 0l219 989h154l-115 -518l627 518h202l-538 -448l321 -541h-186l-262 451l-207 -168l-61 -283h-154zM565 1139l369 295h164l-412 -295h-121z" />
<glyph unicode="&#x45e;" horiz-adv-x="1003" d="M-94 -379l53 137q37 -16 96 -16q43 0 77 21.5t71 76.5l100 154l-188 995h161l148 -811l510 811h172l-762 -1190q-67 -104 -140 -152t-169 -48q-74 0 -129 22zM297 1282l86 66q35 -70 99.5 -109t152.5 -39t169.5 39t145.5 109l66 -66q-81 -84 -185 -132t-213 -48 q-108 0 -192 48t-129 132z" />
<glyph unicode="&#x45f;" horiz-adv-x="1130" d="M43 0l217 989h154l-189 -854h516l189 854h153l-217 -989h-336l-55 -258h-153l55 258h-334z" />
<glyph unicode="&#x490;" horiz-adv-x="1126" d="M49 0l299 1366h725l55 252h170l-86 -404h-727l-266 -1214h-170z" />
<glyph unicode="&#x491;" horiz-adv-x="892" d="M43 0l217 989h539l57 258h154l-88 -393h-539l-186 -854h-154z" />
<glyph unicode="&#x2000;" horiz-adv-x="888" />
<glyph unicode="&#x2001;" horiz-adv-x="1776" />
<glyph unicode="&#x2002;" horiz-adv-x="888" />
<glyph unicode="&#x2003;" horiz-adv-x="1776" />
<glyph unicode="&#x2004;" horiz-adv-x="592" />
<glyph unicode="&#x2005;" horiz-adv-x="444" />
<glyph unicode="&#x2006;" horiz-adv-x="296" />
<glyph unicode="&#x2007;" horiz-adv-x="296" />
<glyph unicode="&#x2008;" horiz-adv-x="222" />
<glyph unicode="&#x2009;" horiz-adv-x="355" />
<glyph unicode="&#x200a;" horiz-adv-x="98" />
<glyph unicode="&#x2010;" horiz-adv-x="614" d="M45 428l29 135h491l-28 -135h-492z" />
<glyph unicode="&#x2011;" horiz-adv-x="614" d="M45 428l29 135h491l-28 -135h-492z" />
<glyph unicode="&#x2012;" horiz-adv-x="614" d="M45 428l29 135h491l-28 -135h-492z" />
<glyph unicode="&#x2013;" horiz-adv-x="1214" d="M45 428l29 135h1091l-28 -135h-1092z" />
<glyph unicode="&#x2014;" horiz-adv-x="1705" d="M45 428l29 135h1583l-29 -135h-1583z" />
<glyph unicode="&#x2018;" d="M221 1055q0 94 70 188t168 143l63 -67q-58 -29 -106.5 -76t-65.5 -96q2 2 17 2q36 0 62 -26t26 -66q0 -50 -38 -85.5t-87 -35.5q-46 0 -77.5 31t-31.5 88z" />
<glyph unicode="&#x2019;" d="M225 1001q58 29 106.5 76.5t65.5 96.5h-16q-37 0 -62.5 25.5t-25.5 66.5q0 49 37.5 84.5t85.5 35.5q47 0 77.5 -31t30.5 -87q0 -94 -69.5 -188.5t-167.5 -145.5z" />
<glyph unicode="&#x201a;" d="M-37 -180q58 29 106.5 76t65.5 96h-16q-36 0 -62 25t-26 65q0 50 37.5 86.5t85.5 36.5q47 0 77.5 -31.5t30.5 -89.5q0 -93 -68.5 -187t-166.5 -145z" />
<glyph unicode="&#x201c;" horiz-adv-x="798" d="M238 1055q0 94 69.5 188t167.5 143l62 -67q-58 -29 -106.5 -76t-65.5 -96q2 2 16 2q36 0 62 -26t26 -66q0 -50 -37.5 -85.5t-85.5 -35.5q-47 0 -77.5 31t-30.5 88zM563 1055q0 94 70 188t168 143l61 -67q-58 -29 -106 -76t-66 -96q4 2 19 2q35 0 60.5 -26t25.5 -66 q0 -50 -37.5 -85.5t-85.5 -35.5q-47 0 -78 31t-31 88z" />
<glyph unicode="&#x201d;" horiz-adv-x="798" d="M225 1001q58 29 106.5 76.5t65.5 96.5h-16q-37 0 -62.5 25.5t-25.5 66.5q0 49 37.5 84.5t85.5 35.5q47 0 77.5 -31t30.5 -87q0 -94 -69.5 -188.5t-167.5 -145.5zM553 1001q57 29 105.5 76t66.5 97h-18q-35 0 -60.5 25.5t-25.5 66.5q0 49 37 84.5t85 35.5q47 0 78 -31 t31 -87q0 -94 -69.5 -188.5t-168.5 -145.5z" />
<glyph unicode="&#x201e;" horiz-adv-x="798" d="M-37 -180q58 29 106.5 76t65.5 96h-16q-36 0 -62 25t-26 65q0 50 37.5 86.5t85.5 36.5q47 0 77.5 -31.5t30.5 -89.5q0 -93 -68.5 -187t-166.5 -145zM289 -180q59 29 107 76t65 96h-17q-36 0 -61 25t-25 65q0 50 37.5 86.5t85.5 36.5q46 0 77.5 -32t31.5 -89 q0 -93 -69.5 -187t-168.5 -145z" />
<glyph unicode="&#x2026;" horiz-adv-x="1415" d="M31 82q0 51 37 87t88 36q42 0 72 -31t30 -74q0 -50 -36.5 -85t-86.5 -35q-44 0 -74 29.5t-30 72.5zM504 82q0 51 36 87t87 36q42 0 72 -31t30 -74q0 -51 -36 -85.5t-87 -34.5q-43 0 -72.5 29.5t-29.5 72.5zM975 82q0 51 36 87t87 36q42 0 72 -31t30 -74q0 -51 -36 -85.5 t-87 -34.5q-43 0 -72.5 29.5t-29.5 72.5z" />
<glyph unicode="&#x202f;" horiz-adv-x="355" />
<glyph unicode="&#x2039;" horiz-adv-x="604" d="M59 498l410 362h162l-418 -373l238 -358h-146z" />
<glyph unicode="&#x203a;" horiz-adv-x="604" d="M-23 129l418 373l-237 358h145l246 -368l-410 -363h-162z" />
<glyph unicode="&#x205f;" horiz-adv-x="444" />
<glyph unicode="&#x20ac;" horiz-adv-x="1423" d="M59 485l25 107h88q0 81 21 184h-70l24 107h78q88 232 285.5 369t429.5 137q198 0 341.5 -86t215.5 -236l-162 -63q-59 118 -165 175.5t-240 57.5q-160 0 -301 -95t-215 -259h645l-25 -107h-657q-25 -89 -25 -184h641l-24 -107h-609q28 -163 148.5 -260.5t304.5 -97.5 q200 0 367 156l125 -95q-101 -109 -233.5 -161t-268.5 -52q-252 0 -424 138.5t-203 371.5h-117z" />
<glyph unicode="&#x2122;" horiz-adv-x="929" d="M215 1313l10 53h312l-11 -53h-127l-88 -398h-57l88 398h-127zM512 915l98 451h88l60 -328l203 328h88l-99 -451h-57l82 373l-236 -373h-16l-72 373l-82 -373h-57z" />
<glyph unicode="&#xe000;" horiz-adv-x="993" d="M0 0v993h993v-993h-993z" />
<hkern u1="K" u2="a" k="35" />
<hkern u1="L" u2="a" k="29" />
<hkern u1="P" u2="a" k="41" />
<hkern u1="R" u2="a" k="41" />
<hkern u1="T" u2="a" k="195" />
<hkern u1="V" u2="a" k="129" />
<hkern u1="W" u2="a" k="82" />
<hkern u1="Y" u2="a" k="248" />
<hkern u1="a" u2="&#x2122;" k="12" />
<hkern u1="a" u2="&#x201d;" k="12" />
<hkern u1="a" u2="&#x201c;" k="12" />
<hkern u1="a" u2="&#x2019;" k="12" />
<hkern u1="a" u2="&#x2018;" k="12" />
<hkern u1="a" u2="&#x42a;" k="221" />
<hkern u1="a" u2="&#x427;" k="221" />
<hkern u1="a" u2="&#x422;" k="221" />
<hkern u1="a" u2="&#x40b;" k="221" />
<hkern u1="a" u2="&#x402;" k="221" />
<hkern u1="a" u2="&#xae;" k="12" />
<hkern u1="a" u2="Y" k="225" />
<hkern u1="a" u2="W" k="88" />
<hkern u1="a" u2="V" k="135" />
<hkern u1="a" u2="T" k="221" />
<hkern u1="a" u2="&#x3f;" k="74" />
<hkern u1="a" u2="&#x27;" k="12" />
<hkern u1="a" u2="&#x22;" k="12" />
<hkern u1="&#x403;" u2="a" k="195" />
<hkern u1="&#x40c;" u2="a" k="35" />
<hkern u1="&#x40e;" u2="a" k="129" />
<hkern u1="&#x413;" u2="a" k="195" />
<hkern u1="&#x416;" u2="a" k="35" />
<hkern u1="&#x41a;" u2="a" k="35" />
<hkern u1="&#x420;" u2="a" k="41" />
<hkern u1="&#x422;" u2="a" k="195" />
<hkern u1="&#x423;" u2="a" k="129" />
<hkern u1="&#x490;" u2="a" k="195" />
<hkern g1="afii10092,afii10094,afii10106,afii10107" 	g2="question" 	k="117" />
<hkern g1="afii10092,afii10094,afii10106,afii10107" 	g2="quotedbl,quotesingle,registered,quoteleft,quoteright,quotedblleft,quotedblright,trademark" 	k="164" />
<hkern g1="afii10092,afii10094,afii10106,afii10107" 	g2="afii10084,afii10092" 	k="106" />
<hkern g1="afii10092,afii10094,afii10106,afii10107" 	g2="C,G,O,Q,afii10053,afii10032,afii10035,afii10038" 	k="61" />
<hkern g1="afii10092,afii10094,afii10106,afii10107" 	g2="asterisk" 	k="131" />
<hkern g1="afii10092,afii10094,afii10106,afii10107" 	g2="U" 	k="18" />
<hkern g1="afii10092,afii10094,afii10106,afii10107" 	g2="T,afii10051,afii10060,afii10036,afii10041,afii10044" 	k="225" />
<hkern g1="afii10092,afii10094,afii10106,afii10107" 	g2="W" 	k="113" />
<hkern g1="afii10092,afii10094,afii10106,afii10107" 	g2="V" 	k="131" />
<hkern g1="afii10092,afii10094,afii10106,afii10107" 	g2="Y" 	k="176" />
<hkern g1="B,afii10018,afii10019,afii10025" 	g2="quotedbl,quotesingle,registered,quoteleft,quoteright,quotedblleft,quotedblright,trademark" 	k="20" />
<hkern g1="B,afii10018,afii10019,afii10025" 	g2="T,afii10051,afii10060,afii10036,afii10041,afii10044" 	k="35" />
<hkern g1="B,afii10018,afii10019,afii10025" 	g2="W" 	k="20" />
<hkern g1="B,afii10018,afii10019,afii10025" 	g2="V" 	k="27" />
<hkern g1="B,afii10018,afii10019,afii10025" 	g2="Y" 	k="61" />
<hkern g1="B,afii10018,afii10019,afii10025" 	g2="afii10069,afii10077,afii10106" 	k="20" />
<hkern g1="afii10067,afii10073" 	g2="question" 	k="88" />
<hkern g1="afii10067,afii10073" 	g2="T,afii10051,afii10060,afii10036,afii10041,afii10044" 	k="115" />
<hkern g1="afii10067,afii10073" 	g2="V" 	k="41" />
<hkern g1="afii10067,afii10073" 	g2="Y" 	k="82" />
<hkern g1="C,afii10053,afii10035" 	g2="question" 	k="6" />
<hkern g1="C,afii10053,afii10035" 	g2="C,G,O,Q,afii10053,afii10032,afii10035,afii10038" 	k="-6" />
<hkern g1="C,afii10053,afii10035" 	g2="S,afii10054,afii10025" 	k="-6" />
<hkern g1="C,afii10053,afii10035" 	g2="T,afii10051,afii10060,afii10036,afii10041,afii10044" 	k="6" />
<hkern g1="C,afii10053,afii10035" 	g2="W" 	k="20" />
<hkern g1="C,afii10053,afii10035" 	g2="V" 	k="25" />
<hkern g1="C,afii10053,afii10035" 	g2="Y" 	k="53" />
<hkern g1="C,afii10053,afii10035" 	g2="afii10069,afii10077,afii10106" 	k="6" />
<hkern g1="C,afii10053,afii10035" 	g2="A,afii10058,afii10017,afii10021,afii10029" 	k="6" />
<hkern g1="D,O,Q,afii10032,afii10038,afii10047,afii10048" 	g2="question" 	k="33" />
<hkern g1="D,O,Q,afii10032,afii10038,afii10047,afii10048" 	g2="quotedbl,quotesingle,registered,quoteleft,quoteright,quotedblleft,quotedblright,trademark" 	k="20" />
<hkern g1="D,O,Q,afii10032,afii10038,afii10047,afii10048" 	g2="J,afii10057" 	k="41" />
<hkern g1="D,O,Q,afii10032,afii10038,afii10047,afii10048" 	g2="T,afii10051,afii10060,afii10036,afii10041,afii10044" 	k="80" />
<hkern g1="D,O,Q,afii10032,afii10038,afii10047,afii10048" 	g2="W" 	k="66" />
<hkern g1="D,O,Q,afii10032,afii10038,afii10047,afii10048" 	g2="V" 	k="68" />
<hkern g1="D,O,Q,afii10032,afii10038,afii10047,afii10048" 	g2="Y" 	k="115" />
<hkern g1="D,O,Q,afii10032,afii10038,afii10047,afii10048" 	g2="afii10069,afii10077,afii10106" 	k="61" />
<hkern g1="D,O,Q,afii10032,afii10038,afii10047,afii10048" 	g2="A,afii10058,afii10017,afii10021,afii10029" 	k="49" />
<hkern g1="D,O,Q,afii10032,afii10038,afii10047,afii10048" 	g2="Z" 	k="35" />
<hkern g1="D,O,Q,afii10032,afii10038,afii10047,afii10048" 	g2="comma,period,quotesinglbase,quotedblbase,ellipsis" 	k="55" />
<hkern g1="D,O,Q,afii10032,afii10038,afii10047,afii10048" 	g2="X,afii10062,afii10024,afii10037,afii10039" 	k="61" />
<hkern g1="F" 	g2="J,afii10057" 	k="121" />
<hkern g1="F" 	g2="afii10069,afii10077,afii10106" 	k="80" />
<hkern g1="F" 	g2="A,afii10058,afii10017,afii10021,afii10029" 	k="74" />
<hkern g1="F" 	g2="comma,period,quotesinglbase,quotedblbase,ellipsis" 	k="102" />
<hkern g1="F" 	g2="ampersand" 	k="12" />
<hkern g1="G" 	g2="question" 	k="12" />
<hkern g1="G" 	g2="T,afii10051,afii10060,afii10036,afii10041,afii10044" 	k="41" />
<hkern g1="G" 	g2="W" 	k="20" />
<hkern g1="G" 	g2="V" 	k="47" />
<hkern g1="G" 	g2="Y" 	k="59" />
<hkern g1="G" 	g2="A,afii10058,afii10017,afii10021,afii10029" 	k="6" />
<hkern g1="G" 	g2="X,afii10062,afii10024,afii10037,afii10039" 	k="6" />
<hkern g1="K,afii10061,afii10024,afii10028" 	g2="afii10084,afii10092" 	k="109" />
<hkern g1="K,afii10061,afii10024,afii10028" 	g2="C,G,O,Q,afii10053,afii10032,afii10035,afii10038" 	k="111" />
<hkern g1="K,afii10061,afii10024,afii10028" 	g2="Y" 	k="43" />
<hkern g1="K,afii10061,afii10024,afii10028" 	g2="f" 	k="53" />
<hkern g1="K,afii10061,afii10024,afii10028" 	g2="u" 	k="41" />
<hkern g1="K,afii10061,afii10024,afii10028" 	g2="t" 	k="80" />
<hkern g1="K,afii10061,afii10024,afii10028" 	g2="w,afii10089" 	k="82" />
<hkern g1="K,afii10061,afii10024,afii10028" 	g2="v" 	k="123" />
<hkern g1="K,afii10061,afii10024,afii10028" 	g2="y,afii10085,afii10110" 	k="123" />
<hkern g1="K,afii10061,afii10024,afii10028" 	g2="hyphen,endash,emdash" 	k="102" />
<hkern g1="K,afii10061,afii10024,afii10028" 	g2="a,c,d,e,g,o,q,afii10065,afii10070,afii10080,afii10083,afii10086,afii10101" 	k="70" />
<hkern g1="K,afii10061,afii10024,afii10028" 	g2="x,afii10072,afii10087" 	k="53" />
<hkern g1="L" 	g2="question" 	k="233" />
<hkern g1="L" 	g2="quotedbl,quotesingle,registered,quoteleft,quoteright,quotedblleft,quotedblright,trademark" 	k="250" />
<hkern g1="L" 	g2="afii10084,afii10092" 	k="158" />
<hkern g1="L" 	g2="C,G,O,Q,afii10053,afii10032,afii10035,afii10038" 	k="70" />
<hkern g1="L" 	g2="asterisk" 	k="356" />
<hkern g1="L" 	g2="U" 	k="55" />
<hkern g1="L" 	g2="T,afii10051,afii10060,afii10036,afii10041,afii10044" 	k="205" />
<hkern g1="L" 	g2="W" 	k="135" />
<hkern g1="L" 	g2="V" 	k="184" />
<hkern g1="L" 	g2="Y" 	k="252" />
<hkern g1="L" 	g2="u" 	k="29" />
<hkern g1="L" 	g2="t" 	k="68" />
<hkern g1="L" 	g2="w,afii10089" 	k="76" />
<hkern g1="L" 	g2="v" 	k="117" />
<hkern g1="L" 	g2="y,afii10085,afii10110" 	k="117" />
<hkern g1="L" 	g2="ampersand" 	k="14" />
<hkern g1="L" 	g2="a,c,d,e,g,o,q,afii10065,afii10070,afii10080,afii10083,afii10086,afii10101" 	k="43" />
<hkern g1="P,afii10034" 	g2="J,afii10057" 	k="223" />
<hkern g1="P,afii10034" 	g2="W" 	k="6" />
<hkern g1="P,afii10034" 	g2="V" 	k="6" />
<hkern g1="P,afii10034" 	g2="Y" 	k="41" />
<hkern g1="P,afii10034" 	g2="afii10069,afii10077,afii10106" 	k="164" />
<hkern g1="P,afii10034" 	g2="A,afii10058,afii10017,afii10021,afii10029" 	k="158" />
<hkern g1="P,afii10034" 	g2="comma,period,quotesinglbase,quotedblbase,ellipsis" 	k="193" />
<hkern g1="P,afii10034" 	g2="X,afii10062,afii10024,afii10037,afii10039" 	k="18" />
<hkern g1="P,afii10034" 	g2="ampersand" 	k="53" />
<hkern g1="P,afii10034" 	g2="hyphen,endash,emdash" 	k="70" />
<hkern g1="P,afii10034" 	g2="a,c,d,e,g,o,q,afii10065,afii10070,afii10080,afii10083,afii10086,afii10101" 	k="27" />
<hkern g1="R" 	g2="quotedbl,quotesingle,registered,quoteleft,quoteright,quotedblleft,quotedblright,trademark" 	k="6" />
<hkern g1="R" 	g2="T,afii10051,afii10060,afii10036,afii10041,afii10044" 	k="20" />
<hkern g1="R" 	g2="V" 	k="20" />
<hkern g1="R" 	g2="Y" 	k="39" />
<hkern g1="R" 	g2="ampersand" 	k="6" />
<hkern g1="R" 	g2="a,c,d,e,g,o,q,afii10065,afii10070,afii10080,afii10083,afii10086,afii10101" 	k="61" />
<hkern g1="R" 	g2="s,afii10073,afii10095,afii10102" 	k="12" />
<hkern g1="S,afii10054" 	g2="afii10084,afii10092" 	k="12" />
<hkern g1="S,afii10054" 	g2="T,afii10051,afii10060,afii10036,afii10041,afii10044" 	k="33" />
<hkern g1="S,afii10054" 	g2="W" 	k="20" />
<hkern g1="S,afii10054" 	g2="V" 	k="25" />
<hkern g1="S,afii10054" 	g2="Y" 	k="61" />
<hkern g1="S,afii10054" 	g2="t" 	k="35" />
<hkern g1="S,afii10054" 	g2="w,afii10089" 	k="6" />
<hkern g1="S,afii10054" 	g2="v" 	k="12" />
<hkern g1="S,afii10054" 	g2="y,afii10085,afii10110" 	k="12" />
<hkern g1="S,afii10054" 	g2="A,afii10058,afii10017,afii10021,afii10029" 	k="14" />
<hkern g1="S,afii10054" 	g2="x,afii10072,afii10087" 	k="27" />
<hkern g1="T,afii10052,afii10020,afii10036,afii10050" 	g2="afii10084,afii10092" 	k="57" />
<hkern g1="T,afii10052,afii10020,afii10036,afii10050" 	g2="C,G,O,Q,afii10053,afii10032,afii10035,afii10038" 	k="33" />
<hkern g1="T,afii10052,afii10020,afii10036,afii10050" 	g2="J,afii10057" 	k="170" />
<hkern g1="T,afii10052,afii10020,afii10036,afii10050" 	g2="S,afii10054,afii10025" 	k="-14" />
<hkern g1="T,afii10052,afii10020,afii10036,afii10050" 	g2="f" 	k="63" />
<hkern g1="T,afii10052,afii10020,afii10036,afii10050" 	g2="u" 	k="174" />
<hkern g1="T,afii10052,afii10020,afii10036,afii10050" 	g2="w,afii10089" 	k="115" />
<hkern g1="T,afii10052,afii10020,afii10036,afii10050" 	g2="v" 	k="115" />
<hkern g1="T,afii10052,afii10020,afii10036,afii10050" 	g2="y,afii10085,afii10110" 	k="115" />
<hkern g1="T,afii10052,afii10020,afii10036,afii10050" 	g2="afii10069,afii10077,afii10106" 	k="184" />
<hkern g1="T,afii10052,afii10020,afii10036,afii10050" 	g2="A,afii10058,afii10017,afii10021,afii10029" 	k="117" />
<hkern g1="T,afii10052,afii10020,afii10036,afii10050" 	g2="comma,period,quotesinglbase,quotedblbase,ellipsis" 	k="190" />
<hkern g1="T,afii10052,afii10020,afii10036,afii10050" 	g2="ampersand" 	k="82" />
<hkern g1="T,afii10052,afii10020,afii10036,afii10050" 	g2="hyphen,endash,emdash" 	k="123" />
<hkern g1="T,afii10052,afii10020,afii10036,afii10050" 	g2="a,c,d,e,g,o,q,afii10065,afii10070,afii10080,afii10083,afii10086,afii10101" 	k="236" />
<hkern g1="T,afii10052,afii10020,afii10036,afii10050" 	g2="x,afii10072,afii10087" 	k="135" />
<hkern g1="T,afii10052,afii10020,afii10036,afii10050" 	g2="s,afii10073,afii10095,afii10102" 	k="186" />
<hkern g1="T,afii10052,afii10020,afii10036,afii10050" 	g2="colon,semicolon" 	k="102" />
<hkern g1="T,afii10052,afii10020,afii10036,afii10050" 	g2="m,n,p,r,z,afii10067,afii10074,afii10076,afii10078,afii10079,afii10081,afii10082,afii10088,afii10090,afii10091,afii10093,afii10094,afii10096,afii10097,afii10100,afii10107,afii10193,afii10098" 	k="174" />
<hkern g1="afii10068,afii10084,afii10100,afii10098" 	g2="J,afii10057" 	k="145" />
<hkern g1="afii10068,afii10084,afii10100,afii10098" 	g2="T,afii10051,afii10060,afii10036,afii10041,afii10044" 	k="57" />
<hkern g1="afii10068,afii10084,afii10100,afii10098" 	g2="V" 	k="6" />
<hkern g1="afii10068,afii10084,afii10100,afii10098" 	g2="afii10069,afii10077,afii10106" 	k="72" />
<hkern g1="afii10068,afii10084,afii10100,afii10098" 	g2="A,afii10058,afii10017,afii10021,afii10029" 	k="70" />
<hkern g1="afii10068,afii10084,afii10100,afii10098" 	g2="comma,period,quotesinglbase,quotedblbase,ellipsis" 	k="123" />
<hkern g1="afii10068,afii10084,afii10100,afii10098" 	g2="ampersand" 	k="76" />
<hkern g1="afii10068,afii10084,afii10100,afii10098" 	g2="hyphen,endash,emdash" 	k="86" />
<hkern g1="J,U,afii10057" 	g2="J,afii10057" 	k="25" />
<hkern g1="J,U,afii10057" 	g2="afii10069,afii10077,afii10106" 	k="18" />
<hkern g1="J,U,afii10057" 	g2="A,afii10058,afii10017,afii10021,afii10029" 	k="33" />
<hkern g1="J,U,afii10057" 	g2="comma,period,quotesinglbase,quotedblbase,ellipsis" 	k="61" />
<hkern g1="V,afii10062,afii10037" 	g2="afii10084,afii10092" 	k="6" />
<hkern g1="V,afii10062,afii10037" 	g2="C,G,O,Q,afii10053,afii10032,afii10035,afii10038" 	k="14" />
<hkern g1="V,afii10062,afii10037" 	g2="J,afii10057" 	k="190" />
<hkern g1="V,afii10062,afii10037" 	g2="S,afii10054,afii10025" 	k="-23" />
<hkern g1="V,afii10062,afii10037" 	g2="f" 	k="47" />
<hkern g1="V,afii10062,afii10037" 	g2="u" 	k="86" />
<hkern g1="V,afii10062,afii10037" 	g2="t" 	k="27" />
<hkern g1="V,afii10062,afii10037" 	g2="w,afii10089" 	k="12" />
<hkern g1="V,afii10062,afii10037" 	g2="v" 	k="27" />
<hkern g1="V,afii10062,afii10037" 	g2="y,afii10085,afii10110" 	k="12" />
<hkern g1="V,afii10062,afii10037" 	g2="afii10069,afii10077,afii10106" 	k="90" />
<hkern g1="V,afii10062,afii10037" 	g2="A,afii10058,afii10017,afii10021,afii10029" 	k="90" />
<hkern g1="V,afii10062,afii10037" 	g2="comma,period,quotesinglbase,quotedblbase,ellipsis" 	k="184" />
<hkern g1="V,afii10062,afii10037" 	g2="ampersand" 	k="25" />
<hkern g1="V,afii10062,afii10037" 	g2="hyphen,endash,emdash" 	k="109" />
<hkern g1="V,afii10062,afii10037" 	g2="a,c,d,e,g,o,q,afii10065,afii10070,afii10080,afii10083,afii10086,afii10101" 	k="123" />
<hkern g1="V,afii10062,afii10037" 	g2="x,afii10072,afii10087" 	k="47" />
<hkern g1="V,afii10062,afii10037" 	g2="s,afii10073,afii10095,afii10102" 	k="80" />
<hkern g1="V,afii10062,afii10037" 	g2="m,n,p,r,z,afii10067,afii10074,afii10076,afii10078,afii10079,afii10081,afii10082,afii10088,afii10090,afii10091,afii10093,afii10094,afii10096,afii10097,afii10100,afii10107,afii10193,afii10098" 	k="86" />
<hkern g1="W" 	g2="C,G,O,Q,afii10053,afii10032,afii10035,afii10038" 	k="18" />
<hkern g1="W" 	g2="J,afii10057" 	k="78" />
<hkern g1="W" 	g2="S,afii10054,afii10025" 	k="-20" />
<hkern g1="W" 	g2="f" 	k="27" />
<hkern g1="W" 	g2="u" 	k="61" />
<hkern g1="W" 	g2="t" 	k="27" />
<hkern g1="W" 	g2="v" 	k="6" />
<hkern g1="W" 	g2="y,afii10085,afii10110" 	k="6" />
<hkern g1="W" 	g2="afii10069,afii10077,afii10106" 	k="92" />
<hkern g1="W" 	g2="A,afii10058,afii10017,afii10021,afii10029" 	k="80" />
<hkern g1="W" 	g2="comma,period,quotesinglbase,quotedblbase,ellipsis" 	k="137" />
<hkern g1="W" 	g2="ampersand" 	k="20" />
<hkern g1="W" 	g2="hyphen,endash,emdash" 	k="68" />
<hkern g1="W" 	g2="a,c,d,e,g,o,q,afii10065,afii10070,afii10080,afii10083,afii10086,afii10101" 	k="82" />
<hkern g1="W" 	g2="x,afii10072,afii10087" 	k="47" />
<hkern g1="W" 	g2="s,afii10073,afii10095,afii10102" 	k="39" />
<hkern g1="W" 	g2="m,n,p,r,z,afii10067,afii10074,afii10076,afii10078,afii10079,afii10081,afii10082,afii10088,afii10090,afii10091,afii10093,afii10094,afii10096,afii10097,afii10100,afii10107,afii10193,afii10098" 	k="61" />
<hkern g1="Y" 	g2="C,G,O,Q,afii10053,afii10032,afii10035,afii10038" 	k="49" />
<hkern g1="Y" 	g2="J,afii10057" 	k="231" />
<hkern g1="Y" 	g2="S,afii10054,afii10025" 	k="14" />
<hkern g1="Y" 	g2="f" 	k="100" />
<hkern g1="Y" 	g2="u" 	k="184" />
<hkern g1="Y" 	g2="t" 	k="53" />
<hkern g1="Y" 	g2="w,afii10089" 	k="123" />
<hkern g1="Y" 	g2="v" 	k="123" />
<hkern g1="Y" 	g2="y,afii10085,afii10110" 	k="123" />
<hkern g1="Y" 	g2="afii10069,afii10077,afii10106" 	k="106" />
<hkern g1="Y" 	g2="A,afii10058,afii10017,afii10021,afii10029" 	k="109" />
<hkern g1="Y" 	g2="comma,period,quotesinglbase,quotedblbase,ellipsis" 	k="184" />
<hkern g1="Y" 	g2="ampersand" 	k="86" />
<hkern g1="Y" 	g2="hyphen,endash,emdash" 	k="238" />
<hkern g1="Y" 	g2="a,c,d,e,g,o,q,afii10065,afii10070,afii10080,afii10083,afii10086,afii10101" 	k="260" />
<hkern g1="Y" 	g2="x,afii10072,afii10087" 	k="150" />
<hkern g1="Y" 	g2="s,afii10073,afii10095,afii10102" 	k="205" />
<hkern g1="Y" 	g2="colon,semicolon" 	k="121" />
<hkern g1="Y" 	g2="m,n,p,r,z,afii10067,afii10074,afii10076,afii10078,afii10079,afii10081,afii10082,afii10088,afii10090,afii10091,afii10093,afii10094,afii10096,afii10097,afii10100,afii10107,afii10193,afii10098" 	k="184" />
<hkern g1="Z" 	g2="C,G,O,Q,afii10053,afii10032,afii10035,afii10038" 	k="35" />
<hkern g1="ampersand" 	g2="quotedbl,quotesingle,registered,quoteleft,quoteright,quotedblleft,quotedblright,trademark" 	k="43" />
<hkern g1="ampersand" 	g2="afii10084,afii10092" 	k="174" />
<hkern g1="ampersand" 	g2="T,afii10051,afii10060,afii10036,afii10041,afii10044" 	k="186" />
<hkern g1="ampersand" 	g2="W" 	k="119" />
<hkern g1="ampersand" 	g2="V" 	k="137" />
<hkern g1="ampersand" 	g2="Y" 	k="225" />
<hkern g1="ampersand" 	g2="y,afii10085,afii10110" 	k="41" />
<hkern g1="asterisk" 	g2="J,afii10057" 	k="238" />
<hkern g1="asterisk" 	g2="afii10069,afii10077,afii10106" 	k="131" />
<hkern g1="asterisk" 	g2="A,afii10058,afii10017,afii10021,afii10029" 	k="207" />
<hkern g1="b,o,p,afii10080,afii10082,afii10086,afii10095,afii10096" 	g2="question" 	k="94" />
<hkern g1="b,o,p,afii10080,afii10082,afii10086,afii10095,afii10096" 	g2="quotedbl,quotesingle,registered,quoteleft,quoteright,quotedblleft,quotedblright,trademark" 	k="20" />
<hkern g1="b,o,p,afii10080,afii10082,afii10086,afii10095,afii10096" 	g2="T,afii10051,afii10060,afii10036,afii10041,afii10044" 	k="236" />
<hkern g1="b,o,p,afii10080,afii10082,afii10086,afii10095,afii10096" 	g2="W" 	k="82" />
<hkern g1="b,o,p,afii10080,afii10082,afii10086,afii10095,afii10096" 	g2="V" 	k="123" />
<hkern g1="b,o,p,afii10080,afii10082,afii10086,afii10095,afii10096" 	g2="Y" 	k="254" />
<hkern g1="b,o,p,afii10080,afii10082,afii10086,afii10095,afii10096" 	g2="comma,period,quotesinglbase,quotedblbase,ellipsis" 	k="14" />
<hkern g1="b,o,p,afii10080,afii10082,afii10086,afii10095,afii10096" 	g2="x,afii10072,afii10087" 	k="76" />
<hkern g1="c,cent,afii10083,afii10101" 	g2="question" 	k="47" />
<hkern g1="c,cent,afii10083,afii10101" 	g2="quotedbl,quotesingle,registered,quoteleft,quoteright,quotedblleft,quotedblright,trademark" 	k="6" />
<hkern g1="c,cent,afii10083,afii10101" 	g2="T,afii10051,afii10060,afii10036,afii10041,afii10044" 	k="166" />
<hkern g1="c,cent,afii10083,afii10101" 	g2="W" 	k="47" />
<hkern g1="c,cent,afii10083,afii10101" 	g2="V" 	k="74" />
<hkern g1="c,cent,afii10083,afii10101" 	g2="Y" 	k="129" />
<hkern g1="colon,semicolon" 	g2="T,afii10051,afii10060,afii10036,afii10041,afii10044" 	k="102" />
<hkern g1="colon,semicolon" 	g2="Y" 	k="121" />
<hkern g1="e,afii10070,afii10071" 	g2="question" 	k="74" />
<hkern g1="e,afii10070,afii10071" 	g2="quotedbl,quotesingle,registered,quoteleft,quoteright,quotedblleft,quotedblright,trademark" 	k="6" />
<hkern g1="e,afii10070,afii10071" 	g2="asterisk" 	k="35" />
<hkern g1="e,afii10070,afii10071" 	g2="T,afii10051,afii10060,afii10036,afii10041,afii10044" 	k="207" />
<hkern g1="e,afii10070,afii10071" 	g2="W" 	k="82" />
<hkern g1="e,afii10070,afii10071" 	g2="V" 	k="109" />
<hkern g1="e,afii10070,afii10071" 	g2="Y" 	k="225" />
<hkern g1="e,afii10070,afii10071" 	g2="comma,period,quotesinglbase,quotedblbase,ellipsis" 	k="14" />
<hkern g1="f" 	g2="question" 	k="-117" />
<hkern g1="f" 	g2="quotedbl,quotesingle,registered,quoteleft,quoteright,quotedblleft,quotedblright,trademark" 	k="-137" />
<hkern g1="f" 	g2="asterisk" 	k="-137" />
<hkern g1="f" 	g2="S,afii10054,afii10025" 	k="-47" />
<hkern g1="f" 	g2="U" 	k="-82" />
<hkern g1="f" 	g2="T,afii10051,afii10060,afii10036,afii10041,afii10044" 	k="-82" />
<hkern g1="f" 	g2="W" 	k="-129" />
<hkern g1="f" 	g2="V" 	k="-129" />
<hkern g1="f" 	g2="Y" 	k="-115" />
<hkern g1="f" 	g2="Z" 	k="-82" />
<hkern g1="f" 	g2="comma,period,quotesinglbase,quotedblbase,ellipsis" 	k="88" />
<hkern g1="f" 	g2="X,afii10062,afii10024,afii10037,afii10039" 	k="-82" />
<hkern g1="f" 	g2="ampersand" 	k="6" />
<hkern g1="f" 	g2="exclam,B,D,E,F,H,I,K,L,M,N,P,R" 	k="-82" />
<hkern g1="f" 	g2="parenright,bracketright,braceright" 	k="-152" />
<hkern g1="g,j,q,afii10105" 	g2="question" 	k="47" />
<hkern g1="g,j,q,afii10105" 	g2="T,afii10051,afii10060,afii10036,afii10041,afii10044" 	k="174" />
<hkern g1="g,j,q,afii10105" 	g2="W" 	k="61" />
<hkern g1="g,j,q,afii10105" 	g2="V" 	k="86" />
<hkern g1="g,j,q,afii10105" 	g2="Y" 	k="184" />
<hkern g1="g,j,q,afii10105" 	g2="j,afii10105" 	k="-94" />
<hkern g1="hyphen,endash,emdash" 	g2="afii10084,afii10092" 	k="86" />
<hkern g1="hyphen,endash,emdash" 	g2="W" 	k="68" />
<hkern g1="hyphen,endash,emdash" 	g2="V" 	k="109" />
<hkern g1="hyphen,endash,emdash" 	g2="Y" 	k="223" />
<hkern g1="hyphen,endash,emdash" 	g2="X,afii10062,afii10024,afii10037,afii10039" 	k="88" />
<hkern g1="k,afii10072,afii10076,afii10109" 	g2="T,afii10051,afii10060,afii10036,afii10041,afii10044" 	k="141" />
<hkern g1="k,afii10072,afii10076,afii10109" 	g2="W" 	k="47" />
<hkern g1="k,afii10072,afii10076,afii10109" 	g2="V" 	k="47" />
<hkern g1="k,afii10072,afii10076,afii10109" 	g2="Y" 	k="135" />
<hkern g1="k,afii10072,afii10076,afii10109" 	g2="hyphen,endash,emdash" 	k="55" />
<hkern g1="k,afii10072,afii10076,afii10109" 	g2="a,c,d,e,g,o,q,afii10065,afii10070,afii10080,afii10083,afii10086,afii10101" 	k="6" />
<hkern g1="comma,period,quotesinglbase,quotedblbase,ellipsis" 	g2="quotedbl,quotesingle,registered,quoteleft,quoteright,quotedblleft,quotedblright,trademark" 	k="156" />
<hkern g1="comma,period,quotesinglbase,quotedblbase,ellipsis" 	g2="afii10084,afii10092" 	k="123" />
<hkern g1="comma,period,quotesinglbase,quotedblbase,ellipsis" 	g2="U" 	k="61" />
<hkern g1="comma,period,quotesinglbase,quotedblbase,ellipsis" 	g2="T,afii10051,afii10060,afii10036,afii10041,afii10044" 	k="190" />
<hkern g1="comma,period,quotesinglbase,quotedblbase,ellipsis" 	g2="W" 	k="137" />
<hkern g1="comma,period,quotesinglbase,quotedblbase,ellipsis" 	g2="V" 	k="178" />
<hkern g1="comma,period,quotesinglbase,quotedblbase,ellipsis" 	g2="Y" 	k="184" />
<hkern g1="comma,period,quotesinglbase,quotedblbase,ellipsis" 	g2="f" 	k="47" />
<hkern g1="comma,period,quotesinglbase,quotedblbase,ellipsis" 	g2="t" 	k="47" />
<hkern g1="comma,period,quotesinglbase,quotedblbase,ellipsis" 	g2="w,afii10089" 	k="90" />
<hkern g1="comma,period,quotesinglbase,quotedblbase,ellipsis" 	g2="v" 	k="137" />
<hkern g1="comma,period,quotesinglbase,quotedblbase,ellipsis" 	g2="y,afii10085,afii10110" 	k="117" />
<hkern g1="comma,period,quotesinglbase,quotedblbase,ellipsis" 	g2="a,c,d,e,g,o,q,afii10065,afii10070,afii10080,afii10083,afii10086,afii10101" 	k="14" />
<hkern g1="comma,period,quotesinglbase,quotedblbase,ellipsis" 	g2="j,afii10105" 	k="-82" />
<hkern g1="comma,period,quotesinglbase,quotedblbase,ellipsis" 	g2="seven" 	k="135" />
<hkern g1="comma,period,quotesinglbase,quotedblbase,ellipsis" 	g2="one" 	k="160" />
<hkern g1="comma,period,quotesinglbase,quotedblbase,ellipsis" 	g2="zero,six" 	k="63" />
<hkern g1="quotedbl,quotesingle,quoteleft,quoteright,quotedblleft,quotedblright" 	g2="C,G,O,Q,afii10053,afii10032,afii10035,afii10038" 	k="6" />
<hkern g1="quotedbl,quotesingle,quoteleft,quoteright,quotedblleft,quotedblright" 	g2="J,afii10057" 	k="188" />
<hkern g1="quotedbl,quotesingle,quoteleft,quoteright,quotedblleft,quotedblright" 	g2="afii10069,afii10077,afii10106" 	k="164" />
<hkern g1="quotedbl,quotesingle,quoteleft,quoteright,quotedblleft,quotedblright" 	g2="A,afii10058,afii10017,afii10021,afii10029" 	k="213" />
<hkern g1="quotedbl,quotesingle,quoteleft,quoteright,quotedblleft,quotedblright" 	g2="comma,period,quotesinglbase,quotedblbase,ellipsis" 	k="156" />
<hkern g1="quotedbl,quotesingle,quoteleft,quoteright,quotedblleft,quotedblright" 	g2="ampersand" 	k="-14" />
<hkern g1="quotedbl,quotesingle,quoteleft,quoteright,quotedblleft,quotedblright" 	g2="s,afii10073,afii10095,afii10102" 	k="61" />
<hkern g1="r" 	g2="T,afii10051,afii10060,afii10036,afii10041,afii10044" 	k="98" />
<hkern g1="r" 	g2="W" 	k="12" />
<hkern g1="r" 	g2="V" 	k="47" />
<hkern g1="r" 	g2="Y" 	k="102" />
<hkern g1="r" 	g2="comma,period,quotesinglbase,quotedblbase,ellipsis" 	k="170" />
<hkern g1="r" 	g2="X,afii10062,afii10024,afii10037,afii10039" 	k="18" />
<hkern g1="s,afii10102" 	g2="question" 	k="88" />
<hkern g1="s,afii10102" 	g2="quotedbl,quotesingle,registered,quoteleft,quoteright,quotedblleft,quotedblright,trademark" 	k="41" />
<hkern g1="s,afii10102" 	g2="T,afii10051,afii10060,afii10036,afii10041,afii10044" 	k="180" />
<hkern g1="s,afii10102" 	g2="W" 	k="80" />
<hkern g1="s,afii10102" 	g2="V" 	k="88" />
<hkern g1="s,afii10102" 	g2="Y" 	k="190" />
<hkern g1="s,afii10102" 	g2="X,afii10062,afii10024,afii10037,afii10039" 	k="6" />
<hkern g1="t" 	g2="T,afii10051,afii10060,afii10036,afii10041,afii10044" 	k="106" />
<hkern g1="t" 	g2="W" 	k="27" />
<hkern g1="t" 	g2="V" 	k="53" />
<hkern g1="t" 	g2="Y" 	k="68" />
<hkern g1="a,u,z,afii10069,afii10074,afii10077,afii10078,afii10079,afii10081,afii10088,afii10089,afii10090,afii10091,afii10093,afii10097,afii10193" 	g2="question" 	k="47" />
<hkern g1="a,u,z,afii10069,afii10074,afii10077,afii10078,afii10079,afii10081,afii10088,afii10089,afii10090,afii10091,afii10093,afii10097,afii10193" 	g2="T,afii10051,afii10060,afii10036,afii10041,afii10044" 	k="174" />
<hkern g1="a,u,z,afii10069,afii10074,afii10077,afii10078,afii10079,afii10081,afii10088,afii10089,afii10090,afii10091,afii10093,afii10097,afii10193" 	g2="W" 	k="61" />
<hkern g1="a,u,z,afii10069,afii10074,afii10077,afii10078,afii10079,afii10081,afii10088,afii10089,afii10090,afii10091,afii10093,afii10097,afii10193" 	g2="V" 	k="86" />
<hkern g1="a,u,z,afii10069,afii10074,afii10077,afii10078,afii10079,afii10081,afii10088,afii10089,afii10090,afii10091,afii10093,afii10097,afii10193" 	g2="Y" 	k="184" />
<hkern g1="v" 	g2="T,afii10051,afii10060,afii10036,afii10041,afii10044" 	k="115" />
<hkern g1="v" 	g2="W" 	k="6" />
<hkern g1="v" 	g2="V" 	k="27" />
<hkern g1="v" 	g2="Y" 	k="123" />
<hkern g1="v" 	g2="A,afii10058,afii10017,afii10021,afii10029" 	k="41" />
<hkern g1="v" 	g2="comma,period,quotesinglbase,quotedblbase,ellipsis" 	k="137" />
<hkern g1="v" 	g2="X,afii10062,afii10024,afii10037,afii10039" 	k="76" />
<hkern g1="w" 	g2="T,afii10051,afii10060,afii10036,afii10041,afii10044" 	k="115" />
<hkern g1="w" 	g2="V" 	k="12" />
<hkern g1="w" 	g2="Y" 	k="123" />
<hkern g1="w" 	g2="A,afii10058,afii10017,afii10021,afii10029" 	k="35" />
<hkern g1="w" 	g2="comma,period,quotesinglbase,quotedblbase,ellipsis" 	k="90" />
<hkern g1="w" 	g2="X,afii10062,afii10024,afii10037,afii10039" 	k="90" />
<hkern g1="y,afii10085,afii10110" 	g2="question" 	k="6" />
<hkern g1="y,afii10085,afii10110" 	g2="T,afii10051,afii10060,afii10036,afii10041,afii10044" 	k="115" />
<hkern g1="y,afii10085,afii10110" 	g2="W" 	k="6" />
<hkern g1="y,afii10085,afii10110" 	g2="V" 	k="12" />
<hkern g1="y,afii10085,afii10110" 	g2="Y" 	k="123" />
<hkern g1="y,afii10085,afii10110" 	g2="A,afii10058,afii10017,afii10021,afii10029" 	k="41" />
<hkern g1="y,afii10085,afii10110" 	g2="comma,period,quotesinglbase,quotedblbase,ellipsis" 	k="117" />
<hkern g1="y,afii10085,afii10110" 	g2="X,afii10062,afii10024,afii10037,afii10039" 	k="76" />
<hkern g1="X,afii10039" 	g2="C,G,O,Q,afii10053,afii10032,afii10035,afii10038" 	k="61" />
<hkern g1="X,afii10039" 	g2="f" 	k="61" />
<hkern g1="X,afii10039" 	g2="t" 	k="61" />
<hkern g1="X,afii10039" 	g2="w,afii10089" 	k="90" />
<hkern g1="X,afii10039" 	g2="v" 	k="76" />
<hkern g1="X,afii10039" 	g2="y,afii10085,afii10110" 	k="76" />
<hkern g1="X,afii10039" 	g2="hyphen,endash,emdash" 	k="88" />
<hkern g1="zero,nine" 	g2="comma,period,quotesinglbase,quotedblbase,ellipsis" 	k="63" />
<hkern g1="seven" 	g2="comma,period,quotesinglbase,quotedblbase,ellipsis" 	k="199" />
<hkern g1="x,afii10087" 	g2="T,afii10051,afii10060,afii10036,afii10041,afii10044" 	k="135" />
<hkern g1="x,afii10087" 	g2="W" 	k="47" />
<hkern g1="x,afii10087" 	g2="V" 	k="47" />
<hkern g1="x,afii10087" 	g2="Y" 	k="150" />
<hkern g1="x,afii10087" 	g2="a,c,d,e,g,o,q,afii10065,afii10070,afii10080,afii10083,afii10086,afii10101" 	k="76" />
<hkern g1="parenleft,bracketleft,braceleft" 	g2="j,afii10105" 	k="-225" />
</font>
</defs></svg> 