<?xml version="1.0" encoding="UTF-8"?>
<svg version="1.1" xmlns="http://www.w3.org/2000/svg" viewBox="0 0 27.3 23.4">
  <g id="Layer_1">
    <path d="M21.3,18.6 L9.9,18.6 C8.1,18.6 6.5,17.5 6.1,15.7 L2.9,4.7 L2.9,4.7 L2.1,2 L0.5,1.5 C-0,1.3 -0.1,0.9 -0,0.5 C0.2,0 0.6,-0.1 1,0 L2.9,0.6 C3.2,0.6 3.4,0.9 3.4,1.1 L4.2,3.7 L25,5.1 C25.6,5.1 26.4,5.6 26.8,6.1 C27.3,6.7 27.3,7.4 27.1,8.2 L25.2,15.7 C24.6,17.5 23,18.6 21.3,18.6 z M4.8,5.3 L7.7,15.2 C8,16.2 9,17 9.9,17 L21.3,17 C22.4,17 23.4,16.2 23.5,15.2 L25.4,7.7 C25.4,7.5 25.4,7.2 25.2,7.1 C25,7 24.9,6.8 24.6,6.8 L4.8,5.3 z" fill="#444444"/>
    <path d="M9.4,23.4 C7.6,23.4 6.2,22 6.2,20.2 C6.2,18.4 7.6,17 9.4,17 C11.2,17 12.6,18.4 12.6,20.2 C12.6,22 11.2,23.4 9.4,23.4 z M9.4,18.6 C8.4,18.6 7.8,19.2 7.8,20.2 C7.8,21.2 8.4,21.8 9.4,21.8 C10.4,21.8 11,21.2 11,20.2 C11,19.2 10.2,18.6 9.4,18.6 z" fill="#444444"/>
    <path d="M21.1,23.4 C19.3,23.4 17.9,22 17.9,20.2 C17.9,18.4 19.3,17 21.1,17 C22.9,17 24.3,18.4 24.3,20.2 C24.3,22 22.9,23.4 21.1,23.4 z M21.1,18.6 C20.1,18.6 19.5,19.2 19.5,20.2 C19.5,21.2 20.1,21.8 21.1,21.8 C22.1,21.8 22.7,21.2 22.7,20.2 C22.7,19.2 22.1,18.6 21.1,18.6 z" fill="#444444"/>
  </g>
</svg>
