<?xml version="1.0" encoding="UTF-8"?>
<svg version="1.1" xmlns="http://www.w3.org/2000/svg" x="0" y="0" width="38" height="14" viewBox="0, 0, 38, 14">
    <path d="M15.4,9.6 L11.8,6.1 C11.6,5.9 11.2,5.9 11,6.1 C10.8,6.3 10.8,6.7 11,6.9 L13.5,9.4 L3,9.4 C2,9.4 1.2,8.6 1.2,7.6 L1.2,0.6 C1.2,0.2 1,0 0.6,0 C0.2,0 -0,0.2 -0,0.6 L-0,7.6 C-0,9.2 1.3,10.5 3,10.5 L13.6,10.5 L11,13 C10.8,13.2 10.8,13.6 11,13.8 C11,14 11.3,14 11.4,14 C11.5,14 11.8,14 11.8,13.9 L15.4,10.4 C15.6,10.1 15.6,9.8 15.4,9.6 z" fill="#444444"/>
    <path d="M37.8,9.6 L34.2,6.1 C34,5.9 33.6,5.9 33.4,6.1 C33.2,6.3 33.2,6.7 33.4,6.9 L35.9,9.4 L25.3,9.4 C24.3,9.4 23.5,8.6 23.5,7.6 L23.5,0.6 C23.6,0.2 23.3,0 23,0 C22.6,0 22.4,0.2 22.4,0.6 L22.4,7.6 C22.4,9.2 23.7,10.5 25.4,10.5 L36,10.5 L33.4,13 C33.2,13.2 33.2,13.6 33.4,13.8 C33.4,14 33.7,14 33.8,14 C33.9,14 34.2,14 34.2,13.9 L37.8,10.4 C38,10.1 38,9.8 37.8,9.6 z" fill="#FFFFFF"/>
</svg>
