<?xml version="1.0" encoding="UTF-8"?>
<svg version="1.1" xmlns="http://www.w3.org/2000/svg" xmlns:xlink="http://www.w3.org/1999/xlink" x="0" y="0" width="500" height="100" viewBox="0, 0, 500, 100">
    <g fill="#6d7b8e">
        <path d="M230.1,2.7 C228.4,1.1 224.9,1.3 220.9,3.3 C220.8,3.3 220.8,3.2 220.7,3.2 C219.5,2.9 218.4,2.7 217.2,2.7 C210.5,2.7 205,8.2 205,14.9 C205,16.1 205.2,17.2 205.5,18.4 C205.5,18.4 205.5,18.4 205.5,18.4 C203.3,22.7 203,26.1 204.8,27.8 C205.4,28.6 206.5,28.9 207.8,28.9 C209.4,28.9 211.5,28.2 213.9,26.8 C213.9,26.8 214,26.8 214,26.8 L214,26.9 L214.2,26.9 C214.2,26.9 214.2,26.9 214.2,26.9 C215.3,27.1 216.3,27.3 217.2,27.3 C223.9,27.3 229.4,21.8 229.4,15.1 C229.4,14.2 229.3,13.3 229.1,12.5 C231.5,8 231.9,4.5 230.1,2.7 z M228.9,3.7 C229.8,4.6 229.7,7.1 228.4,10 C227.2,7.4 225.1,5.2 222.5,4.1 C225.4,2.7 227.7,2.6 228.9,3.7 z M217.2,4.3 C218.1,4.3 218.8,4.4 219.7,4.7 C219.8,4.9 220,5.1 220.3,5.2 C223.7,6.1 226.4,8.9 227.4,12.3 C227.4,12.3 227.4,12.3 227.4,12.3 C225.9,14.6 224.1,17.1 221.8,19.4 C219.4,21.8 216.9,23.8 214.5,25.2 C214.5,25.2 214.4,25.2 214.4,25.1 C211,24.2 208.3,21.4 207.3,18 C207.3,17.9 207.2,17.8 207.2,17.6 C206.9,16.6 206.7,15.8 206.7,14.8 C206.6,8.9 211.3,4.3 217.2,4.3 z M205.7,26.6 C204.8,25.7 204.9,23.2 206.2,20.3 C207.5,22.9 209.5,24.9 212,26.1 C209.2,27.5 206.7,27.7 205.7,26.6 z M217.3,25.7 C216.9,25.7 216.6,25.7 216.3,25.7 L216.2,25.7 C218.4,24.3 220.6,22.5 222.7,20.4 C224.7,18.4 226.5,16.3 227.9,14.1 C227.9,14.5 227.9,14.8 227.9,15.1 C227.9,21 223.2,25.7 217.3,25.7 z"/>
        <path d="M168.2,8.5 C167.2,8.1 166.1,8.5 165.3,9.1 C164.5,9.7 164,10.7 164,11.8 C164,12.3 164.3,12.6 164.8,12.6 C165.3,12.6 165.6,12.3 165.6,11.8 C165.6,11.4 165.7,10.7 166.2,10.4 C166.7,10.1 167.2,9.9 167.8,10.1 C168.6,10.2 169,10.9 169.2,11.5 C169.4,12.3 169.2,12.9 168.6,13.4 C167.3,14.3 166.7,15.8 166.7,17.2 C166.7,17.7 167,18 167.5,18 C168,18 168.3,17.7 168.2,17.3 C168.2,16.3 168.8,15.3 169.6,14.7 C170.7,13.8 171.2,12.5 170.9,11.2 C170.6,9.7 169.5,8.7 168.2,8.5 z M166.9,21.3 C166.7,21.4 166.7,21.7 166.7,21.9 C166.7,22.1 166.7,22.2 166.9,22.4 C167,22.5 167.3,22.7 167.5,22.7 C167.7,22.7 168,22.5 168,22.4 C168.1,22.4 168.3,22.1 168.3,21.9 C168.3,21.6 168.2,21.5 168,21.3 C167.7,21 167.2,21 166.9,21.3 z M167.5,2 C160,2 154,8.1 154,15.5 C154,22.9 160,29 167.5,29 C175,29 181,23 181,15.5 C181,8 174.9,2 167.5,2 z M167.5,27.4 C160.9,27.4 155.6,22 155.6,15.5 C155.6,9 161,3.6 167.5,3.6 C174,3.6 179.4,9 179.4,15.5 C179.4,22 174,27.4 167.5,27.4 z"/>
        <path d="M132.6,12 C132.3,11.7 131.8,11.7 131.5,12 L128.8,14.9 C128.9,12.3 128.1,9.9 126.5,7.9 C124.8,5.5 121.9,4 118.9,3.5 C115.8,3 112.7,3.8 110.3,5.6 C109.9,5.9 109.8,6.4 110.1,6.7 C110.4,7.1 110.9,7.2 111.2,6.9 C113.3,5.4 116.1,4.8 118.7,5.1 C121.5,5.4 123.8,6.8 125.4,8.8 C126.7,10.6 127.3,12.8 127.3,15 L124.3,12.3 C124,12 123.5,12 123.2,12.3 C122.9,12.6 122.9,13.1 123.2,13.4 L127.6,17.1 C127.8,17.3 127.9,17.3 128.1,17.3 C128.3,17.3 128.4,17.1 128.8,17.3 L132.7,13.1 C132.9,12.8 132.9,12.3 132.6,12 z M123.5,22.7 C121.4,24.2 118.6,24.8 116,24.5 C113.2,24.2 110.9,22.8 109.3,20.8 C107.9,19 107.3,16.7 107.4,14.4 L110.5,17.2 C110.8,17.5 111.3,17.5 111.6,17.2 C111.9,16.9 111.9,16.4 111.6,16.1 L107.2,12.4 C107.1,12.2 106.8,12.2 106.6,12.2 C106.4,12.2 106.3,12.3 106.1,12.5 L102.2,16.7 C101.9,17 101.9,17.5 102.2,17.8 C102.4,18 102.5,18 102.7,18 C102.8,18 103.1,18 103.2,17.5 L105.6,15 C105.6,17.4 106.5,19.7 107.9,21.6 C109.6,24 112.5,25.5 115.5,26 C116.2,26.2 116.7,26.2 117.3,26.2 C119.7,26.2 122.2,25.4 124.3,24.1 C124.7,23.8 124.8,23.3 124.5,23 C124.3,22.5 123.8,22.4 123.5,22.7 z"/>
        <path d="M79.7,11.6 L79.7,8 C79.7,5.8 77.9,4 75.7,4 L58,4 C55.8,4 54,5.8 54,8 L54,22 C54,24.2 55.8,26 58,26 L75.7,26 C77.9,26 79.7,24.3 79.7,22 L79.7,18.7 C80.5,18.2 81,17.3 81,16.4 L81,13.8 C81,12.9 80.5,12.1 79.7,11.6 z M78.1,22 C78.1,23.3 77,24.4 75.7,24.4 L58,24.4 C56.7,24.4 55.6,23.3 55.6,22 L55.6,8 C55.6,6.7 56.7,5.6 58,5.6 L75.7,5.6 C77,5.6 78.1,6.7 78.1,8 L78.1,11.1 L70.1,11.1 C68.7,11.1 67.4,12.4 67.4,13.8 L67.4,16.4 C67.4,17.8 68.7,19.1 70.1,19.1 L78.1,19.1 L78.1,22 z M79.4,16.5 C79.4,17.1 78.9,17.6 78.3,17.6 L70.1,17.6 C69.5,17.6 69,17.1 69,16.5 L69,13.9 C69,13.3 69.5,12.8 70.1,12.8 L78.3,12.8 C78.9,12.8 79.4,13.3 79.4,13.9 L79.4,16.5 z M70.3,14.5 C70.1,14.6 70.1,14.9 70.1,15.1 C70.1,15.3 70.1,15.6 70.3,15.6 C70.4,15.7 70.7,15.9 70.9,15.9 C71.1,15.9 71.2,15.7 71.4,15.6 C71.5,15.6 71.7,15.3 71.7,15.1 C71.7,14.8 71.6,14.7 71.4,14.5 C71.1,14.2 70.6,14.2 70.3,14.5 z"/>
        <path d="M27.4,17.1 C34,9.1 30.8,3.5 30.6,3.3 C30.5,3.2 30.5,3 30.3,3 C30.3,3 28.9,2 26.3,2 C24.1,2 20.6,2.6 16.4,6 C16.3,6 16.1,6.2 15.8,6.5 C14,5.1 11.8,5.4 9.7,7.5 C4.8,12.4 6.8,15.9 7,16.1 C7,16.1 7,16.3 7.2,16.3 C7.2,16.3 8.2,16.8 9.6,16.8 C9.8,18.4 10.6,19.9 12,21.3 C13.5,22.6 14.9,23.5 16.5,23.7 C16.4,25.1 17,25.9 17,26.1 C17.1,26.2 17.2,26.4 17.3,26.4 C17.4,26.4 18.2,26.9 19.5,26.9 C20.9,26.9 23.2,26.3 25.8,23.8 C27.9,21.7 28.2,19.6 26.8,17.7 C27.1,17.4 27.2,17.3 27.4,17.1 z M26.2,16.3 C26.2,16.3 26.1,16.4 25.9,16.6 C25.2,17.1 24.9,17.7 25.4,18.2 C26.2,19 27,20.4 24.9,22.5 C22.6,24.7 20.7,25.2 19.6,25.2 C18.9,25.2 18.5,25.2 18.3,25 C18.1,24.7 18,24 18.6,23.3 C18.6,23.2 18.6,22.9 18.4,22.7 C18.3,22.6 18,22.4 17.8,22.4 C16.3,22.4 14.9,21.6 13.6,20.3 C12.1,19 11.5,17.5 11.5,16.1 C11.5,15.8 11.4,15.7 11.2,15.5 C11.1,15.3 10.8,15.3 10.6,15.3 C9.6,15.4 8.8,15.3 8.5,15.1 C8.2,14.5 7.7,12.1 11.1,8.7 C12.7,7.1 14.1,6.9 15.4,8.2 C15.5,8.2 15.8,8.4 16,8.4 C16.3,8.4 16.5,8.3 17.1,7.8 C17.1,7.7 17.2,7.5 17.4,7.5 C17.4,7.3 17.6,7.3 17.6,7.3 C21.5,4.1 24.7,3.5 26.6,3.5 C28.2,3.5 29.3,3.9 29.6,4.1 C30.1,5.1 31.7,9.5 26.4,16.1 C26.2,16.1 26.2,16.3 26.2,16.3 z M10.4,22.7 C10.1,22.4 9.6,22.4 9.3,22.7 L5.3,26.7 C5,27 5,27.5 5.3,27.8 C5.4,28 5.7,28 5.9,28 C6.2,28 6.4,27.9 6.6,27.6 L10.4,23.8 C10.7,23.5 10.7,23 10.4,22.7 z M5.4,22.7 L7.5,20.6 C7.8,20.3 7.8,19.8 7.5,19.5 C7.2,19.2 6.7,19.2 6.4,19.5 L4.3,21.6 C4,21.9 4,22.4 4.3,22.7 C4.4,22.9 4.7,22.9 4.9,22.9 C5.1,22.9 5.4,22.9 5.4,22.7 z M12.5,25.6 L10.4,27.7 C10.1,28 10.1,28.5 10.4,28.8 C10.5,29 10.8,29 11,29 C11.2,29 11.3,29 11.5,28.8 L13.6,26.7 C13.9,26.4 13.9,25.9 13.6,25.6 C13.3,25.3 12.8,25.3 12.5,25.6 z M18.5,9.6 C17.1,11 17.1,13.3 18.5,14.7 C19.2,15.5 20.1,15.8 21.1,15.8 C22,15.8 23,15.3 23.6,14.8 C24.4,14.1 24.7,13.2 24.7,12.2 C24.7,11.2 24.2,10.2 23.6,9.6 C22.4,8.2 19.9,8.2 18.5,9.6 z M22.7,13.6 C21.9,14.4 20.6,14.4 19.8,13.6 C19,12.8 19,11.5 19.8,10.7 C20.1,10.3 20.7,10.1 21.2,10.1 C21.8,10.1 22.3,10.5 22.7,10.8 C23.1,11.1 23.3,11.7 23.3,12.2 C23.3,12.6 23,13.3 22.7,13.6 z"/>
    </g>
    <g fill="#3498db">
        <path d="M230.1,52.7 C228.4,51.1 224.9,51.3 220.9,53.3 C220.8,53.3 220.8,53.2 220.7,53.2 C219.5,52.9 218.4,52.7 217.2,52.7 C210.5,52.7 205,58.2 205,64.9 C205,66.1 205.2,67.2 205.5,68.4 C205.5,68.4 205.5,68.4 205.5,68.4 C203.3,72.7 203,76.1 204.8,77.8 C205.4,78.6 206.5,78.9 207.8,78.9 C209.4,78.9 211.5,78.2 213.9,76.8 C213.9,76.8 214,76.8 214,76.8 L214,76.9 L214.2,76.9 C214.2,76.9 214.2,76.9 214.2,76.9 C215.3,77.1 216.3,77.3 217.2,77.3 C223.9,77.3 229.4,71.8 229.4,65.1 C229.4,64.2 229.3,63.3 229.1,62.5 C231.5,58 231.9,54.5 230.1,52.7 z M228.9,53.7 C229.8,54.6 229.7,57.1 228.4,60 C227.2,57.4 225.1,55.2 222.5,54.1 C225.4,52.7 227.7,52.6 228.9,53.7 z M217.2,54.3 C218.1,54.3 218.8,54.4 219.7,54.7 C219.8,54.9 220,55.1 220.3,55.2 C223.7,56.1 226.4,58.9 227.4,62.3 C227.4,62.3 227.4,62.3 227.4,62.3 C225.9,64.6 224.1,67.1 221.8,69.4 C219.4,71.8 216.9,73.8 214.5,75.2 C214.5,75.2 214.4,75.2 214.4,75.1 C211,74.2 208.3,71.4 207.3,68 C207.3,67.9 207.2,67.8 207.2,67.6 C206.9,66.6 206.7,65.8 206.7,64.8 C206.6,58.9 211.3,54.3 217.2,54.3 z M205.7,76.6 C204.8,75.7 204.9,73.2 206.2,70.3 C207.5,72.9 209.5,74.9 212,76.1 C209.2,77.5 206.7,77.7 205.7,76.6 z M217.3,75.7 C216.9,75.7 216.6,75.7 216.3,75.7 L216.2,75.7 C218.4,74.3 220.6,72.5 222.7,70.4 C224.7,68.4 226.5,66.3 227.9,64.1 C227.9,64.5 227.9,64.8 227.9,65.1 C227.9,71 223.2,75.7 217.3,75.7 z"/>
        <path d="M168.2,58.5 C167.2,58.1 166.1,58.5 165.3,59.1 C164.5,59.7 164,60.7 164,61.8 C164,62.3 164.3,62.6 164.8,62.6 C165.3,62.6 165.6,62.3 165.6,61.8 C165.6,61.4 165.7,60.7 166.2,60.4 C166.7,60.1 167.2,59.9 167.8,60.1 C168.6,60.2 169,60.9 169.2,61.5 C169.4,62.3 169.2,62.9 168.6,63.4 C167.3,64.3 166.7,65.8 166.7,67.2 C166.7,67.7 167,68 167.5,68 C168,68 168.3,67.7 168.2,67.3 C168.2,66.3 168.8,65.3 169.6,64.7 C170.7,63.8 171.2,62.5 170.9,61.2 C170.6,59.7 169.5,58.7 168.2,58.5 z M166.9,71.3 C166.7,71.4 166.7,71.7 166.7,71.9 C166.7,72.1 166.7,72.2 166.9,72.4 C167,72.5 167.3,72.7 167.5,72.7 C167.7,72.7 168,72.5 168,72.4 C168.1,72.4 168.3,72.1 168.3,71.9 C168.3,71.6 168.2,71.5 168,71.3 C167.7,71 167.2,71 166.9,71.3 z M167.5,52 C160,52 154,58.1 154,65.5 C154,72.9 160,79 167.5,79 C175,79 181,73 181,65.5 C181,58 174.9,52 167.5,52 z M167.5,77.4 C160.9,77.4 155.6,72 155.6,65.5 C155.6,59 161,53.6 167.5,53.6 C174,53.6 179.4,59 179.4,65.5 C179.4,72 174,77.4 167.5,77.4 z"/>
        <path d="M132.6,62 C132.3,61.7 131.8,61.7 131.5,62 L128.8,64.9 C128.9,62.3 128.1,59.9 126.5,57.9 C124.8,55.5 121.9,54 118.9,53.5 C115.8,53 112.7,53.8 110.3,55.6 C109.9,55.9 109.8,56.4 110.1,56.7 C110.4,57.1 110.9,57.2 111.2,56.9 C113.3,55.4 116.1,54.8 118.7,55.1 C121.5,55.4 123.8,56.8 125.4,58.8 C126.7,60.6 127.3,62.8 127.3,65 L124.3,62.3 C124,62 123.5,62 123.2,62.3 C122.9,62.6 122.9,63.1 123.2,63.4 L127.6,67.1 C127.8,67.3 127.9,67.3 128.1,67.3 C128.3,67.3 128.4,67.1 128.8,67.3 L132.7,63.1 C132.9,62.8 132.9,62.3 132.6,62 z M123.5,72.7 C121.4,74.2 118.6,74.8 116,74.5 C113.2,74.2 110.9,72.8 109.3,70.8 C107.9,69 107.3,66.7 107.4,64.4 L110.5,67.2 C110.8,67.5 111.3,67.5 111.6,67.2 C111.9,66.9 111.9,66.4 111.6,66.1 L107.2,62.4 C107.1,62.2 106.8,62.2 106.6,62.2 C106.4,62.2 106.3,62.3 106.1,62.5 L102.2,66.7 C101.9,67 101.9,67.5 102.2,67.8 C102.4,68 102.5,68 102.7,68 C102.8,68 103.1,68 103.2,67.5 L105.6,65 C105.6,67.4 106.5,69.7 107.9,71.6 C109.6,74 112.5,75.5 115.5,76 C116.2,76.2 116.7,76.2 117.3,76.2 C119.7,76.2 122.2,75.4 124.3,74.1 C124.7,73.8 124.8,73.3 124.5,73 C124.3,72.5 123.8,72.4 123.5,72.7 z"/>
        <path d="M79.7,61.6 L79.7,58 C79.7,55.8 77.9,54 75.7,54 L58,54 C55.8,54 54,55.8 54,58 L54,72 C54,74.2 55.8,76 58,76 L75.7,76 C77.9,76 79.7,74.3 79.7,72 L79.7,68.7 C80.5,68.2 81,67.3 81,66.4 L81,63.8 C81,62.9 80.5,62.1 79.7,61.6 z M78.1,72 C78.1,73.3 77,74.4 75.7,74.4 L58,74.4 C56.7,74.4 55.6,73.3 55.6,72 L55.6,58 C55.6,56.7 56.7,55.6 58,55.6 L75.7,55.6 C77,55.6 78.1,56.7 78.1,58 L78.1,61.1 L70.1,61.1 C68.7,61.1 67.4,62.4 67.4,63.8 L67.4,66.4 C67.4,67.8 68.7,69.1 70.1,69.1 L78.1,69.1 L78.1,72 z M79.4,66.5 C79.4,67.1 78.9,67.6 78.3,67.6 L70.1,67.6 C69.5,67.6 69,67.1 69,66.5 L69,63.9 C69,63.3 69.5,62.8 70.1,62.8 L78.3,62.8 C78.9,62.8 79.4,63.3 79.4,63.9 L79.4,66.5 z M70.3,64.5 C70.1,64.6 70.1,64.9 70.1,65.1 C70.1,65.3 70.1,65.6 70.3,65.6 C70.4,65.7 70.7,65.9 70.9,65.9 C71.1,65.9 71.2,65.7 71.4,65.6 C71.5,65.6 71.7,65.3 71.7,65.1 C71.7,64.8 71.6,64.7 71.4,64.5 C71.1,64.2 70.6,64.2 70.3,64.5 z"/>
        <path d="M27.4,67.1 C34,59 30.8,53.4 30.6,53.2 C30.5,53.1 30.5,52.9 30.3,52.9 C30.3,52.9 28.9,51.9 26.3,51.9 C24.1,51.9 20.6,52.5 16.4,55.9 C16.3,55.9 16.1,56.1 15.8,56.4 C14,55 11.8,55.3 9.7,57.4 C4.8,62.3 6.8,65.8 7,66 C7,66.1 7,66.3 7.2,66.3 C7.2,66.3 8.2,66.8 9.6,66.8 C9.8,68.4 10.6,69.9 12,71.3 C13.5,72.6 14.9,73.5 16.5,73.7 C16.4,75.1 17,75.9 17,76.1 C17.1,76.2 17.2,76.4 17.3,76.4 C17.4,76.4 18.2,76.9 19.5,76.9 C20.9,76.9 23.2,76.3 25.8,73.8 C27.9,71.7 28.2,69.6 26.8,67.7 C27.1,67.4 27.2,67.3 27.4,67.1 z M26.2,66.3 C26.2,66.3 26.1,66.4 25.9,66.6 C25.2,67.1 24.9,67.7 25.4,68.2 C26.2,69 27,70.4 24.9,72.5 C22.6,74.7 20.7,75.2 19.6,75.2 C18.9,75.2 18.5,75.2 18.3,75 C18.1,74.7 18,74 18.6,73.3 C18.6,73.2 18.6,72.9 18.4,72.7 C18.3,72.6 18,72.4 17.8,72.4 C16.3,72.4 14.9,71.6 13.6,70.3 C12.1,69 11.5,67.5 11.5,66.1 C11.5,65.8 11.4,65.7 11.2,65.5 C11.1,65.3 10.8,65.3 10.6,65.3 C9.6,65.4 8.8,65.3 8.5,65.1 C8.2,64.5 7.7,62.1 11.1,58.7 C12.7,57.1 14.1,56.9 15.4,58.2 C15.5,58.2 15.8,58.4 16,58.4 C16.3,58.4 16.5,58.3 17.1,57.8 C17.1,57.7 17.2,57.5 17.4,57.5 C17.4,57.3 17.6,57.3 17.6,57.3 C21.5,54.1 24.7,53.5 26.6,53.5 C28.2,53.5 29.3,53.9 29.6,54.1 C30.1,55.1 31.7,59.5 26.4,66.1 C26.2,66.1 26.2,66.3 26.2,66.3 z M10.4,72.7 C10.1,72.4 9.6,72.4 9.3,72.7 L5.3,76.7 C5,77 5,77.5 5.3,77.8 C5.4,78 5.7,78 5.9,78 C6.2,78 6.4,77.9 6.6,77.6 L10.4,73.8 C10.7,73.5 10.7,73 10.4,72.7 z M5.4,72.7 L7.5,70.6 C7.8,70.3 7.8,69.8 7.5,69.5 C7.2,69.2 6.7,69.2 6.4,69.5 L4.3,71.6 C4,71.9 4,72.4 4.3,72.7 C4.4,72.9 4.7,72.9 4.9,72.9 C5.1,72.9 5.4,72.9 5.4,72.7 z M12.5,75.6 L10.4,77.7 C10.1,78 10.1,78.5 10.4,78.8 C10.5,79 10.8,79 11,79 C11.2,79 11.3,79 11.5,78.8 L13.6,76.7 C13.9,76.4 13.9,75.9 13.6,75.6 C13.3,75.3 12.8,75.3 12.5,75.6 z M18.5,59.6 C17.1,61 17.1,63.3 18.5,64.7 C19.2,65.5 20.1,65.8 21.1,65.8 C22,65.8 23,65.3 23.6,64.8 C24.4,64.1 24.7,63.2 24.7,62.2 C24.7,61.2 24.2,60.2 23.6,59.6 C22.4,58.2 19.9,58.2 18.5,59.6 z M22.7,63.6 C21.9,64.4 20.6,64.4 19.8,63.6 C19,62.8 19,61.5 19.8,60.7 C20.1,60.3 20.7,60.1 21.2,60.1 C21.8,60.1 22.3,60.5 22.7,60.8 C23.1,61.1 23.3,61.7 23.3,62.2 C23.3,62.6 23,63.3 22.7,63.6 z"/>
    </g>
</svg>
